*** Life<Cell> 3x25 ***

Generation = 0, Population = 14.
-------0----0----00------
------------0----00-00---
--00--------0--0-0-------

Generation = 7, Population = 34.
-0-.*-0--***--.-*---11**-
-11.11-00-1---.1*.--*...-
.1***-*-*-*-1.10.*1.-*---

Generation = 14, Population = 29.
1*-..--.....***1..-.-.**.
.......*--11.*.*.**1....*
.*.**.*1.-.*1...*.***..*-

Generation = 21, Population = 14.
.....1-........-..-.**...
......*.0-.-...**.***....
......*..-......**.....*.

Generation = 28, Population = 6.
......*..................
.....**.0..-.............
.......*.*...............

*** Life<Cell> 11x6 ***

Generation = 0, Population = 24.
00-0--
0-0--0
------
--0--0
-00-0-
000-00
-----0
------
00-00-
--00--
---0--

Generation = 14, Population = 28.
0***-.
.-.0*.
..*--0
.*.*11
***.**
*.-.*-
*...*.
*.*...
.*...0
..**.-
..0.-.

Generation = 28, Population = 13.
...*..
..*.*.
.*....
..*.*.
......
......
......
......
...**-
..*..*
..-***

*** Life<Cell> 38x32 ***

Generation = 0, Population = 1.
--------------------------------
--------------------------------
--------------------------------
--------------------------------
--------------------------------
--------------------------------
--------------------------------
--------------------------------
--------------------------------
--------------------------------
--------------------------------
--------------------------------
--------------------------------
--------------------------------
--------------------------------
--------------------------------
--------------------------------
--------------------------------
--------------------------------
--------------------------------
--------------------------------
--------------------------------
--------------------------------
--------------------------------
--------------------------------
--------------------------------
--------------------------------
-----------0--------------------
--------------------------------
--------------------------------
--------------------------------
--------------------------------
--------------------------------
--------------------------------
--------------------------------
--------------------------------
--------------------------------
--------------------------------

Generation = 12, Population = 15.
--------------------------------
--------------------------------
--------------------------------
--------------------------------
--------------------------------
--------------------------------
--------------------------------
--------------------------------
--------------------------------
--------------------------------
--------------------------------
--------------------------------
--------------------------------
--------------------------------
--------------------------------
-----------0--------------------
--------------------------------
--------------------------------
--------------------------------
-------0-------0----------------
--------------------------------
--------------------------------
--------------------------------
---0-------0-------0------------
--------------------------------
--------------------------------
--------------------------------
-------0-------0-------0--------
--------------------------------
--------------------------------
--------------------------------
---0-------0-------0------------
--------------------------------
--------------------------------
--------------------------------
-------0-------0----------------
--------------------------------
-----------0--------------------

*** Life<Cell> 20x39 ***

Generation = 0, Population = 20.
---------------------------------------
---------------------------------------
----0---0--------0---------------------
---------------------------0----------0
-----0----------------------------0---0
-----------00---0----------------------
-------------------0-------------------
-0-----------------------------------0-
---------------------------------------
-0-------------------------------------
---------------------------------------
----------------------------0----------
---------------------------------------
---------------------------------------
-------------------------0-------------
---------------------------------------
---------------------------------------
-----------------00--------------------
-------------0-------------------------
---------------------------------------

*** Life<Cell> 28x30 ***

Generation = 0, Population = 25.
------------------------------
------------------------------
------------------------------
----------0------------0------
-----------------00----0------
------------------------------
--------------0---------------
-------------0----------------
----00---------------------0--
--------------------------0---
------------------------------
------------------------------
--0---------------------------
----------0-------------------
-----------0------------------
------------------------0-----
--------------0------0--------
-----0------------------------
------------------------------
----0-------------------------
------------------0---------0-
-------0----------------------
--------------------0---------
------------------------------
------------------------------
-------------0----------------
-----------------0------------
------------------------------

*** Life<Cell> 36x9 ***

Generation = 0, Population = 11.
---------
---------
---------
---------
---------
---------
---------
---------
---------
---------
---0-----
------0--
------0--
---------
---------
---------
-0-------
--0------
---------
---------
---------
----0----
---------
---------
---------
--------0
---------
---------
---------
0--------
---------
---------
---------
---0-----
-0-------
-----0---

Generation = 19, Population = 120.
-10-*****
-1.---..-
1.-..**.-
-1.1*-**.
*..*...*.
1.-.*...1
11--**.-1
.11-*0-..
-..*--...
....-*..-
1...**...
.*.1.*-..
**.*.-...
*-....*..
***-.**..
*..*****.
..-......
1*.*.....
1-.*....-
..*-1...-
-.*.1.***
1.*-.*.-.
1--.-.*00
-**--1.-1
..-.0**0.
.1**-..*.
..1***1-.
..-.*..1.
**...--.*
-**.*.*.-
*0.*--*.0
.-....*.1
.-....0*1
.*--.....
-.*.-...1
.***0**.*

*** Life<Cell> 27x17 ***

Generation = 0, Population = 7.
-----------------
-----------------
-----------------
-----------------
-----------------
--0--------------
----------0------
-------------0-0-
-------------0---
---0-------------
-----------------
-----------------
-----------------
-----------------
-----------------
-----------------
-----------------
-----------------
-----------------
-----------------
-----------------
-----------------
-----------------
-----------------
-----------------
-------------0---
-----------------

Generation = 11, Population = 188.
00--00-0--1--*--0
1*1.*10-0--0-1-0-
00-0-0---01--.-0-
--1*1-----1-0.0*0
00---1*0--1*1...-
-*.-1*1--0.--.1.*
10--*0*--.*.-..1-
--.***.1*.1.*.1*.
--0---0*-.....*.0
0-11-1-000-*-.*.*
-0000-0--*-0.***1
-0**00--01-.-.1.*
0-000-------0.0.-
-0-0-0--0--1-.-1-
0-000--0-0-01.00-
-0110---0--1-.010
-000-0---011000*0
0-0-0-0----1-.00-
-0-0-0-----00*0--
--0-0--------0---
---0-------0---0-
----------0-0-0-0
-----0-----0---0-
----0-0----------
---0-0-0---0---0-
--0-0-0-0-0-0-0-0
---0---0---0---0-

Generation = 22, Population = 164.
..---*.....**..-.
......*.-.*1.*...
..*..**.-..0-*0..
-**...*-.-..*..*.
..**.**.*.***...*
-.*.-.**-*.1.....
.****-*....*...*0
..........*****..
-.*.......***....
*-...-.-.11......
.---.-*-*.*......
--.*......*.****.
11***-*.****..***
11**--..**..-...*
--.00..-0.**...*0
0...-1.*..**-...*
-0.1-0**.1.*0-.*0
--1*-.--.*.***...
--1----1-.-...-*1
0---00-..--1..---
--0------1.*.*-*.
*.0-0*-1--.*0*0.-
----0---0---...1-
0-0--01---1-1..-0
------01--*0-*11-
1*-*1--0--01-*--0
--------0001-.00-

*** Life<Cell> 37x23 ***

Generation = 0, Population = 22.
-------------------0---
------0----------------
-------0-0-------------
---0-------------------
----0------------------
-----------------------
-----------------------
---0-------------------
------0----------------
--------------------0--
-----------------------
-----------------------
-----------------------
-----------------------
-----------------------
------------------0----
-----------------------
-----------------------
-----------------------
-----------------------
0-----------0----------
---0-------------------
-----------------------
-----------------------
-----------------------
-0---------------------
-----------------------
---------------------0-
-----------------------
-----------------------
-----------------0-----
-----------------------
------0-----------0----
-----------------------
0----0-----------------
-----------------------
--0------------------0-

*** Life<Cell> 1x31 ***

Generation = 0, Population = 7.
---------000-0----00-0---------

*** Life<Cell> 12x12 ***

Generation = 0, Population = 33.
---00------0
-----0-----0
0-----00---0
0------0---0
-0----------
----0-------
00--0---0-0-
--00--------
--0----0----
-----000--0-
-0-----0----
-0-0--0---0-

*** Life<Cell> 6x29 ***

Generation = 0, Population = 30.
--------0--00------0---0-----
------00----0----0-00--------
---00----00-0----00-------0--
-0---------------0-----------
--0---------------0--0-------
-------------0---000----0---0

Generation = 1, Population = 74.
------0--001-0---001--0-0----
---00011-00--0--010-10-0--0--
-0011000011-10--011-0----0-0-
0--00----00-0---010--0----0--
---0---------0---01-0-0-0---0
--0---------0-0-011100-0-0-0-

Generation = 2, Population = 72.
---00-1-0-1*-10---1*---0-00--
-0--11--011---00--10-10------
-1---111--*---001-*-10-00---0
---1--00----10-0--100---0---0
0--1-----00-0---01*01--0--0--
-0---------0-0--1**-110-0----

Generation = 3, Population = 94.
-001-0--10-*-*---0-*00---110-
010---1---*---1--1*-1-10000-0
0*01--*---*01---*-.---01-0-01
000*0---00-0-1010-*11--010001
--0*0-00011010---*.1*---00-00
--00-----0--0-00-..1--10-00--

Generation = 4, Population = 78.
--1*---0*11.-.--011*11-0--*1-
--10--*10-.00--0--*0*1-1----1
1.---1.10-.1*---*-.0-0-*----*
-1-.-0-----------1**-0--*---*
0-1.--1-1--1*-0--*.*.000-1---
-0----00-1--10111.**-1*10-1-0

Generation = 5, Population = 67.
-0-*0---.-**0.--1-*.*--101.*-
01--1-.-1-.--01-0-.-.*--0-0-*
-*011*.--1.-*0--*-.-1--*---0*
0--.01-0------0---.*---0*--0.
---.--*0--1**01--....11------
-----0-10-0---*-****--.*10---

Generation = 6, Population = 93.
-1-*-0--.1.*1*00*-...-0*1***-
1*-0--.1--*00-*--1.-**1110--*
1.---.*1--.1*-00.1.---0*0---*
--0.--010000-1110-..-0--*001*
0--.00.1-1-**-*00*.****0-1-0-
----0-0-1-1-1-*-.**.11**-11--

Generation = 7, Population = 75.
-*-.--10.-..*.1-*-...--.*.**-
-*-111.*1-.-10.0-*.0..------*
*.01-..*-1.*.01-.*.-10-.100-*
-1-.0----1-1-*---1*.-100.1-**
-01*-1.*-*-..0.11..*...-0--1-
0--010-1-1-0*-*-.**.-*.*--*--

Generation = 8, Population = 73.
0.1.0-*-*-..*.-0*-...--....*-
-*1--*..*-.---.-0**-*.---0--*
*.1-1***0*.*.1*-.*.-*--**110*
-*0.----0--*-*-1--**---1.*0.*
---.-*..-*1*.1.**..***.0---*-
-------*-*-1*0*-***.1...-1.--

Generation = 9, Population = 71.
-.**-0.-.1....11*-...--.....-
1.*11....-.010*--.*-..-1-1-0*
*.--***.-**..-*-...-*00*.-*-*
-*-*0-0-11-*-*1*--*.110-..-.*
-01.0...-*-..-.......**10--*-
-----00.-*1-.1*1***.**..1-.0-

Generation = 10, Population = 82.
0**.0-.-.-..*.--.1...--.....0
*.**-.*..-.1--.-0..0.*-*--01*
*.11..**-*...1.-...0*11**-*0*
-*0.111-**0.-***01.*--11*.0.*
0-*.1.**-.-.*-....*....--10*-
-00--11.1**1.**-**..**..*1.10

Generation = 11, Population = 67.
-.*.-0.-.-....--.-...1-.....1
*...-***.1.--0.0-.*1.*1*-1-*.
*.*-....0*..**.0.*.1.**..-.1.
0.1.--*-.*1.-***-*.*---*..-.*
--..*...1.-.*1....*****10-1.0
-1-0-*-.******.-.*......*-.-1

Generation = 12, Population = 81.
0...01.0.1....-1.-..**-.....-
....1***.*.--1.10.*-..**---**
*..1.*..1...*..-.*.-.*..*1***
1.**11.1..**1..*-*..--1.*.0.*
00****.**.-..*..**.*****---.-
0---1.1.****.*.-..*****.*1.1*

Generation = 13, Population = 65.
-...--.1.*....1**-...*-.....1
...*-..*.*.---*-1*.1*.**-1-.*
.***....-**.***-.**-.*..*-...
-...**.*.*.*-*..0*..11*.*.1.*
1-........-..**.**......011.-
1-0-*.-.***.*..-.**.....**.*.

Generation = 14, Population = 63.
-...--.*......-.*-..**-.....*
...*1....*.-1-.1-..**.**1-0..
..**..*.1*.**.*0...-....*-.*.
1****...**.*1...-...***.*.**.
*0.***....1*.***.....*..1*-.0
*---..-..*...*.-***.....*....

Generation = 15, Population = 61.
-...0-........-..1.***-*.....
..***..*.**-*1**-..**.**---*.
.....*.*-.....*-...1....*1.*.
-......**...-...-...***.*.***
.-...*..*.**.*****..***.*.-*-
*--0*.-...*.**.-**......**...

Generation = 16, Population = 64.
-...11.......*1..-**.*0*.....
...****.*..-.-**1.....**-10..
...**..*-*....*-...*....**...
-......***..-*..0..*..*.*...*
.-..*..**.**.***.*..*.*.*.-*-
.101*.-..**.**.-.*...*.***...

Generation = 17, Population = 60.
-..*--*......*-..1...*1**....
......***..-.-..*.****..1-1..
...*....-*...**-*.....*...*..
-..**.*.....1*..-.****..*....
.0*.*..*...*...*.**.*.*...1.-
.*--*.-.***.**.1*....*****...

Generation = 18, Population = 66.
-...11*.......1..-**.*-***...
......***..-.-***.***...*-*..
...****.-...***-......**.....
-...**......**.*0.*.*.**.*...
.-*.*..*****...*.**.......-.-
.*-1..-.*****.*-**...*****...

Generation = 19, Population = 51.
-...*-*.......*..1*...-***...
...*.......-.-...**.**...1...
...*....1...*..0..*.*.*..*...
-......****....*1.**.****....
.-*.**.*..........**.....*-.-
..0-..-*....*..1***...***....

Generation = 20, Population = 47.
-....-...........-**..1.**...
...**......-.-..*...****.-*..
.......**......1.........*...
-..**.**.*.....**....*****...
.0.*...*.*..........**...*1.-
..11..1........*****...**....

Generation = 21, Population = 47.
-....-...........1.**.*.**...
...........-.-.....*****.1*..
.....****......*....*....**..
-.***.*..*.....**...****.....
.-...*.*..........****....*.-
..*-..-.........*****...**...

Generation = 22, Population = 41.
-....-...........-**..*.***..
......**...-.-....*...**.*...
...******......**........**..
-..**..........**.....*..**..
.-*.***........*.......***..-
...1..-..........*...*...*...

Generation = 23, Population = 34.
-....-...........1**..*.***..
....*...*..-.-...***..**.....
...*....*......***....**.....
-.*...........*........*.....
.0*..*.........*......**....-
...-**1..................*...

Generation = 24, Population = 30.
-....-...........-.*..*.**...
...........-.-.....*.*...*...
...*...........***......*....
-***..........*.........*....
.1*****...............***...-
...1***......................

Generation = 25, Population = 25.
-....-...........-..*...**...
...........-.-..*.*.*..*.*...
...*...........**.......**...
1*...*.........**.......**...
.-....*................**...-
...-..*................*.....

Generation = 26, Population = 21.
-....-...........-.*....**...
...........-.-.***.*...*..*..
.......................*..*..
*..............**............
.1...**................*.*..-
...-...................**....

Generation = 27, Population = 14.
-....-..........*1*.....**...
...........-.-..*.*....*..*..
.................*...........
........................*....
.-.....................*....-
...-...................**....

Generation = 28, Population = 12.
-....-..........*-*.....**...
...........-.-..*.*.....**...
.................*...........
.............................
.-.....................*....-
...-...................**....

Generation = 29, Population = 11.
-....-...........-......**...
...........-.-..*.*.....**...
.................*...........
.............................
.-.....................**...-
...-...................**....

Generation = 30, Population = 10.
-....-...........-......**...
...........-.-...*......**...
.................*...........
.............................
.-.....................**...-
...-...................**....

Generation = 31, Population = 9.
-....-...........1......**...
...........-.-..........**...
.............................
.............................
.-.....................**...-
...-...................**....

*** Life<Cell> 6x2 ***

Generation = 0, Population = 12.
00
00
00
00
00
00

Generation = 11, Population = 0.
..
--
..
..
--
..

Generation = 22, Population = 0.
..
--
..
..
--
..

*** Life<Cell> 24x6 ***

Generation = 0, Population = 1.
------
------
------
------
------
------
------
------
------
------
--0---
------
------
------
------
------
------
------
------
------
------
------
------
------

*** Life<Cell> 18x21 ***

Generation = 0, Population = 6.
---------------------
-------------------0-
---------------------
---------------------
-----0---------------
-0-------------------
---------------------
---------------------
---------------------
--------------------0
---------------------
---------------------
--------------0------
---------------------
---------------------
---------------------
---------------------
--------0------------

*** Life<Cell> 25x5 ***

Generation = 0, Population = 13.
--000
-----
0----
--0--
-----
0----
-----
-----
--0--
-0---
----0
-----
--0--
-----
-----
-----
0----
-----
-----
-----
----0
-0---
-----
-----
-----

Generation = 4, Population = 31.
1-*-.
1---0
---*-
0---*
*--01
-11-0
0---0
--0--
*-0-0
10---
0-0--
-----
--0-0
-0---
----0
-----
-----
-0---
-----
-----
--0--
-0---
-----
-----
----0

Generation = 8, Population = 33.
.-.1.
.-1*-
0*0*1
-.--.
*--..
-*.*-
--0**
1-.00
*-.1-
.-1--
.00--
*-1--
1----
00---
-----
-----
----0
-0---
----0
-----
0----
-----
----0
-----
0----

Generation = 12, Population = 44.
.....
*0*.-
*.-*.
*.0*.
.--*.
-*..0
*-1..
*-..-
*-..0
*1*--
**-0-
.1.-*
---1-
----0
.10-0
*-1--
1-0--
1----
0-0-0
-----
0-0--
-0---
--0-0
-----
0-0--

Generation = 16, Population = 53.
***..
.-*.1
*.*..
*.*..
*1-..
-.**-
.-1*.
*-**-
****1
*.*1-
.*.-*
*.*-*
*.0*-
*.1-1
..-01
*-.-1
-0.--
-1---
-1---
0-0--
*-0--
00---
--0--
-----
--0-0

Generation = 20, Population = 50.
.**..
*...-
.**..
..*..
.....
.*..-
.***.
.-.*0
*..*.
*.*10
*.*-.
***-.
.*-*0
...-.
..*..
.-.0.
1-*0.
----0
1.-01
**.-*
*0-0*
0---0
0-0--
--0--
*-0-0

Generation = 24, Population = 48.
.....
....-
.***.
.***.
.....
**..-
**...
.*...
*....
*....
*..-.
...-.
..*.*
.**1*
.*.**
.1.-.
1*.1*
1-*.*
..--.
*.*-.
*-**.
-..01
-**.*
0*0--
.0110

*** Life<Cell> 7x19 ***

Generation = 0, Population = 19.
---------0---------
-----00------------
---0-0-----0-00----
--0-----------0----
---------0-----000-
--------0---0------
0----0-0-----------

*** Life<Cell> 15x28 ***

Generation = 0, Population = 1.
----------------------------
----------------------------
----------------------------
----------------------------
----------------------------
----------------------------
----------------------------
----------------------------
----------------------------
----------------------------
-0--------------------------
----------------------------
----------------------------
----------------------------
----------------------------

*** Life<Cell> 21x32 ***

Generation = 0, Population = 22.
-----------------------------0--
0------------------0------------
--------------------------------
-------0--------------0---------
---------------------------0----
--------------------------------
----0---------------------------
---0----------------------------
--0-----------------------------
0-------------------------------
----------------------------0---
---0--------0---------0-0-------
-0------------------------------
-------0------------------------
--------------------------------
--------------------------------
-----0--------------------------
------------0-------------------
--------0-----------------------
--------------------------------
------------0------------0------

Generation = 1, Population = 73.
0------------------0--------0-0-
-0----------------0-0--------0--
0------0-----------0--0---------
------0-0------------0-0---0----
-------0--------------0---0-0---
----0----------------------0----
-----0--------------------------
--------------------------------
00------------------------------
-00-------------------------0---
0--0--------0---------0-0--0-0--
-00-0------0-0-------0---0--0---
0-00---0----0---------0-0-------
-0----0-0-----------------------
-------0------------------------
-----0--------------------------
----0-0-----0-------------------
-----0--0--0-0------------------
-------0-0--0-------------------
--------0---0------------0------
-----------0-0----------0-0-----

Generation = 2, Population = 79.
---------------------------0-0-0
0-0----0---------0---00---------
---------------------------0-0--
0----0---0---------00---0-------
----0--------------------0---0--
---0---0--------------0---------
------0--------------------0----
00---0--------------------------
1---------------------------0---
0-1---------0---------0-0-------
-00-----------------------0---0-
01---0-0--0---0-----0-0-0-0-----
---1------------------------0---
---0-0---0--0---------0-0-------
-0---0--------------------------
-------0----0-------------------
---0---00-----------------------
----------0---0-----------------
-----00---0-1------------0------
------------1-------------------
--------0-0-0-0--------0-0-0----

Generation = 3, Population = 197.
0-0----0---------0---00---0-----
---0--0-0-------0-0-0110-------0
--0--0-0-0-------0-0000-0-0---0-
-0----0-0-0-------0110-0---0----
0------0-0---------00-0---0-0-0-
--0-----0------------0-0-0-0-0--
00-0------------------0---0-0---
-10-0----------------------00---
--0--0------0---------0-0--0-0--
10*0-------0-0-------0---00-0-0-
0--0-0-0--0-0-0-----0----010-0-0
1--00---00-0-0-0---0------100-0-
000*0--0-00-0-0-----0-----00-0--
-001-10-0-00-0-------0---0--0---
0-000100-0------------0-0-------
-0-0-001---0-0------------------
--0-0-0-100-0-0-----------------
---0-000001000-0---------0------
----0110-01-*00---------0-0-----
-----00-0--0-00--------0---0----
-------0----1--0------0-----0---

Generation = 4, Population = 65.
-------------------------0-0---0
0-0-0----------0---0---1--------
----0------------------------0--
-----------0------1-------0-----
--0--------------------0-----0-0
-------------------0------------
1-------0-------------------1---
---0--------0-----------0-------
10----0--------------------1----
--.-0--0------------------------
----0-------------------0-------
---1---01-------0-0-0-----*-1---
-11.----------------------------
0--*-------10-------------------
--------0-------------------0---
---1--------0---------0-0-------
---------1--1------------0------
-------11-------0---------------
----1-------.------------0------
--------------------------------
-----0----------0----0-------0--

Generation = 5, Population = 193.
0-0-0----------0---0---00---0-0-
----10--------0-0-0-0-1-00-0-0-0
0-0010-----0---0--00---0--0-0-0-
--0-0-----0-0----0-1---0-0-0---0
-0-0-------0------00--0-0-0-0---
0-0-----0---------0-0--0----00-0
-0-0---0-0--0------0----0--0-0--
-10-0-0-0--0-0---------0-0-00---
*10000------0-----------0-0-0---
10.010--0---------------0--0----
----10--0-------0-0-0--0-01-0---
-1----01*0-----0-----0--00.--0--
-***---00--00---0-0-0-----0-0---
---.0---0-0*10--------------0---
0------0-0-0----------0-0--0-0--
--0-0---00-010-------0------0---
---0---0--00*0--0-----0---0-----
----0-0**---0--0-0--------------
---0-1-00---.---0-------0-0-----
----00----------0----0---0---0--
----0-0--------0-0--0-0-----0-0-

Generation = 6, Population = 192.
----1------------------1-----0--
----*-0----0-0----1------10-----
------0----------------1-0---0-0
0-1-1----0---0-00---1--10---0---
--------0------------0---0-01---
---0-------00----01--0--0-0-----
-1--------0------------0--01-100
-*--10-0--0---0----0--0---0-----
.-11--------------------10--10--
--.--10010--0---0-0-0---1-0-0---
0---------------------0---*0----
1*-10-1*.1000-0-0---0-0-1-.-1-0-
0***----1---------------0---1---
000*-1-0101.*10-0-0-0-0-0-0-1---
-00---0--10-0------------00---0-
00-1-0-11-01*-0-0---0-0-0-0-----
----0--11-11.-0--------0-0-00---
---0-01..01-1-0---0---0-0-------
--0--*1--0--.---1----0-0-0-0-0--
-------00-------1---------------
---010-0------0-0-00-0-0-0-0-0-0

Generation = 7, Population = 313.
---0*00----0-0----0---0-000-0-0-
---0.-10--0---0--0-0----0-10---0
0-0--010-0-0---00-0-0-0*01------
-----00---0-0--110-1--0-10--1--0
0-000--0---000-0000--1000-01-0--
-00-0---0--110--01*0010--0100000
1*0000-0-01-0-0--000-0---01*-*-1
0*--*1--0010-0-0--0-00--0-1-0-00
.-**--0-000-0-0-0-000-00-101-10-
1-.01*---100-0-0-----000*0101---
1--010--0-00--0---0--010-0*10-0-
*.0-1-****--1----0-0--1-*0.-*--0
1...-000*0-0-0----0----0-000-00-
---.--01*1-.*-1---------101-*00-
01-0-1-00-10------0-----011000-0
1-0-0-0--01**-1--0-0---0--1-0-0-
00-0-0---1*-.0-00-0-0-0---0110--
----0--..--0--1000-0-----0--00--
-0--1*---1--.-00*00-0-0-0-----0-
--000---1-----00-000-----------0
--01-1-1-----0--1-11------------

Generation = 8, Population = 111.
--0-*----------------0-----0----
0--1.0*-0--0---------------1----
----1------------------.---00---
---0---0----1-0*--------*-----0-
-0-----------------0---------1--
0-1----0----------.1------------
-.1---------1--------------.-.--
-.00.------1--------------------
*-*.00----1------------------*--
*0.1*.--1---0------0----.-------
-0------1-----------0----1.*1---
*.-1*-....-0--0-0---0-*-.1.0.-0-
**..-1--.1---------------111----
-0-.-1--.--.*1-0----------*-.---
-*0-0-------0------------*------
-----------.*0------------------
-10-----1-.1.-------------------
0---10-..---1-------0-----------
0---**1---10.01-.-----------0---
---1-0----------------0-0-------
-0--1-------1----0--0----------0

Generation = 9, Population = 231.
00-0*-0-0--0--------0-0---010---
-0--.1.--00-0--------1----1-----
0--0--100--00-00-------.0-0-100-
-01---0-0--0--1.1--1---1.0-01--0
---0--------0-00--010---0---1---
-0*0--0-0---1-----.*0--------0--
1.-----0-----0-----0-------.-.--
0.11*1-----------------------0--
*1..-10-00--0------0--------1.0-
*-.***-0*100-0----0-----.0-010--
110----0*0-00-0-0---101-0*.**00-
*.0**-....0-10---0-01-.0*-.-.0-0
***.-*0-.-0000000---0-0-0-*-1-0-
---.-*0-.1-.**--0--------0.-.---
0*1--------0-0-0--------0.------
----0---1--**11----------0------
-*1000-1-1.-.0------0-----------
1-00---..-10--1----0-0------0---
10--..*0-1*1*1*0.---0-0-0--0-0--
000--1----00100--0--00---0--0--0
0-0--------0-0--1-11-00-0-----0-

Generation = 10, Population = 233.
1--1*0-------------0-0-1-0--10--
010-.-.0011-1000--------01---00-
-0--1----------1---0-0-.-110--1-
-1*0-010100110-.-0-*--0-.-01*---
--010-------1--1-01--1------*--0
-1*-00-0-0-1*-00--..-1--0-----0-
*.--00--------0---01-------.-.--
-.*-*--000--00------------------
**..0*10------------0----1--*.-0
.0.***0-.-------00--000-*1----0-
*--0-00-.---------0---*0-*.*.-1-
..1.*-***.1-*-000--1*-.1.-*0.1--
*.*.-.-0.-----------1--011.--0--
---.0*-1.--...-010--0-0-1-.-.-0-
1**0010-0111--0--------0-*------
1---1-----1*.-*-----0-----1-----
-**111--1-.-.10----------0--1---
*----01*.0---0*---0-----0-------
*-00..*1-*.-.*.1.0--1-----0---00
11-10--0----*---------0-0-0-----
1011-1-----111-0-0**0-1-----00--

Generation = 11, Population = 301.
*--**100000-0000--0-----0101*---
-*1-.1.1--*-*---0-------1*-1---0
--0---1----0---*0001---.--*---*0
0-.--1------*11.111*10-1.--**000
-01*-00-0-00---*--*-0*--0-0-*1--
-**01------**---01.*0*00-0--00--
..-01-0-0--0--1--01*00--0--.-.0-
-..-.1---11111----000----0--0--0
**..1.*--0--00--00-01-0--*01..--
.1.*..1-.------011-0---0.*10101-
.--1--1-.-0-0-00------.-0*.**-*0
..*.*0..*.--.-1-10-**0.-.1.-.*--
.*..-.--.-0-0-0--0---0--***111--
-0-.-.0*.11...-1-1001---*0.-.--0
-**--*101-*-001-00------0*----0-
*0-1-00----**-*0---0-0-0-0-00---
0**-*-----*1*-10--0-0------1-0--
*-----*..11-11.----00--0--0-0-00
*01-...*-..-**.-.--0-00--010-011
*--*1--110--.0----00-01---100000
-1--1-01--0***---1**1-*00-00110-

Generation = 12, Population = 255.
.--***-1-------1-0-0---1-*-**0-0
-*--.*.*--*0*-001--0---1-.-*---1
0-10-0------00-.-11--0-.0-*01-.1
--.01*1-1-01*-*.-*-.*---.-0..11-
--*.0-1---1-10-*00.-1.-0-0-1.*-0
0*.--------.*00-1-..-.-1---0----
..---0------1--0--*.-----0-.-.--
0..1.-0----**---00--1-0--1---0--
***.-.*001----0---01----1.1-..00
**.**.-0.10--0--*--1----..*-*---
.1-*--*0.0------0---10.-1....-.1
..***1...*--.0-0*--.*-.-.-.-..-0
.**.0*00*-1---1-----1100...---00
0--.-*-..**.*.1-1*--*--0.1.0*0--
-..-0.-1*1*1----1---00---.1000--
.1--1---1-1..1.--0--0---01--1-0-
1.*1*-----.*.1--00--1----0-*---0
.0--10...*-0*-.0--------0-1-----
*-*-..**-.*1..*-.---1---01-----*
*1-*-1-*-1-0.-0----10-*-0-*-1---
--1-*-1---1***0-1*..*0*-1--1**--

Generation = 13, Population = 315.
.00.**-*0-000--*0--10-0*-.-**1-1
-*--.*..01.-*011*0-1011*-*-.000-
-0*-1--00--0110.--*---0.--*1*-.*
0-.-*.------.-**-.-**--1*-1..-*0
0-*.10*000*0*--.1-.1*.01--0*.*0-
1*.-100---0..11-*-..0.0*0-1100-0
**-01-----------0-..0-00011.-.--
1.*-.-1-011**10-110----0-*--0--0
....1**1---00--0--1---00-.*1.*11
...***1-.*100--0.1-*-0--...-.01-
**0.1-*-.--------0---1.0-....-.*
.....-...*--.-11*0-*.0.1.-.-..--
.**.-.--*-*00-*--0-0*---*..11-1-
--0*0.-......**--*00.0-1*-.-.--0
1..01*1*.*.*-010*0-011000.*1----
.----0--*0*..*.-0100---01--0*0--
-.*-.---11.*.*1-1-00*0--010*----
*-0--1*...11.-*--0-----01-------
*-*-...*0*.*.**-.---*0001*1-0-1.
**-*1--*----.--0100*10*--0*0*--0
1--1*1----****--*..**-*-*0-***0-

Generation = 14, Population = 295.
.-1.**-*-01----.--0--0-*0.0*.-0-
0.1-.*..1*.0.1**.11-1--.-.-.1111
--*-*-11--01**1.0-*1--1.0-*-*-.*
1-*0*.1--00-.-**-.-.*00-*--..-.-
-0..*1.---*-*--.*0.-..-*001...-0
*..-*1--0-1.***-*1..-.1.-0**--0-
..11----00-01--0--.*1---1*-.-*--
*.*-.-*01--..-10---01-0-0.1----1
....-..*--111--1-0*---1-1.**..*-
.**...*-..-1-001.*0.-1--...0*--0
.*1.*0*0.-000-0---0-1-.11....0*.
*..*.-...*-0.0--.1-*.1.**-.0..00
.**.0.-0.1*-10.---01.1-0*..**---
0--.-.0***.....--.-1.10-.1*-*---
-.*-*.-*.*..-1*-.1-1-*--1.*--0-0
.-01-1--.-.*...-1*110---*-11.10-
1*.1.-01--.*.*--*--1*1001--*-0--
.--01**...**.1.0---0----*0-00-0-
*0*-**.*-*.****-.-0-.111*.-01--.
*.0.--0*-10-.--1*--.-1.-01.1.-0-
*-1-.*11-0.**.0-*....0*-*-0..*1-

Generation = 15, Population = 287.
.0****-.0-*--00.--11---.1.1**-1-
-.-1....*..1.-.****1--1.-.-.--*-
-0*0*0-*-0-*..*.-1**0-*.1-.-*-.*
-1*-..*-111-.-*.1.1**--1.--*.-.-
0-*..-*-0-*-*--..-.-..0.11-*..--
.**-.-0010*...*0.-*.0.-.01.*0---
..-*-00-1111--11-0**-0-0-.1*1.-1
.**-.1*1--1..1*111----1--.*--0--
..*.-...-1***-0---.-1-*-*.*.*.*1
.***...0..1--11-..1.---0***-*-1-
*.-.*-*1.-1-1-1--010-1.--..*.1..
*....1.*.*-1.1--.--..*...1.1..-1
****-.-1.*.0*-.---1*.-0-....*110
---.-*1.....*.*--.--.*1-.**0*--0
1**0**-*.**.0*.0**0-1*-0*..--10-
.---1---*0*..**0-.---00-*---.*1-
**.-.1-*1-.*..1-*--*.---*--.110-
.---*...*....-.----1---0.1-1-0-0
*-*0...*-*...*.1*0--*---..11-0-.
*.-.11-.-*10.00**00.1-.-1*.*.-10
.-*1.**--1.*..-0*....-*-*0-..*-0

Generation = 16, Population = 305.
.1***.0.1-.-011*0---0-0.-.**.-*1
-.1-..***..**1.**..*-1*.-*1.-1*-
0-.1*11*-10*..*.0-..--*.-1.-.0..
--.-*.*0-*--.1.*-.-.*00-.01**-.0
--.*.1*0--.-.0-..-*1**-.---*..--
.**-.-1--1...**-*-*.-*1.--..-0-0
..1*--1--*-*1-**0-.*1-0--.-.-*0-
.**-*-.*-1-..*.*---01-*-0.*-0---
....-..*0*..*---00.1--*0*.*.*.**
.***..*1*.--0**1.**.01-1*.*0*0*-
*.1**0.*.-*0--*001*1-**11..*.-*.
*.***-.*.*1*.---.1-..**..-**..-*
***.0*-*...-.-.--0*.*110.*...--1
---.-***.*....*-1.-1..--***-.001
***-..1*..*.-..-**1-*.-1*.*1----
.-0-*1-1.1.....-1.11--10*1--..*0
...-*--**-*..**0.00.*10-*--.*---
*00-*.*..*...1*0-00*--0-*-1*0-0-
.-.1.*..0*..**.-.---*1-1..**-1-*
..-.*--.1*--.--..11**1.0-..*.0*-
.1.*.**10*.**.--.....0.-*-0...11

Generation = 17, Population = 271.
.***.*1.*0.--*-.-0---01.-***.-**
0.*1.........-...*..1***1*-*1-.-
-0.**--.0--*....11..00.*1-.1.1..
1-.0...1-*-1**.*-.1..1-1.--**-.-
-0****.-0-.-*--*.0*-..0.-1-*..--
.*.0*---1**....0*-*.0.-.--..010-
..*.-0*-1*-.*-..-0*.-0-01.1.-*1-
.**1.1**1-1*.*..1101--*01..-1--1
....1...1*..*0011-.*1-.1..*...**
.*...*.-..1--..-....1--*..*1.-.-
*.*..1...-.---.1--.*1..*-....-**
*....1.*.***.-11.-0......-**..-*
*.*.-.0*.*.0.-.---*****1...*.1--
---*-..........-*.0-..11...-.1--
.**0*.-..**.-..0*.--*.--...*01--
.-1-**0-.-*...*-*.**0--1.*-1...1
..*1*--*.-*..*.-.-1.*-10.-0.*1-0
.-10*.*...*..*.---1.0010*--.-0--
.0*-.*.*-.*.**.1*--0.-1***..1*-*
..-*.10.*.10.0-..*-*.*.1-*.*.-.0
.-..***-1**...--..**.1*-.--..*-*

Generation = 18, Population = 272.
.*.**.*..1.-0.1.011----.-*.**1..
-..*.*.***...1...**.-...*.1.*-*1
0-..*1-.--0*....*-**-1..--.-.-..
-1.-.*.--*--.***-.****0*.01*.-.-
--...*.-10.-*-0*.1*1.*-.1--*..0-
.*.-.110*.**...-.-..-*1*01**1*-0
....--.0*.1.*-.*0-..--0--*-*1.--
.***.-..*-**....-*1---.--..0--0*
.*.*-...-...*1----..-0.-.**...**
.*..**.-.*-10*.-*...-10**.**.-.-
*...*-...0.0--**0-.*-...1....1**
*....*.*.*.*.1*-.11....*.1***.-*
.*..-.1*.*.1.-.000*.**.-..**.*11
000.-...**.....-*.1-..--...-.-0-
.*.1..1..**.-..1*.--**0-*.**--00
.---..1-.-**..*0*.*.10-**.1*...*
.*.*.-0*.1**.**-.0-..1-1.--**--1
.-*1..**.**..*.000*.----.-1*0-0-
.1.1...*-.*..*.**--1.1-..**.**-.
..-*.*-.*.*1.10.**1*.*.*1**..-.-
.-..*.*--.**..--..**.-*-.0-...-.

Generation = 19, Population = 271.
..******.*.0-*-.1*-1---.-******.
0.**...***.**-.*....-....*-.*1**
--...*1.011.**.**1..0*.*11.1.-..
--.-.**--*-1**..-.....-**1-*.-.-
--..**.---.-*0-***.-..0.*11..*--
...-.--1..*.***-.1*.0**.1*..**0-
.*..-0.-..-.*0..1-..--1--*1.-.1-
.*.*.-.**-*..*..-**1-0.--*.1-0-*
**.*-...1*...-0-10..11.1**....**
******.-..--1..-*...1--**.**.0.-
**..*1*..-.--0..--*.1...*....***
**...*.*.*.*.*.1.--.*...**....0.
..*.-.**.*.**0*111.....1.*...**-
1-1.-.*........1..*1..1-.*.-*--1
**.-..***..*-.*-..-1*.11*.**01--
.---.*--*1..**.1...*-11.*.-....*
...*.11..-...*.0.11***-**-0..1-*
.0.**........*.-11*.---0.--.10--
.-.-...*-....*...00*.*1.....**-.
..0*.*-*...-.-1.*.*..*.*-..*.0.-
.-..**.11****.0-...**-*-.1-...-.

Generation = 20, Population = 266.
.**.****.*.10.1.*.--0--.1***...*
-**..........1.*..*.1.....-..*.*
0-..**-.--*....***..1.****.*.1*.
--.-...1-*1*....-....*-..*1**1.-
--..**.0-0*-.10****-..1..-**.*--
...-*-1-.......-.-*.1.*.-..**.-0
..*.1-*-**-..1..-0..10*0-.**1.*-
.*..*1.**1..****1.**11.0-..----*
....-..*-*...-----..--.-...*.*.*
......*-..-1-*.1*...--0...*.*1.-
.....-...0.0-1*.01..-*....*.**.*
*.*.*..*...*...*.11*...*.*....-.
*.*.-*.*...*.1.--***...-.**..**-
*0*.-*....**...*.**-***1.*.-.1--
**.-.**.**..-**1..-*..*-*.**1*0-
.1-1**1-**..**.**...---...-..*..
..**.-*..1...*.1.-*..*1.*--.**-.
.-*****.....**.-*-..0--1*-1*-100
.1.-..*.0....***.--*****...*..1.
..1*.*-*.**1*-**.......*1....1.-
.-.***.--***.*10...**1*-.-0...-.

Generation = 21, Population = 266.
.***.**....*1*-*..1110-.***...*.
-.*.......***-......-.....1*.*.*
--....1.--**..****.**.****.*.*..
1-.-...*-.-*....-.*..*0...*..*.-
--..**.1--.-.*-****1..*..-...*00
...0*1*-..*..*.0.1*.*...-.....--
....-0*0.*1.**.*--..*1.-1.*.-**1
...***...**.*********-.11.*-10-*
....1*.*1**..-0---.*11*1...*.*..
.......-*.1*-*.***..---...*..*.-
.....-...-.---..--..1.*..**.***.
...*..*.*..*.*.*.****...**.**.0.
*.*.-*.....*.-*-1....*.-.**..**1
.1*.0*.*****.*.*.*.-****...0.-0-
...1....*..*-*.*.*-**.*1****-.10
**1-..*-..*.*...*...-1-..*1.....
.*...1..**.....*.1...**.*10*..-.
.-..*.*.....*..0*1..101-*-**1-11
.-.-....-**.....*-0***...***..**
..**.*0*...*.-..*.......*....-.-
.-**.**11*...**-....*-*-.1-...-.

Generation = 22, Population = 236.
.***......*.**-...*--11..***..*.
-***.**......-...*..-.*...-*.*..
0-....-.-1.....******.****.*.*..
-1.-.*.*1.-**...-.....1.***..*.0
0-.*...*1-.0*.-*...**.*..-...*-1
...1.-.1****.*.-.-..*...1.....--
....11.1*.*.....--...*.-*..*-*.-
...*........*...***..1.--.*1*10*
...*-****....111--..*-*-****.*..
.......-*.-*-.***..*-1-*.**....-
.....-.*.-*---.*0-..**..*.....*.
............*.*******...*.....-.
..*.-*.....*.1.--......1.*.....*
.**.1*****.*.*.*.**-.......1*--1
*..-***.*...0*.*.*-*...*...*1.-1
***-...1*.***.**.**.-*1...*.....
***..-**.*.*...*.*......**-.*.0.
.0...*..*.*....-.-..----*-..*---
.-.1*..*0.**.....01*..***...****
..**.*1......1.*.*......*....-.0
.1**.*.*-......0.....-.0.-0...-.

Generation = 23, Population = 235.
.*.**.........1....11*-...***...
-..**........1......1.....-*.**.
-0..**1*--......****..*....*.*..
1-.0..**-*1**..*1*....-...*..*.1
--*.*...*-.1.*0....**...*1....-*
...*.1.*.......0.-.**..**...*.-0
...****-..*.*...10..**.0.***1*.1
...*.....*...*****..***--..-.--.
....-.***...***-10***-*1*....*..
.......1**-.1*.....*-*0*...*...-
.....-...0.-1-..1-...****.......
...........****..*****.***....0.
.***-*.**.**.*.-1......-*.......
.**.-...****.*...**-....*.*-*10-
*..1*.......-..*..-*..*...*.-.1*
..*1...-..*....*.*..1.*****.**..
.....-*.....*.**.**....***-*.*-.
*1.***.........0*-..--1-.-.**--1
.1.-...*-.**....*--.....**..****
.*...**.*....-*..*....*.**...1.1
.*.*.*..1.....*1*....-.-.1-...-.

Generation = 24, Population = 220.
..***.........-....***1...****..
-.....*......-...*..*.....-..**.
--*...**01***..*..**......**.*..
--*-....1*-******...*.1..**.*..*
00*.**..*-.*.*1...***..***....0*
..*..*.*...****-*1*...**....**0-
..**.**-.....*..--*....1.*******
...*....**.*...........11**1.--.
....-.*........1-1...-.**.......
......*-.*1**.***..*1.-........-
.....-...1*--1*.--.......*......
..*.....**....********...*....-.
.*.*-..**......1-...*..-......*.
*...1..**..*..*.***-...*...-.---
...-*......*-.*..*-*.**...*.-.-*
..*-*..-.......*.*.*-**.....**..
.*...-........*..**..*....0..*0.
*-*.***....*..*-.-..-0--.-.*.1-*
.-.1...*-.......*--.....****...*
**..***.**...1*..*.....*..*.**.*
..*.*****.....*-*....-.-**0...-.

Generation = 25, Population = 218.
...*..........-....****....****.
-.*..**.****.-............-...*.
-0....*.1*.....*.*****...***.*..
1-*0.**.*.1.....**..**-*....**.*
1-*.*****-....*...*.*....****.-*
.......*...*...-.-....*.......10
..**.**-*.**.**.1-*....-.......*
..******..............***..-.10.
....-..**...*.**1-...-.*..*.....
.......1.****...*...*.-.*......-
.....-...*.--*..-1...*..........
..*....*..*..*..******........0.
.***-..........*1...**.1........
...**..**.....*.***-***....-.-01
...1**......0.*...1*.*.*....1.1.
...-...-......**.*.*-......***..
.**.*1........*****..*....-*..1.
.1*****........0.1..111-.1.*.*1*
*1*-...*-....***.--.....**...*.*
.**......*...**.**.....*....*.*.
.*.**...**...**-.....-.-**-*..-.

Generation = 26, Population = 196.
.........**...-.....**......***.
-.*..**.*.*..-........*...1...*.
--.**...*..*.....***.**...**.*..
*1*1......-....**.....-.*....*..
*-*.*...*0.......*.**.*...***.-*
.**......******-.-.*......**..*1
..*....-*.***...--....*1.....*.*
..*......*.**...**....***..-.*1.
...*1*...**.**.*-1...-*..*......
.......*.****.*.**....-........-
.....-...*.0-*..1*...*..........
.***..........**..**..........-.
.*..-..**.....*.*......-......**
.....*.......**.*.*1...*...-.1-*
...-.*......-.*...-..*.....**.**
..*1...-...........*1.*....*..*.
.*...-*............*.**...0*..**
.*....*......*.-.**.***1**...***
*-.-***.0....*...--..******....*
.........*..*...*......*..*.***.
.*.*....**...**1.....-.-*.-...1.

Generation = 27, Population = 190.
.........**...-......*.......**.
-..***.**.**.-....**..*...*...*.
00..**.*.*......***..***.******.
*-.-....**-.....*.....-*.*...**.
*-......*-.******.***....**.**-*
..*..........*.0.1******..*..*.*
..**...1*.......10....*-*...**.*
..*.*...*.......**...*..*..-.**.
...*-.........**--*..1*.*.......
....*.........*...*...0........-
..*..-..**.11*..-...............
.**.....*....**...*...........0.
.*..-...........*......1......**
......*......**..*.*.......1*--.
...1*.......-***..1..**....**..*
..**...-...........**.*.........
.*...1..................**1**...
**....*........-..**...*...*.*..
.-.1.***-...**...01.*.....***..*
....**.*.*..*..*..........**.***
........**...***.....-.-..0...*.

Generation = 28, Population = 196.
....*...****..-..............**.
0..*.*.*...*.-....***..*.**....*
-1.*.*.*........*.**.*.*.*.**..*
*-.-...*.*1.***.....**-*.......*
.0......*-..**.........*.****.0*
.***...**....*.1.-....***.*....*
.**....**......*-1.*...1**..*..*
..*.*..**.........*..*..**.-***.
...*1.........**--*..-*.........
...*........*.**.....*1*.......-
.***.-..**.*-...-...............
.**.....**...**...............1*
.**.-..........*.**....-.....***
.............*..***...*....-*10*
..*-*.......0*.*..-..**....**...
..**...-......*....**.**.*......
**...-............*.*..***-**...
***.*..*.......-.***....*....*..
.1.-...*0...**...1-............*
....**.*.*..*..**........*...*.*
........**...***.....-.-..1*.***

Generation = 29, Population = 215.
....*...****..-....*..........*.
-.**.*.*.*.*.-...**.*.*..*****.*
0-*....*..****...**..*.*.*.*..**
*1*1..**.****.*....***-*.*...*.*
*1.......-.*.........*...***..1*
*..*.....*..**.**1....*.....**.*
......*..*....*.--*....-..***..*
.**.*..**.....******..*..*.1***.
..*.-........***11...1..*....*..
.............***.....***.......-
.*.*.-..***.-..*-.....*.........
*.......***...*..............*-*
.**.-........*.*..*....-....*...
.***........**.*..*..**....-.*1*
..*1........1*.***1**......**.*.
..**...-.....**....**....*......
*....-...........*..***..*-.*...
..*....**......-.*.*...***..*...
***-**.*1...**...*-.............
......**.*..*..**.........*.**.*
........**...****....-.-..*.**.*

Generation = 30, Population = 207.
...**...**.*..-...**......*****.
0****.**.....1...*..***.**.***.*
11..*..*.....*...*.....*.*.*...*
.*.*..****........**.*-..*.***..
.-.*....*-....***....*..****..**
**........*.******.......*...*.*
.***...*.*......-1.*...-..*....*
.***...**..........*.....*.-..*.
.***1...........*-..**..*....**.
..*......*...*.......*.*.......-
.....-..*.*.-*.*1....***........
*.......*.*...**..............-.
*..*-....*..**.*.......-....*..*
...............*....**.....1..**
...**.......-..****.........*.**
.***...-....****..........****..
.***.-...............***.*1.....
*.**..***......-**..******......
.**-.*..-*..**...*1.....**.***..
.*...**..*..*....*..........**..
.......***...**.*....-.-....**..

Generation = 31, Population = 197.
.*..**.**.....-...****...**...*.
-.....**....**...*.*******.....*
-*..*............*.*...*.*......
**.**.*..*....*****.*.1......*.*
*-......*-........*.*...*..*...*
**.*....**...*...**.....*..*...*
...*...*.*...***-*.....-.**....*
*......**.........**.....*.-.***
....*...*........1..***.*....**.
.**......*....***......**......-
.....-..*.*.1*.**....*.*........
........*.***.........*.......-.
....0....*...*.**......-......**
...**..........*.*.........-*...
...**.......1*...*........*....*
.*.....-.....***.*....*..**.***.
*...*-.*.....****...*.....-.*...
*...*.***......0***.*......**...
*..-**..-*..**....*..**..***.*..
.**..***.**.*.*.***...........*.
......****...*.......-.-....**..

Generation = 32, Population = 212.
.....*.**.....-...*....*.**.....
-...*.***........*.....*........
-****.**.....***.........*....*.
******.........**...**-**.....*.
.1.**..**0....**.....*.*....*..*
***....*.*...*..****....*..*..**
***....*.*...**.-*.*...-***....*
.......*.*....*.******..***-.*.*
.*.....***.....**-*****.**...*.*
........**...**..*..*...*......-
.....-..*.*.-*..*......**.......
........*.*...........*.......1.
...*1....****.***......-........
.....*......**.*.*.........1..**
..***.......**.*.**......**.*.*.
...**..1.........*.......**.***.
**...1***....*....**.*....1.....
**.**.***...*..-..*.*........*..
*..1*...-******......*....**.*..
.*..*.....***.*..**.......**..*.
.....*...**..*...*...-.-.....*..

Generation = 33, Population = 183.
.....*..*.....-.........*.......
-.*.*.........*..........**.....
-.......*.....**......**........
*............*..*...**-**....***
.-...***.-....*...**.*.*.....*.*
......**.**..*..**.**..**.**..**
*.*...**.**..**.1......1...*...*
*.*...**.**..**.......*....1...*
.......*..*..*...-....*...*.....
..........*..**..**.*.*........0
.....-.**.*.1**........**.......
........*...***.*......*......-.
....*....**.*.***......-......**
..*..*....*......**.......*-.***
..*..*......**...**......*..*...
.*.....**...***.**.*........*.*.
**...*...........****....****.*.
...*......*...*-..*.**....***...
*..-...*-*....*..***......**.**.
...***........*..**.......**.**.
.........**.**...**..-.-........

Generation = 34, Population = 170.
..............1..........*......
-.............**.......***......
1............***.....***.*....*.
......**.....*.....***1.*....*.*
.-...*.**0...****.*..*...*..**..
.........**..*..**.**..**.***..*
.....*.....**...**....***..**..*
...........**..*......**..**....
......***.***....1....**........
.......**.*..........**........-
.....-.**...-....*....***.......
.......**.*.....*......**.....1.
.........**.*.*.*......1.....*.*
...***...**.*.**..*........1.*.*
.**...*....**.*....*.......**..*
***...*.....*.*.*...*....*..*...
***...........***....*...*......
**.............0.....*........*.
...-....-....***....*....*....*.
....*...***...*.*.........**.**.
....*........*...**..-.-........

Generation = 35, Population = 133.
..............**.........*......
0......................*.**.....
-............*.*.........*....*.
......**....*...*..*..-.**..**..
.-.....*.-*.**.**.*......**..*..
......*..***.*.....***....*...*.
.............*.*.**..*..........
......**.....*...*...*....***...
......*.*.*.*....-..............
..........*..........*..*......-
.....-*.....-........*..*.......
.......*..**...***............-.
....*.........*.**.....**...**.*
..****...*..*.*............*.*.*
*...*.*...*.*.*....*......**.**.
...*.......**.*.*...*.....***...
.............**.*...**..........
*.*..........*.-....**..........
...-....1*...*..*.........*...**
.........*......**........*..**.
.........*.......*...-.-........

Generation = 36, Population = 131.
........................***.....
-..............*.........**.....
1............................*..
......**...**...**....-.*...***.
.-.....**-*..******.....*.*****.
.........***.*.*...***...**.....
......**..*..*..****.**...*.....
......**....***.***........*....
......*..*.*.....1.........*....
.......*.*.*...................-
.....1....**-...*...............
...............*.*.....**.....-.
....**....**.**..*..........**..
...........*..*...........**...*
..*.......*.*.*..............**.
...........**.*....***....*.**..
..............*....*.......*....
............**.-....**..........
...-....**......**...........***
.........**.....**...........***
................**...-.-........

Generation = 37, Population = 134.
........................*.*.....
0.......................*.*.....
-...............*........*..***.
......***..****...*...-..*......
.-....***0...*....***...*.*...*.
......*....*.*.......**.....**..
......*****..........**..***....
.....*..*.******...*......**....
......*....*.*..***.............
......*.**.**..................-
.....-....**1...*...............
....**......*.**.*............-.
..........*******..........**...
..............**...........*....
..........*.*.**....*.....*..**.
...........**.**...**......****.
...........*..*....*.......**...
.............*.-....*.........*.
...-....***.....**...........*.*
........***....*..*..........*.*
................**...-.-......*.

Generation = 38, Population = 122.
................................
-.......................*.**.*..
1......*....**..........***..*..
......*..*..***..**...-.***...*.
.-...*...1**......****...*...*..
.....*......*......*..**....**..
.....**.*...........***..*......
.....*..*....******......*.*....
.....**.*......****.............
.......*.*...*..*..............-
.....1...**.*..**...............
.................*............-.
...........**..............**...
..........*...............**.*..
............*...*..**.....*...*.
..........*.*......**.....*...*.
...........*..**...*.......*..*.
.........**....-............***.
...-....*.*.....**...........*.*
........*.*....*..*..........*.*
.........*......**...-.-......*.

Generation = 39, Population = 143.
................................
0.......................*.***...
-...........*.*........*....***.
......*.**....*..**.*.-......**.
.-...**..-**.....*..****.**.***.
....**...***......*....**...**..
....****.....************.*.*...
....*...**....*...**.*....*.....
.....**.**...*....*.............
.....*.*.**...*................-
.....-..***....***..............
..........*.*...*.............-.
...........*..............***...
............*.............*..*..
...................**....**..**.
............**.*..*.......**.***
.........*.*.......**......**.**
.........***...0*...........*..*
...-....*.**....**.............*
........*.*....*..*..........*.*
.........*......**...-.-......*.

Generation = 40, Population = 128.
...........................*....
-..........................**...
1............*................*.
.....***.***.*...****.1**..*...*
.-..*.***1.*.....*..****.*.*....
.......*.*.**.**..........*...*.
...*..**.....****....*..*...**..
....*....*......*....*.*.*.*....
....***......**...**............
.....*.*......****.............-
.....1..*......***..............
..........*....***.........*..-.
...........**.............***...
.............................**.
............**.....*.....*.....*
............*.....*......*......
.........*.*..***..*......*.....
........*...*..1**.........***.*
...-....*........*.............*
........*.**...*..*............*
.........*......**...-.-......*.

Generation = 41, Population = 137.
...........................**...
0..........................**...
-.....*...*.*.....**...*...**...
.....*...*.*.....****.-.*.*.....
.-.......*...**.**..*....*.*....
.....*...*.**.......*..*******..
......**..*.**..*.....*.******..
...**..*........**..*.*.*...*...
....*.*......**...*.............
.......*.....*.................-
.....**...........*.............
...........*...*.*........***.-.
...........*....*.........****..
...........*.*............*****.
............**................*.
...........**.**..**.....**.....
...........****...*.......***...
........**....*-.**........**.*.
...-...**..*...*.**.........*..*
........*.*.......*...........**
.........**.....**...-.-........

Generation = 42, Population = 130.
...........................**...
-.........................*..*..
1.........**.....*..*.....*.*...
.........*.***..*...*.-.***.*...
.-......**.*.*..**..**.*........
......*.**.*..****...*.*.....*..
....*****.*.**..**....*.........
...**..*....*.****...*..*.*.**..
...*****.....**..*..............
.......*.....**................-
......*....................*....
................**........*..*-.
..........**....*........*....*.
...........*.*............*...*.
.........................*..*.*.
...............*..**.....**.....
..........**.............*..**..
.......*****..*-*..*......*.....
...-...*..*.....*..*.......**..*
.......**.**......*...........**
.........**......*...-.-........

Generation = 43, Population = 113.
...........................**...
0.........................*..*..
-.........**..............*.**..
........**...*..*..**.-.***.....
.-.....*...*.*......**.*.*......
......*....*..*...*.**.*........
...**.....*.*.....*..***....**..
...........**.....*.............
...*.*.**...*....*..............
....*..*.....**................-
................................
................**........*...-.
..........***...**.......**..**.
..........***............**...**
.........................*.*.*..
........................*****...
........*..*...*..**.....*.*....
.......**......-..........*..*..
...-..*........*.***.......*..**
.......**..*.....**...........**
........****.........-.-........

Generation = 44, Population = 110.
...........................**...
-.........................*..*..
1........**...............*.**..
........**.*.......***-.*.**....
.-.....**.*..**........*.**.....
..........**.*.........*........
..........*.**...**.**.*........
...*........**...**...*.........
....*.***..**...................
....*.***....*.................-
................................
...........*....**.......**...1.
..........*.*...**.........*.***
..........*.*...........*..**..*
...........*.................**.
........................*.......
.......**...............*.......
.......**......-**........***.*.
...-..*.........**.*.........*.*
.......**..*....**.*..........**
.......*****.........-.-........

Generation = 45, Population = 105.
...........................**...
0.........................*..*..
-.......***.........*.....*.**..
.......*...*........*.1.*...*...
.-.....**....**.....*.**.***....
..........*............*........
..........*...*..***.*.*........
.......*.........***.**.........
...**.*.*..*....................
......*.*...*..................-
.......*........................
...........*....**........*..***
..........*.*...**.......*.*.*.*
..........*.*..............*...*
...........*................***.
................................
.......**................*.*....
......*.*......1***........****.
...-..*........*...........***.*
......*....*....**............**
.......*.***.........-.-........

Generation = 46, Population = 107.
...........................**...
-........*................*..*..
1.......***..........*...*..**..
.......*..*........**.*.*...**..
.-.....**.............*..***....
.........*...**...****.*..*.....
.................*.*.*.*........
.......*.........*.*.**.........
.....**.*.........*.............
.....**.*......................-
.......*......................*.
...........*....**........*.**.*
..........*.*...**.........*.*.*
..........*.*.............**...*
...........*................***.
............................**..
.......**.......**........**.*..
......*.*......-**............*.
...-.**........*..*........*...*
......**...*....*...........****
..........**.........-.-........

Generation = 47, Population = 110.
...........................**...
0.......***...............*..*..
-.......*.*.........**...*.*..*.
.......*..*.........*.***....*..
.-.....***........*...*.*****...
........*.........**.*.*****....
.................*.....*........
......**.........*.*.**.........
.....*..*.........*.............
.....*..*......................-
......**.....................**.
...........*....**.........***.*
..........*.*...**...........*.*
..........*.*.............**...*
...........*..................*.
................................
.......**.......**.........*.**.
.....**.*......-..*.......***.*.
...-.*.........*............*..*
.....***..**................****
..........**.........-.-.....**.

Generation = 48, Population = 107.
.........*.................**...
-.......*.*...............*..*..
1......**.**........*******.***.
.......*..*........**.*......*..
.-.....*.*........*.*.......*...
.......***.......***........*...
.......*.........*.*.*.*.**.....
......**.........*....*.........
.....*..*.........*.............
.....*..*......................-
......**.....................**.
...........*....**.............*
..........*.*...**........*..*.*
..........*.*..................*
...........*....................
.............................**.
......***........*........**.**.
.....**.*......1**........*...**
...-*..........................*
.....**...**................*..*
......*...**.........-.-....*..*

*** Life<Cell> 19x9 ***

Generation = 0, Population = 19.
---------
-------0-
---------
---------
--0------
0--------
-0-------
---0-0---
----00---
----00---
---------
----0----
---------
---------
---------
---------
----00---
----0----
0-000--0-

Generation = 3, Population = 70.
-----0---
--0-0-0--
00-0-0-0-
1-0-0-0-0
**-----0-
10---10--
----1-00-
1--1---10
--1-0--10
--10-1*-0
---01*00-
-0---*10-
--0--00--
---01----
---0110--
0--0--0--
-0001-*0-
--*------
1-*---*10

Generation = 6, Population = 90.
110-0----
0000-----
--10010--
111------
.*10*0*00
10---.---
1*1-1*100
-1-*--1*0
--*1111-*
00--0-.1*
0*11-.--0
0-1--.1--
10010--0-
1------10
--*-*1-01
1-0--1--1
-*11.-*-0
00.1*---0
-0.-11.*.

Generation = 9, Population = 80.
*.----0--
1-01*-0--
0*.1011--
**.-01--0
*..0.0*-*
-*1-1.01-
1***.***-
-.0.*.**1
.-...1-**
00--11*.*
1...-.*11
---00.---
.-1--0-.-
.-0-100*0
--*-.---.
-*001.1-*
-***.-.11
1-.-.0--1
-1.-*....

Generation = 12, Population = 70.
.***-.-0-
-1...11-0
1..11.**-
...0-.--*
...-*1.0*
-.10-.-11
**......0
*.1.**..-
*-*...-..
0*1-*.**.
*...*..--
*1--..**1
*-.*..-.*
.*0-..-.*
1-.-.*-**
-.-..*1*.
*.*.....*
*1.1.1--.
-**-*.**.

Generation = 15, Population = 72.
***.0.--0
*...**-01
1**-..*.-
...-*.*-*
...-..*-*
1..1**.-*
.*..*.*.*
*........
*-*...1..
*.--.....
*.*..*.11
*.*1*..*-
*-.**.-.*
*.*-.*-.*
*-.-.*-**
1*0*..-*.
*.****...
*-*-.-1-.
-*.-***..

Generation = 18, Population = 66.
......10-
**......1
**.-....-
...-..*-*
...-.*.-.
*.*...*.*
*.**.**..
...*.***.
**....*..
*.*0.*..*
*.*.***-*
*........
*...*.0..
...1.*-..
*****.-..
*.1......
*.*****.*
*..-.*.**
-**1**...

Generation = 21, Population = 66.
.......1*
**......*
**.-..*.*
...1*.*1.
...1*..0.
..*.*....
.**.*.**.
******...
**.*.*...
*..1**...
*.....*-.
.*.......
......0..
....***..
******1..
*.-......
*.****.*.
****....*
-..1..**.

Generation = 24, Population = 47.
.......**
....*.*.*
...*..*.*
...*..***
.*.*...-*
.*.**.**.
.*....*..
.......*.
....***..
**.*.....
**.*...1.
....***..
......1..
.........
*..**.-..
*.**.....
*.**.....
*........
-........

Generation = 27, Population = 49.
......*.*
....*...*
...**.*.*
........*
..*....1*
.*.*.....
.*.**....
..*.*....
...**.***
**.**....
**.**..-.
......**.
...*..**.
.*.*.....
.*..*.-..
*........
*.**.....
*.*......
1*.......

Generation = 30, Population = 40.
.........
....*..**
..*......
.**.*.*..
.*..*..**
.*..**...
**..*....
...*...*.
*.**..*.*
*.....*..
.......-*
.......**
.........
...*.....
......-..
**.......
**.......
*.**.....
-**......

*** Life<Cell> 16x22 ***

Generation = 0, Population = 23.
---------------0------
-0--------------------
--0-----------------0-
0---------------------
-----0-0----------0---
---0-------0----------
----------------------
----------0----0----0-
------------0---0-----
--00----------0-------
-0--------------------
----------------------
----------------------
---------------0------
-0-----------0--------
--0-------------------

Generation = 8, Population = 150.
1------0---.0---0**1*.
.-1-0.-.-0.1--0---0-0-
*-11**-1--000-1-*-*1*1
--.--11-*-1---0.----*-
*.-*-*---.**.--01.0---
*.*11*--10.-*.-----0--
*11-----**0--0..10*1.-
0*00*---.-1..*..-...*1
1*01--**.1**-*--*1.1.-
**-.*1.011.1.1-*10..--
--1*1.1---0-*101*---*-
0-.*01---1011**.------
---111-1--.11.110**---
-..--.-1--1*-.*-11--.*
-1-------1-0*--.--1.-1
--*0*-------1-**----1-

Generation = 16, Population = 134.
-**...1--.-..1.*1**.*.
...*.....1...*..*-0*.-
...**.**.--..1.....*..
**.**....**..*..1**-*-
..***.*..**..*1*.*.-.-
...**.*.*0.-...-0.*-11
..**.1-.......***-...*
..*-*.1**--..****.....
..**1....**.-.*..*.-..
..**....*.*..1**-....*
01**..-1***..-...1..*1
.-*.11-0-..**....*.11-
..-.**0.-*..*.*1-.**.1
-..*.*.......****..0..
*-110--.-1*1..-..*1...
-*.-....--1-.****-....

Generation = 24, Population = 101.
-......-0**...........
...***..*1........-...
...*.*..*...*-........
...*....*.....**.*.**.
....**....**.****..*.-
.....**..1.0.....**.*.
...**.*.....*****.....
..*.**.*.....*..*.....
.*...*...*.........1..
.*..**.*..*...*.....**
*.***.*.*.**.*.......*
*...1*..*.*...**...1-1
*....*-.......*.*..*..
**...........*..*.*...
.-...****.*...**......
...-..****.-.....-....

Generation = 32, Population = 61.
-..*....**............
....*.*...*.......-*..
...***..**...-...*..*.
...**...........*...*.
...**.......*....*..*0
....***...*.*....**.**
.......*..*.*.....*..*
.....*.*...........*.*
.......*..............
.......**..........*..
.......**.**..........
...........*.......*..
.**...-**.**........**
.........*............
......................
...-.......-.....-....

Generation = 40, Population = 50.
-.....................
........***.......-...
...***..*....-........
...*.**.*.............
.......**............-
..*...*.**............
.......***.........**.
.........*........*..*
...**..**..........**.
....*...*.............
.....*................
....**.**.**.*........
....*......*.*........
.....**....***........
......*...............
...-.......-.....-....

Generation = 48, Population = 50.
-.....................
..................-...
.............-........
......................
.....................-
......**..............
.....*.**..........**.
....**.**.........*..*
....**.**..........**.
....**.****.*.........
....**.****..*........
....**....**.**.......
.....*......***.......
....**.......**.......
....**................
...-..*....-.....-....

*** Life<Cell> 22x9 ***

Generation = 0, Population = 26.
-0-------
0--------
--------0
-----0---
--0--0---
--0--0---
------0--
------00-
---0-----
---------
--------0
00---0---
--------0
-----0---
---------
--------0
-0-------
0----0---
---0-----
---------
-----0---
---0-0---

Generation = 10, Population = 89.
.1.*01*0-
1.11*...1
*..**.*1*
-..1*...*
-1**-**1*
-*...*1-*
--..11*.*
.1**.1..*
1-1-*-11.
-1..-*1--
10**....*
.-*.*1**.
*...--.-0
.--01-0-*
0.0.-1--*
--.---...
-1--1-.*-
1*...0..*
-1-1-1-*0
*.-*---01
0-1--.1.-
..10-...-

Generation = 20, Population = 52.
.-...-..-
.........
......*..
**...***.
*.***....
*...*.*1.
-...*....
.*.*.....
..*..-...
..*.-..1-
*.*......
*..**1...
..***..--
.....-.*.
.***-....
*.*......
*.*.-*..1
.**..*...
..0*0*-*.
...**....
.0.*-....
..*......

Generation = 30, Population = 35.
.*...-..-
*.*......
.........
.........
..*......
.*.*.....
0**......
..**.....
.........
..*....**
...*..*..
...*.....
.......-*
...*.....
..**.....
*....*...
*..***..-
*........
.*.....*.
.......*.
.*....*..
.*...*...

Generation = 40, Population = 13.
.....-..-
.........
.........
.........
.........
.........
...*.....
..*.*....
..*.*....
...*.....
.........
.........
.......-.
.........
.........
....*....
...*.*..-
...*.....
....*.*..
......*..
.........
.........

*** Life<Cell> 8x38 ***

Generation = 0, Population = 12.
---------------------------0----------
--------0--0--0---0-------------------
-------------------------------0------
-----------0--------0-----------------
--------------------------------------
-0-------------------------0----------
-----------------------------------0--
--------------------------------0-----

*** Life<Cell> 22x28 ***

Generation = 0, Population = 20.
----------------------0-----
----------------------0-----
----0--0--------------------
----------------------------
-------0--------------------
----------------------------
----------------------------
-------0-0----------0-------
----------------------------
---------0------------------
----------0-------0---------
----------------------------
--------------0-------------
--------------------0---0---
--------0-------------------
-------------------0--------
----------------------------
----------0---0-------------
----------------------------
----------------------------
----------------------------
----------0-----0-----------

Generation = 3, Population = 175.
---0-00-0----------01-.-10--
--0-000--0---------010-010--
-0-00*-1--0---------00*00---
--0-0-0--------------010----
---011-1-10---------0-0-----
----000--10--------0-0------
-----00-00-0------0-0-0-----
----0--10---0----010-0-0----
-----0-0---0-----0100-0-----
----------0---0-0-0010------
-------0-0-------0-0-0--0---
--------0-----0---0010-0-0--
-------0-0---0-0--1-0---0-0-
------0-0---0-0-00-*0----0-0
-----0-0-010-010-00000--0-0-
------0-0010-0100-00*100-0--
-------0100---0-00-000--0---
-------010-----0-00-0-------
--------0-----0----0--------
-------------0---0----------
--------0-0-0-----0---------
-------0-----------0--------

Generation = 6, Population = 182.
0-010-0-0--0----0-*-10.01-*-
-------0-0------0---1-------
01111*1--010-0----1--0.0--1-
-----0-0---0--------------0-
00-1*1-*0110-0----0-1-.-0---
---1-0---*---0--0-----------
--00-01110-00-0-1---0-1-----
-0-0---1---0--01--*-0---0-0-
----0011100-0---1-1---0-----
-----0---0---0-00-01.---0-0-
----0-010-----0---0-----1---
-------0--00-00-000..-1-----
----0-0---*-----1-.---0-----
--------1*-1--101--*1--1--0-
--0---0-0-.-0---1-1-1-------
------0--0*--0---01-*1---0--
----0---1-0---*-1-1---------
----0---*-0-0-*00--01--1--0-
------1---1---1-------------
--------1-0-----01---0--0---
--------0-------------------
----0-0---0---0-0-010-0-----

Generation = 9, Population = 203.
---------0---010--.--****1.-
--0----00.--001-----.----0-0
-1-1-...0----0--0-1*--.--*.-
--0-00-.-00-0-0-----*-1-*---
---1.*-.-.1--1*10---1-.-0---
----00--0*----00--00-----0--
-0----1**0--1---.0.0----0---
0-0----10--1-0-.--.0.00-----
-------.--1-0-0-.-*--0-0----
0---0----110-0-101..*0----0-
-----0-.-0-0--1---11-0--.0-0
--0-0-01--1-----001.*-.-0-0-
-----011--.---00*-*--0-00---
0-----00-*.---.-.00***01-0--
-0-----01-*--0.0.-.0--0-0--0
0-----1-01*00--1-1.1***1--0-
--0---0-.0----.0.-.-1------0
-0-0-0**.---0-.--0*1.0-1----
--0---1---*0--.--010--0-----
--------.0.0-0*0-.0---------
--0-----1-0--0*0--000-------
-0-0---0-0----0--0.-.0------

Generation = 12, Population = 195.
--1-10------11.1--.--....-.-
-------.-*-*-0--.0--.-.--1--
1---*....------*--..--.11..-
-00---*.11--11.-1--1.010.-*-
1---..-.-..*1...10*-.*...--0
-01-*1--1.---1---0.10---.-0-
------.*.1-1--.-.1.0*-.-101-
-0--10--1------.--*-.0-1----
----1--.*-.-----*0*0--01--0-
-0---101--.-*1*.1...*--*1---
0----1-*..*.---11**.1**0.---
-0----01-11-1*-000...-.-.---
--01-1-.0-*---.-.-.--*.1----
-00-----**.11*.-.......*11--
-----0.1--.010...1.1*-11--1-
---1--..-*.01-.*1*.-....--0-
--------.110-1...0.-*-*01---
*--0--*..0-0--.--1.*.-*10-1-
1---0-.-10.-10.--1-0-1------
--0--1*1.-.---.0-.1*-00----0
------0-------.-0-1---0-----
0-0-0-----001-1---*-*-0-0---

Generation = 15, Population = 292.
-0-***----1-*-*1--.0-....1.1
01----1.**-..1*-*-1-.-.-1-1-
11.-*..*.--*--*.--..0-*1*.*-
*..-10....*-1**1*101*1-1.-*-
--1**.*.-*..****11*-..*.*-*1
1-*-**---.011-0---.-0-1-.1*-
1011--..*-0-.**-**.1.-.1*0--
--01--*-*011-01.--.*.1-.*--0
---0.*1...*-*---*1*--1***--0
--0-01----*-*-*.*..**-0.***0
-00--.1..*.*1---*...-.*0.-*0
0-1-1-*10.*1..--.-...0**.-0-
-*-.1--.--*10-*0.-.-0**.0**-
**-01--***.-*..-.**...*.*.0-
--*-00*-1-**-1...*..*1.--1.0
--**0**.0*.1-****..1*...*-*0
1-00--00..*..1**.-*-.-.--*-0
.-01--.*.--1-**-*-...1**01--
.-00-0*-.1*1.-.....1**-0*00-
*---1*...*.-*-.--.1*11001--1
-00-0-1-*10---.111101-00*---
10--0--1*--1*---1*.-.11-0011

Generation = 18, Population = 256.
1*-**.---011.-.*--.--*...1.*
0*1--*-...-*..*-.--0.**-.1*-
*-*1.*...0-.-*.*-*..-**.....
*.*-*1...**0**.....1**1..-.1
*.-.*...0.**....*..-...**-*.
*1*1.*---*-*---0-1.-0-.-*-*-
-1-*1-....0**..-*..**0...-1-
---*.*.-.--.-1-.10***.1..*--
1-0...*..*.*.---*1..0-*..-10
-0*0*--111*-*1..*.....1....1
-.1--.*....*--*1*...1.*-.-*1
-0*-.1*-*.....**.1..*-...--1
-.0.-.-.--..-1.1*..--**.1..*
**--.-0**..1.**-.......*...*
-1*0...*-1**-*........*-0-.*
-**....*-...1**......*...-.-
*-11*101*.*.*.**.0**.-*-*.**
*0*....*****-.*-**.*.-*.1*1*
.*00*-.0.1.-.-*..*.1..--.1.-
*-1--...**.1.-*--.1*-*10*-1-
*010-*1-.**0-0.*.**-1---.10-
.---110.*-1..0**-**1**-----.

Generation = 21, Population = 233.
**.***-**1***1.*.-*--***....
*.101.1...0.**.-.0-1.*.*.-.1
*.**...*.*-*0...0...1**.*...
*.*1*-....*-*..*....**-.*-*-
*.-.....1..*.......-**..*-..
*.*1***--.0*-*---1.1--*0*1.-
-....*....1*...-.....-*.*0*.
---**.*-*--.--...*....*..*-1
1*.....*.*...--..*..--...-*-
-..-.1-.1*.*....*....*1*...-
1.--1.......--...*...*.0.*..
01**.*****.*....**..*-..*-01
1.1*-**.*1..*..**..-1*..-*.*
..-1*0-**..*...0.......**..*
0..*....1...*.......*..*11**
-..**...-..*1......*....*1*1
.1.1.---......*.*0*.*1.-...*
............0*..*.**.-.**...
..--*-***-.1***.*.**..-1.*.-
.-10.****...*-.--*-.-.--*0*.
*1..*.-0..*--1.**..**0.-..-*
**--.*0..****-.*1..-*.1--0..

Generation = 24, Population = 238.
**....-**-..*-*..-.1........
*.-01*-.*.**...-*-*1**.*.-.-
**.*.*..*.-.**.*1**.-....*..
*.***-.**..1......*.*.-**-.-
*.-..**.*.**.......-...**0..
*..-..**1*-.-.--1-.1--*1.-.-
*.*****...*.*..-.....*...0*.
*1-.*..-.0*.-1..**.....***--
*.****...***.--.***.**.*.-.-
1..-*1.*.*......*.****-.***-
*.1-1..*..**--...*.*..*..***
1**......***.......*.-..*-*-
*.-*1....-******.**-1...**..
..1**--*....**.-....*.**.**.
1....*.......*.*.....*.**...
-..*....-****...............
.-****-*.**..*.*.-.**..-....
.......****.-.*.****.-...***
..*-**..*-*...*...**.*0*..*1
.1*-..*..**..-***.-.*.--.-*.
*1..*.-....-.*.........1*.1.
***-**-*.**.*0*****-**-.--..

Generation = 27, Population = 188.
......1..***.-..*-*.........
.*-11..**...*..***....*..-.-
..**...*....**......1..**...
..**.1......**.*......1..**-
*.1..........*.............*
**.-***...0*1.---..1-0.*.-.*
*....*.***.**.*1..*.*.***-..
*.*.***-*-.*--**..*....***--
....**.*....*01..*..*....0.1
1..-.-*...**......***.***..*
..*0..*...*.*-....*..*...**.
....*......**.....*..-.***.-
..-.**...-.........-.*....*.
.*.*.1-.**.....*.........*..
-..........*.*....**......*.
0...........*.............*.
......0.....*....-.....-..*.
...*...**..*1...*...*1*..***
...0.....*...*.**..*.*1....-
.1.1*.**.*...-.*...*..*1..**
**..*.1.**.-.....*****....*.
...1..1....**-.**..**.-.0-..

Generation = 30, Population = 168.
......-....**-*..1..........
..-1......*.....*........-.-
....*.*....**.**....-**..**.
..*..**..****........*-..**1
***.*....*...*..*...*....**.
*.*1*....*..-.**-*.**-*..*..
...*.....*...*.-..*.****.-*.
**.....-*0**--..*.........-1
..*..*.......-**.........*..
-..*.*.............*...*....
..**...*.....**........*....
..**......*..*.......-..***-
..-*.....-.**......-......*.
....*.*.....*...............
1....*.....**.............*.
-......*...*.........*......
......-....*.....-..*.*1.*..
.........***-......**....**.
...0.*...**.**..*****....*.1
***-*.**......*....***...*..
***.*.-..***.**.....**.*.*..
...-.********1..***...1.1-*.

Generation = 33, Population = 172.
......-....**1*..-........*.
..1-.....*******........****
...*....**...*.*....-.*....*
....**...*.*..........-*....
**..****.*..*..............*
**..*****.*.1...-....-...**.
*...****.....*.-..***....0*.
**....**.*...*..*******...-1
.***...*.....-.**.....**....
-.*........**..*............
..*.*.......*.*........**...
..***................-....**
..*......-..*......-......**
..**..*...*.................
-...***...***........*......
0....*....*.........*.*...*.
......-.....*....-.**.*...*.
..****.**..*1**...**........
.**1*.*.....***.***.....**.1
*............*.........*....
*.***.-.**...*...........**.
.*.-.***.....-***.*...-.1**.

Generation = 36, Population = 146.
......-........*.-........**
..1**...*.....**........**.*
..***....*...***....-.......
..*.....*....*........-.*.*.
.........*..*.............**
..*..*..**.*....-....-...*.*
..*....*..**...-......*..1**
.....****.***...*.*.*.****--
.*...*.*.....-..**.*........
*...*.......*...*.*.*....*..
....*....................**.
*.****...............-..**.*
******...1*........-........
.***....**.*................
1.*...**...........***......
-....*...***.......*........
.....*-**.******.1*.**......
.*...*.**...-.......*.......
**....***....*.....*.......-
*.......*.....*..*..........
**......**......*...........
.......*.....1***.....-.....

Generation = 39, Population = 116.
......-.......**.-........*.
..1**........*.*........***.
...**...............-...***.
............***.......-.**..
..........*.................
...........**...-...**....*.
.......*....*..1*...**....*.
......**.***..**.*...**.*.-.
....*....**.*-.....*........
.....***......**.*..*..**.*.
.....*..........*.......*.*.
.....................-......
....**..*-*........1........
....**.............**.......
-..*..*...*.......*..*......
-*.*.**.***......**..*......
****..0...............*.....
..*.**......1....**.**......
**.........................-
.......*.*..................
......*...*..*...*..........
.......*.*...***.*....-.....

Generation = 42, Population = 100.
...*..-.......**.-..........
...*..........**........*...
....................-..*.*..
......................-*..*.
...........**...........**..
.......*...**..**...........
......*.*.....**......*.....
......*..*....**...**.*.**-.
.......**....*...*..*.*.**..
.....***.....**..*.....*.*..
......*.......*..*..........
.....................-......
..**.**..-..................
..***.*..*..........***.....
-....*.**.*..........**.....
0.***.*....*......***.**....
......-**.*.......***.*.....
......****..-.......**......
...........................-
..............*.............
.............*.*............
.............*.*......-.....

Generation = 45, Population = 93.
......-.......**.-..........
..............**.......**...
....................-.*..*..
..........................*.
..............**......*..*..
.......*......**.....*......
.....**.**..**...*...**.....
............***.**.**.....-.
...........*..**..**.*.*.*..
....*....*..*..***..........
...**........*****..........
....*.........*......1......
.....****...........***.....
..*.........................
*...****..............*.....
1.......**.**........*.*....
..*****....*........*.......
.....*......-.......**.*....
......****.................-
............................
............................
......................-.....

Generation = 48, Population = 86.
......-.......**.-..........
..............**........*...
....................-.....*.
...............*.........**.
.......*......*..*..........
......*.*........*..*.*.....
......*.*.....*...*...*.....
.......*...**...**..*.....-.
.............*...***........
............................
..***.*.....*.*......*......
..**...*....*.*.....*.*.....
...**..**..............*....
....**..**...........*..*...
*.*..*..*..*................
*.......*.*.*...............
....*..*..*.**......*.*.....
..**.*****.*-.......**......
.........**................-
.......*....................
............................
......................-.....
