*** Life<ConwayCell> 45x11 ***

Generation = 0, Population = 18.
...........
...........
...........
.......*...
...........
...........
........*..
...........
.........*.
...........
...........
...........
....*......
...........
...........
...........
...........
..*.......*
...........
...........
......*....
...........
......*....
......*....
......*....
...........
...........
...*......*
....*.....*
...........
.*.........
...........
...........
...........
...........
...........
.....*.....
...........
.......*...
...........
...........
...........
...........
...........
.*.........

Generation = 86, Population = 3.
...........
...........
...........
...........
...........
...........
...........
...........
...........
...........
...........
...........
...........
...........
...........
...........
...........
...........
...........
...........
...........
...........
......*....
......*....
......*....
...........
...........
...........
...........
...........
...........
...........
...........
...........
...........
...........
...........
...........
...........
...........
...........
...........
...........
...........
...........

*** Life<ConwayCell> 28x11 ***

Generation = 0, Population = 4.
...........
...........
...........
....*......
...........
...........
...........
...........
...........
...........
...........
*.....*....
...........
...........
...........
...........
...........
...........
...........
...........
...........
...........
...........
...........
...........
*..........
...........
...........

Generation = 33, Population = 0.
...........
...........
...........
...........
...........
...........
...........
...........
...........
...........
...........
...........
...........
...........
...........
...........
...........
...........
...........
...........
...........
...........
...........
...........
...........
...........
...........
...........

Generation = 66, Population = 0.
...........
...........
...........
...........
...........
...........
...........
...........
...........
...........
...........
...........
...........
...........
...........
...........
...........
...........
...........
...........
...........
...........
...........
...........
...........
...........
...........
...........

Generation = 99, Population = 0.
...........
...........
...........
...........
...........
...........
...........
...........
...........
...........
...........
...........
...........
...........
...........
...........
...........
...........
...........
...........
...........
...........
...........
...........
...........
...........
...........
...........

Generation = 132, Population = 0.
...........
...........
...........
...........
...........
...........
...........
...........
...........
...........
...........
...........
...........
...........
...........
...........
...........
...........
...........
...........
...........
...........
...........
...........
...........
...........
...........
...........

Generation = 165, Population = 0.
...........
...........
...........
...........
...........
...........
...........
...........
...........
...........
...........
...........
...........
...........
...........
...........
...........
...........
...........
...........
...........
...........
...........
...........
...........
...........
...........
...........

Generation = 198, Population = 0.
...........
...........
...........
...........
...........
...........
...........
...........
...........
...........
...........
...........
...........
...........
...........
...........
...........
...........
...........
...........
...........
...........
...........
...........
...........
...........
...........
...........

Generation = 231, Population = 0.
...........
...........
...........
...........
...........
...........
...........
...........
...........
...........
...........
...........
...........
...........
...........
...........
...........
...........
...........
...........
...........
...........
...........
...........
...........
...........
...........
...........

Generation = 264, Population = 0.
...........
...........
...........
...........
...........
...........
...........
...........
...........
...........
...........
...........
...........
...........
...........
...........
...........
...........
...........
...........
...........
...........
...........
...........
...........
...........
...........
...........

Generation = 297, Population = 0.
...........
...........
...........
...........
...........
...........
...........
...........
...........
...........
...........
...........
...........
...........
...........
...........
...........
...........
...........
...........
...........
...........
...........
...........
...........
...........
...........
...........

*** Life<ConwayCell> 37x35 ***

Generation = 0, Population = 5.
...................................
*..................................
...................................
...................................
...................................
...................................
...................................
...................................
...................................
...................................
...................................
...................................
...................................
...................................
...................................
...................................
.................*.................
...................................
...................................
...................................
...................................
...................................
...................................
...................................
...................*...............
...................................
......*............................
...................................
...................................
...................................
...................................
...................................
...................................
...................................
...................................
...............................*...
...................................

Generation = 28, Population = 0.
...................................
...................................
...................................
...................................
...................................
...................................
...................................
...................................
...................................
...................................
...................................
...................................
...................................
...................................
...................................
...................................
...................................
...................................
...................................
...................................
...................................
...................................
...................................
...................................
...................................
...................................
...................................
...................................
...................................
...................................
...................................
...................................
...................................
...................................
...................................
...................................
...................................

Generation = 56, Population = 0.
...................................
...................................
...................................
...................................
...................................
...................................
...................................
...................................
...................................
...................................
...................................
...................................
...................................
...................................
...................................
...................................
...................................
...................................
...................................
...................................
...................................
...................................
...................................
...................................
...................................
...................................
...................................
...................................
...................................
...................................
...................................
...................................
...................................
...................................
...................................
...................................
...................................

*** Life<ConwayCell> 43x48 ***

Generation = 0, Population = 2.
.............*.....*............................
................................................
................................................
................................................
................................................
................................................
................................................
................................................
................................................
................................................
................................................
................................................
................................................
................................................
................................................
................................................
................................................
................................................
................................................
................................................
................................................
................................................
................................................
................................................
................................................
................................................
................................................
................................................
................................................
................................................
................................................
................................................
................................................
................................................
................................................
................................................
................................................
................................................
................................................
................................................
................................................
................................................
................................................

Generation = 63, Population = 0.
................................................
................................................
................................................
................................................
................................................
................................................
................................................
................................................
................................................
................................................
................................................
................................................
................................................
................................................
................................................
................................................
................................................
................................................
................................................
................................................
................................................
................................................
................................................
................................................
................................................
................................................
................................................
................................................
................................................
................................................
................................................
................................................
................................................
................................................
................................................
................................................
................................................
................................................
................................................
................................................
................................................
................................................
................................................

Generation = 126, Population = 0.
................................................
................................................
................................................
................................................
................................................
................................................
................................................
................................................
................................................
................................................
................................................
................................................
................................................
................................................
................................................
................................................
................................................
................................................
................................................
................................................
................................................
................................................
................................................
................................................
................................................
................................................
................................................
................................................
................................................
................................................
................................................
................................................
................................................
................................................
................................................
................................................
................................................
................................................
................................................
................................................
................................................
................................................
................................................

*** Life<ConwayCell> 18x22 ***

Generation = 0, Population = 5.
....*.................
......................
......................
......................
......................
.....................*
......................
......................
..................*...
.....*................
......................
......................
......................
...........*..........
......................
......................
......................
......................

Generation = 99, Population = 0.
......................
......................
......................
......................
......................
......................
......................
......................
......................
......................
......................
......................
......................
......................
......................
......................
......................
......................

Generation = 198, Population = 0.
......................
......................
......................
......................
......................
......................
......................
......................
......................
......................
......................
......................
......................
......................
......................
......................
......................
......................

Generation = 297, Population = 0.
......................
......................
......................
......................
......................
......................
......................
......................
......................
......................
......................
......................
......................
......................
......................
......................
......................
......................

Generation = 396, Population = 0.
......................
......................
......................
......................
......................
......................
......................
......................
......................
......................
......................
......................
......................
......................
......................
......................
......................
......................

Generation = 495, Population = 0.
......................
......................
......................
......................
......................
......................
......................
......................
......................
......................
......................
......................
......................
......................
......................
......................
......................
......................

Generation = 594, Population = 0.
......................
......................
......................
......................
......................
......................
......................
......................
......................
......................
......................
......................
......................
......................
......................
......................
......................
......................

Generation = 693, Population = 0.
......................
......................
......................
......................
......................
......................
......................
......................
......................
......................
......................
......................
......................
......................
......................
......................
......................
......................

*** Life<ConwayCell> 6x11 ***

Generation = 0, Population = 26.
.*...**....
..**..*****
..**...*.*.
.****...*.*
*..*.**....
......**...

Generation = 16, Population = 16.
...........
..*.****...
*...**.**..
.**..*.**..
......*....
...........

Generation = 32, Population = 15.
.*.........
..*........
..*.**.**..
..*...*.**.
.*.***.....
...........

Generation = 48, Population = 35.
.**********
*...*****.*
*.***....**
*.**..****.
.*....***..
.......*...

Generation = 64, Population = 9.
...........
...........
..*........
.***.......
.***.....*.
.........*.

Generation = 80, Population = 11.
..**.......
..*.*......
....*......
...*.......
..*..*.....
..***......

Generation = 96, Population = 13.
..***......
.*..*......
.**...*....
.**........
.**...*....
...........

Generation = 112, Population = 20.
.....****..
.**......*.
*...*.*..*.
*.*.***.**.
**.........
...........

Generation = 128, Population = 13.
.*.*.......
*..........
*....*.....
*.....*....
*....*.....
.****......

Generation = 144, Population = 8.
...........
.**........
.**........
.....**....
.....**....
...........

Generation = 160, Population = 8.
...........
.**........
.**........
.....**....
.....**....
...........

Generation = 176, Population = 8.
...........
.**........
.**........
.....**....
.....**....
...........

Generation = 192, Population = 8.
...........
.**........
.**........
.....**....
.....**....
...........

Generation = 208, Population = 8.
...........
.**........
.**........
.....**....
.....**....
...........

*** Life<ConwayCell> 33x30 ***

Generation = 0, Population = 2.
..............................
..............................
..............................
..............................
..............................
..............................
..............................
..............................
..............................
..............................
..............................
..............................
.....*........................
..............................
..............................
..............................
..............................
.........................*....
..............................
..............................
..............................
..............................
..............................
..............................
..............................
..............................
..............................
..............................
..............................
..............................
..............................
..............................
..............................

Generation = 6, Population = 0.
..............................
..............................
..............................
..............................
..............................
..............................
..............................
..............................
..............................
..............................
..............................
..............................
..............................
..............................
..............................
..............................
..............................
..............................
..............................
..............................
..............................
..............................
..............................
..............................
..............................
..............................
..............................
..............................
..............................
..............................
..............................
..............................
..............................

Generation = 12, Population = 0.
..............................
..............................
..............................
..............................
..............................
..............................
..............................
..............................
..............................
..............................
..............................
..............................
..............................
..............................
..............................
..............................
..............................
..............................
..............................
..............................
..............................
..............................
..............................
..............................
..............................
..............................
..............................
..............................
..............................
..............................
..............................
..............................
..............................

Generation = 18, Population = 0.
..............................
..............................
..............................
..............................
..............................
..............................
..............................
..............................
..............................
..............................
..............................
..............................
..............................
..............................
..............................
..............................
..............................
..............................
..............................
..............................
..............................
..............................
..............................
..............................
..............................
..............................
..............................
..............................
..............................
..............................
..............................
..............................
..............................

Generation = 24, Population = 0.
..............................
..............................
..............................
..............................
..............................
..............................
..............................
..............................
..............................
..............................
..............................
..............................
..............................
..............................
..............................
..............................
..............................
..............................
..............................
..............................
..............................
..............................
..............................
..............................
..............................
..............................
..............................
..............................
..............................
..............................
..............................
..............................
..............................

Generation = 30, Population = 0.
..............................
..............................
..............................
..............................
..............................
..............................
..............................
..............................
..............................
..............................
..............................
..............................
..............................
..............................
..............................
..............................
..............................
..............................
..............................
..............................
..............................
..............................
..............................
..............................
..............................
..............................
..............................
..............................
..............................
..............................
..............................
..............................
..............................

Generation = 36, Population = 0.
..............................
..............................
..............................
..............................
..............................
..............................
..............................
..............................
..............................
..............................
..............................
..............................
..............................
..............................
..............................
..............................
..............................
..............................
..............................
..............................
..............................
..............................
..............................
..............................
..............................
..............................
..............................
..............................
..............................
..............................
..............................
..............................
..............................

Generation = 42, Population = 0.
..............................
..............................
..............................
..............................
..............................
..............................
..............................
..............................
..............................
..............................
..............................
..............................
..............................
..............................
..............................
..............................
..............................
..............................
..............................
..............................
..............................
..............................
..............................
..............................
..............................
..............................
..............................
..............................
..............................
..............................
..............................
..............................
..............................

Generation = 48, Population = 0.
..............................
..............................
..............................
..............................
..............................
..............................
..............................
..............................
..............................
..............................
..............................
..............................
..............................
..............................
..............................
..............................
..............................
..............................
..............................
..............................
..............................
..............................
..............................
..............................
..............................
..............................
..............................
..............................
..............................
..............................
..............................
..............................
..............................

Generation = 54, Population = 0.
..............................
..............................
..............................
..............................
..............................
..............................
..............................
..............................
..............................
..............................
..............................
..............................
..............................
..............................
..............................
..............................
..............................
..............................
..............................
..............................
..............................
..............................
..............................
..............................
..............................
..............................
..............................
..............................
..............................
..............................
..............................
..............................
..............................

*** Life<ConwayCell> 10x41 ***

Generation = 0, Population = 1.
.........................................
.........................................
.........................................
.........................................
.........................................
.........................................
.........................................
.........................................
.......*.................................
.........................................

Generation = 148, Population = 0.
.........................................
.........................................
.........................................
.........................................
.........................................
.........................................
.........................................
.........................................
.........................................
.........................................

Generation = 296, Population = 0.
.........................................
.........................................
.........................................
.........................................
.........................................
.........................................
.........................................
.........................................
.........................................
.........................................

Generation = 444, Population = 0.
.........................................
.........................................
.........................................
.........................................
.........................................
.........................................
.........................................
.........................................
.........................................
.........................................

Generation = 592, Population = 0.
.........................................
.........................................
.........................................
.........................................
.........................................
.........................................
.........................................
.........................................
.........................................
.........................................

*** Life<ConwayCell> 47x30 ***

Generation = 0, Population = 29.
..............................
..............................
....*.........................
.......*......................
..............................
..............................
.........*....................
....................*.........
..............................
..............................
..*...........................
..............................
..............................
..............................
....................*.........
............*.................
...*.........*................
..............................
..............................
............................*.
..............................
..............................
.....*........................
.............*................
..............................
..........*...................
..............................
..............................
...*..........................
*.............................
...*......*...*...............
..............................
.......*......................
......*.......................
...*..........................
............................*.
.....................*........
..............................
..............................
..............................
...*..........................
..........................*...
..............................
..............................
.......................*......
*.*.....*.....................
..............................

Generation = 40, Population = 0.
..............................
..............................
..............................
..............................
..............................
..............................
..............................
..............................
..............................
..............................
..............................
..............................
..............................
..............................
..............................
..............................
..............................
..............................
..............................
..............................
..............................
..............................
..............................
..............................
..............................
..............................
..............................
..............................
..............................
..............................
..............................
..............................
..............................
..............................
..............................
..............................
..............................
..............................
..............................
..............................
..............................
..............................
..............................
..............................
..............................
..............................
..............................

Generation = 80, Population = 0.
..............................
..............................
..............................
..............................
..............................
..............................
..............................
..............................
..............................
..............................
..............................
..............................
..............................
..............................
..............................
..............................
..............................
..............................
..............................
..............................
..............................
..............................
..............................
..............................
..............................
..............................
..............................
..............................
..............................
..............................
..............................
..............................
..............................
..............................
..............................
..............................
..............................
..............................
..............................
..............................
..............................
..............................
..............................
..............................
..............................
..............................
..............................

Generation = 120, Population = 0.
..............................
..............................
..............................
..............................
..............................
..............................
..............................
..............................
..............................
..............................
..............................
..............................
..............................
..............................
..............................
..............................
..............................
..............................
..............................
..............................
..............................
..............................
..............................
..............................
..............................
..............................
..............................
..............................
..............................
..............................
..............................
..............................
..............................
..............................
..............................
..............................
..............................
..............................
..............................
..............................
..............................
..............................
..............................
..............................
..............................
..............................
..............................

Generation = 160, Population = 0.
..............................
..............................
..............................
..............................
..............................
..............................
..............................
..............................
..............................
..............................
..............................
..............................
..............................
..............................
..............................
..............................
..............................
..............................
..............................
..............................
..............................
..............................
..............................
..............................
..............................
..............................
..............................
..............................
..............................
..............................
..............................
..............................
..............................
..............................
..............................
..............................
..............................
..............................
..............................
..............................
..............................
..............................
..............................
..............................
..............................
..............................
..............................

Generation = 200, Population = 0.
..............................
..............................
..............................
..............................
..............................
..............................
..............................
..............................
..............................
..............................
..............................
..............................
..............................
..............................
..............................
..............................
..............................
..............................
..............................
..............................
..............................
..............................
..............................
..............................
..............................
..............................
..............................
..............................
..............................
..............................
..............................
..............................
..............................
..............................
..............................
..............................
..............................
..............................
..............................
..............................
..............................
..............................
..............................
..............................
..............................
..............................
..............................

*** Life<ConwayCell> 40x28 ***

Generation = 0, Population = 49.
..............*........*....
............................
.........................*..
..........................*.
..............*.............
......................*.....
...........................*
......*.....................
...*........................
......................*...*.
........*.......*...........
......*.............*.......
............................
............................
................*...........
............................
........*...........*.......
............................
...*......*.....*......*....
............................
.....**..*.*................
........................*...
...................*........
....*.......................
............................
*.......**..................
....*......*................
............................
......*.....*.........*.....
..*.........................
..................*.........
.............*..............
...........................*
............................
............*...............
..............*.............
...*........*...............
...................*........
...*.............*..........
.........................*..

Generation = 176, Population = 0.
............................
............................
............................
............................
............................
............................
............................
............................
............................
............................
............................
............................
............................
............................
............................
............................
............................
............................
............................
............................
............................
............................
............................
............................
............................
............................
............................
............................
............................
............................
............................
............................
............................
............................
............................
............................
............................
............................
............................
............................

Generation = 352, Population = 0.
............................
............................
............................
............................
............................
............................
............................
............................
............................
............................
............................
............................
............................
............................
............................
............................
............................
............................
............................
............................
............................
............................
............................
............................
............................
............................
............................
............................
............................
............................
............................
............................
............................
............................
............................
............................
............................
............................
............................
............................

*** Life<ConwayCell> 4x34 ***

Generation = 0, Population = 21.
...*.*.*....*..*.**.........*...*.
........*.*.*............**.......
......*...*.......................
...*..................*.*.......**

Generation = 169, Population = 0.
..................................
..................................
..................................
..................................

Generation = 338, Population = 0.
..................................
..................................
..................................
..................................

Generation = 507, Population = 0.
..................................
..................................
..................................
..................................

Generation = 676, Population = 0.
..................................
..................................
..................................
..................................

Generation = 845, Population = 0.
..................................
..................................
..................................
..................................

*** Life<ConwayCell> 14x10 ***

Generation = 0, Population = 11.
.....*....
.*........
..........
.......*..
.....*....
*.........
..*.......
....*..*..
..........
...*......
..........
.......*..
.......*..
..........

Generation = 104, Population = 0.
..........
..........
..........
..........
..........
..........
..........
..........
..........
..........
..........
..........
..........
..........

Generation = 208, Population = 0.
..........
..........
..........
..........
..........
..........
..........
..........
..........
..........
..........
..........
..........
..........

Generation = 312, Population = 0.
..........
..........
..........
..........
..........
..........
..........
..........
..........
..........
..........
..........
..........
..........

Generation = 416, Population = 0.
..........
..........
..........
..........
..........
..........
..........
..........
..........
..........
..........
..........
..........
..........

Generation = 520, Population = 0.
..........
..........
..........
..........
..........
..........
..........
..........
..........
..........
..........
..........
..........
..........

Generation = 624, Population = 0.
..........
..........
..........
..........
..........
..........
..........
..........
..........
..........
..........
..........
..........
..........

Generation = 728, Population = 0.
..........
..........
..........
..........
..........
..........
..........
..........
..........
..........
..........
..........
..........
..........

Generation = 832, Population = 0.
..........
..........
..........
..........
..........
..........
..........
..........
..........
..........
..........
..........
..........
..........

Generation = 936, Population = 0.
..........
..........
..........
..........
..........
..........
..........
..........
..........
..........
..........
..........
..........
..........

*** Life<ConwayCell> 31x3 ***

Generation = 0, Population = 20.
...
...
...
..*
*..
...
**.
...
.*.
...
...
.**
...
.*.
*.*
...
...
..*
..*
..*
...
..*
*..
...
...
.*.
...
...
.*.
..*
**.

Generation = 74, Population = 6.
...
...
...
...
...
...
...
...
...
...
...
.*.
*.*
*.*
.*.
...
...
...
...
...
...
...
...
...
...
...
...
...
...
...
...

Generation = 148, Population = 6.
...
...
...
...
...
...
...
...
...
...
...
.*.
*.*
*.*
.*.
...
...
...
...
...
...
...
...
...
...
...
...
...
...
...
...

*** Life<ConwayCell> 10x34 ***

Generation = 0, Population = 47.
...*...**............*.*....*.....
.*....*..**..................*....
*.....................*...........
.*...........................*....
.....*..*..*...*.....*..*....*...*
.*.*..*......................*....
.......*.*.*.**................*.*
..*......*..............**.*......
.....*............*...*.......*.**
.........................*..*.....

Generation = 163, Population = 7.
..................................
..................................
..................................
..................................
..................................
..................................
.......**.........................
.......**.........................
........................***.......
..................................

Generation = 326, Population = 7.
..................................
..................................
..................................
..................................
..................................
..................................
.......**.........................
.......**................*........
.........................*........
.........................*........

Generation = 489, Population = 7.
..................................
..................................
..................................
..................................
..................................
..................................
.......**.........................
.......**.........................
........................***.......
..................................

Generation = 652, Population = 7.
..................................
..................................
..................................
..................................
..................................
..................................
.......**.........................
.......**................*........
.........................*........
.........................*........

Generation = 815, Population = 7.
..................................
..................................
..................................
..................................
..................................
..................................
.......**.........................
.......**.........................
........................***.......
..................................

*** Life<ConwayCell> 46x6 ***

Generation = 0, Population = 20.
*.....
.....*
......
......
.....*
*.....
......
...*..
....*.
..*...
..*...
......
......
......
.....*
......
......
......
......
*.....
......
..*...
..*...
......
.*....
......
......
..*...
......
......
......
..*...
......
*....*
......
...*..
...*..
...*..
......
......
......
......
......
......
......
......

Generation = 100, Population = 3.
......
......
......
......
......
......
......
......
......
......
......
......
......
......
......
......
......
......
......
......
......
......
......
......
......
......
......
......
......
......
......
......
......
......
......
...*..
...*..
...*..
......
......
......
......
......
......
......
......

Generation = 200, Population = 3.
......
......
......
......
......
......
......
......
......
......
......
......
......
......
......
......
......
......
......
......
......
......
......
......
......
......
......
......
......
......
......
......
......
......
......
...*..
...*..
...*..
......
......
......
......
......
......
......
......

Generation = 300, Population = 3.
......
......
......
......
......
......
......
......
......
......
......
......
......
......
......
......
......
......
......
......
......
......
......
......
......
......
......
......
......
......
......
......
......
......
......
...*..
...*..
...*..
......
......
......
......
......
......
......
......

Generation = 400, Population = 3.
......
......
......
......
......
......
......
......
......
......
......
......
......
......
......
......
......
......
......
......
......
......
......
......
......
......
......
......
......
......
......
......
......
......
......
...*..
...*..
...*..
......
......
......
......
......
......
......
......

Generation = 500, Population = 3.
......
......
......
......
......
......
......
......
......
......
......
......
......
......
......
......
......
......
......
......
......
......
......
......
......
......
......
......
......
......
......
......
......
......
......
...*..
...*..
...*..
......
......
......
......
......
......
......
......

*** Life<ConwayCell> 28x40 ***

Generation = 0, Population = 3.
...*....................................
........................................
........................................
........................................
........................................
........................................
........................................
........................................
........................................
........................................
........................................
........................................
........................................
........................................
..........................*...........*.
........................................
........................................
........................................
........................................
........................................
........................................
........................................
........................................
........................................
........................................
........................................
........................................
........................................

Generation = 102, Population = 0.
........................................
........................................
........................................
........................................
........................................
........................................
........................................
........................................
........................................
........................................
........................................
........................................
........................................
........................................
........................................
........................................
........................................
........................................
........................................
........................................
........................................
........................................
........................................
........................................
........................................
........................................
........................................
........................................

Generation = 204, Population = 0.
........................................
........................................
........................................
........................................
........................................
........................................
........................................
........................................
........................................
........................................
........................................
........................................
........................................
........................................
........................................
........................................
........................................
........................................
........................................
........................................
........................................
........................................
........................................
........................................
........................................
........................................
........................................
........................................

Generation = 306, Population = 0.
........................................
........................................
........................................
........................................
........................................
........................................
........................................
........................................
........................................
........................................
........................................
........................................
........................................
........................................
........................................
........................................
........................................
........................................
........................................
........................................
........................................
........................................
........................................
........................................
........................................
........................................
........................................
........................................

Generation = 408, Population = 0.
........................................
........................................
........................................
........................................
........................................
........................................
........................................
........................................
........................................
........................................
........................................
........................................
........................................
........................................
........................................
........................................
........................................
........................................
........................................
........................................
........................................
........................................
........................................
........................................
........................................
........................................
........................................
........................................

Generation = 510, Population = 0.
........................................
........................................
........................................
........................................
........................................
........................................
........................................
........................................
........................................
........................................
........................................
........................................
........................................
........................................
........................................
........................................
........................................
........................................
........................................
........................................
........................................
........................................
........................................
........................................
........................................
........................................
........................................
........................................

*** Life<ConwayCell> 38x3 ***

Generation = 0, Population = 12.
.*.
...
...
...
*..
...
...
*..
..*
...
...
...
...
..*
...
...
...
*..
...
...
...
...
...
..*
...
*.*
...
...
*..
...
...
...
...
..*
..*
...
...
...

Generation = 158, Population = 0.
...
...
...
...
...
...
...
...
...
...
...
...
...
...
...
...
...
...
...
...
...
...
...
...
...
...
...
...
...
...
...
...
...
...
...
...
...
...

Generation = 316, Population = 0.
...
...
...
...
...
...
...
...
...
...
...
...
...
...
...
...
...
...
...
...
...
...
...
...
...
...
...
...
...
...
...
...
...
...
...
...
...
...

Generation = 474, Population = 0.
...
...
...
...
...
...
...
...
...
...
...
...
...
...
...
...
...
...
...
...
...
...
...
...
...
...
...
...
...
...
...
...
...
...
...
...
...
...

*** Life<ConwayCell> 37x48 ***

Generation = 0, Population = 36.
................................................
............................................*...
...........*...........*........................
...............*...............................*
........................*.......................
..........*.....................................
................................................
....*...........................................
......................................*.........
................................................
................................................
................................................
............*...**..............................
................................................
....*...........................................
........................*.............*.........
..............................*.................
.....................*..........................
................................................
................................................
................................................
..........*..*.............*....................
................................................
................*................*..............
........*.......................................
........*..............*........................
................................................
...*............................*...............
...................................*............
.......................................*........
................................................
....*...........................................
..................*.........*...................
*...............................................
................................................
............*.....*.............*...............
................................................

Generation = 108, Population = 0.
................................................
................................................
................................................
................................................
................................................
................................................
................................................
................................................
................................................
................................................
................................................
................................................
................................................
................................................
................................................
................................................
................................................
................................................
................................................
................................................
................................................
................................................
................................................
................................................
................................................
................................................
................................................
................................................
................................................
................................................
................................................
................................................
................................................
................................................
................................................
................................................
................................................

Generation = 216, Population = 0.
................................................
................................................
................................................
................................................
................................................
................................................
................................................
................................................
................................................
................................................
................................................
................................................
................................................
................................................
................................................
................................................
................................................
................................................
................................................
................................................
................................................
................................................
................................................
................................................
................................................
................................................
................................................
................................................
................................................
................................................
................................................
................................................
................................................
................................................
................................................
................................................
................................................

Generation = 324, Population = 0.
................................................
................................................
................................................
................................................
................................................
................................................
................................................
................................................
................................................
................................................
................................................
................................................
................................................
................................................
................................................
................................................
................................................
................................................
................................................
................................................
................................................
................................................
................................................
................................................
................................................
................................................
................................................
................................................
................................................
................................................
................................................
................................................
................................................
................................................
................................................
................................................
................................................

Generation = 432, Population = 0.
................................................
................................................
................................................
................................................
................................................
................................................
................................................
................................................
................................................
................................................
................................................
................................................
................................................
................................................
................................................
................................................
................................................
................................................
................................................
................................................
................................................
................................................
................................................
................................................
................................................
................................................
................................................
................................................
................................................
................................................
................................................
................................................
................................................
................................................
................................................
................................................
................................................

*** Life<ConwayCell> 43x36 ***

Generation = 0, Population = 50.
....................................
....................................
....................................
..............................*..*..
......................*...........*.
....................................
....................................
...*....................*.*.........
....................................
........................*...........
...................*.....*......*...
....................................
....................**..............
..............*.....................
....................................
....................................
....................................
.....................*.*............
...................................*
.........................*..........
....................................
.......*............................
....*.........................*.....
.....*........................*....*
.....*......*.......................
...*..............*.................
........*.............*.............
....................................
..............................*.....
............................*.......
..........*............*....*.......
....................................
....................................
....................................
..................*.................
...................*.......*........
....................................
................................*...
..........*.............*....*...*..
..................................**
.........**.........................
*...........*.......................
............................*.......

Generation = 72, Population = 8.
....................................
....................................
....................................
....................................
....................................
....................................
....................................
....................................
....................................
....................................
....................................
....................................
....................................
....................................
....................................
....................................
....................................
....................................
....................................
....................................
....................................
....................................
....................................
....**..............................
....**..............................
....................................
....................................
....................................
....................................
....................................
....................................
....................................
....................................
....................................
....................................
....................................
....................................
....................................
.................................**.
.................................**.
....................................
....................................
....................................

Generation = 144, Population = 8.
....................................
....................................
....................................
....................................
....................................
....................................
....................................
....................................
....................................
....................................
....................................
....................................
....................................
....................................
....................................
....................................
....................................
....................................
....................................
....................................
....................................
....................................
....................................
....**..............................
....**..............................
....................................
....................................
....................................
....................................
....................................
....................................
....................................
....................................
....................................
....................................
....................................
....................................
....................................
.................................**.
.................................**.
....................................
....................................
....................................

Generation = 216, Population = 8.
....................................
....................................
....................................
....................................
....................................
....................................
....................................
....................................
....................................
....................................
....................................
....................................
....................................
....................................
....................................
....................................
....................................
....................................
....................................
....................................
....................................
....................................
....................................
....**..............................
....**..............................
....................................
....................................
....................................
....................................
....................................
....................................
....................................
....................................
....................................
....................................
....................................
....................................
....................................
.................................**.
.................................**.
....................................
....................................
....................................

*** Life<ConwayCell> 1x32 ***

Generation = 0, Population = 22.
***...*..********.*****.***.*..*

Generation = 46, Population = 0.
................................

Generation = 92, Population = 0.
................................

Generation = 138, Population = 0.
................................

Generation = 184, Population = 0.
................................

*** Life<ConwayCell> 2x2 ***

Generation = 0, Population = 4.
**
**

Generation = 135, Population = 4.
**
**

Generation = 270, Population = 4.
**
**
