*** Life<FredkinCell> 10x10 ***

Generation = 0, Population = 19.
00--------
--------00
-0--0-----
000-0--00-
-0--------
--0--00---
----------
----0--0--
-----0----
----------

Generation = 1, Population = 47.
110-----00
0---0--011
-1-010-0-0
1-1-100110
-10-00000-
---00110--
--0-0000--
---0--0-0-
------00--
-----0----

Generation = 2, Population = 33.
--100-----
100-1-0-22
0-01--0---
--202-1-2-
-2-01-----
-001---1--
-0---1----
---------0
---0---1--
----0--0--

Generation = 3, Population = 53.
1----00-00
--1-2-1-33
111-10-0-0
1-----2--0
03-1-0000-
01---11-0-
01-00-00-0
-0-0-0-00-
--0---0200
-----0010-

Generation = 4, Population = 39.
-11--1----
--2-3-20-4
-----1--0-
-0202031-1
1---------
120---2-1-
-2--1-----
-1010--1-0
-----0---1
--0-0112--

Generation = 5, Population = 56.
12-0---0-0
--3---313-
-1-11200-0
-1---1-22-
23-110-000
-31101---0
--0-210000
0-----0--1
-0-001--02
-0--12-300

Generation = 6, Population = 54.
231-0--10-
10-03---44
1212-311--
--2-2-33-1
340-21--1-
--22-2--1-
0-10-21--1
--01-01-0-
-1-11----3
010----41-

Generation = 7, Population = 49.
-4201102--
21----31-5
-32--42---
-1-03---2-
4-11----2-
--3-0--12-
--21-3-00-
0--20----1
-2--2-020-
121-1-152-

Generation = 8, Population = 42.
------1-00
3230304---
-43--5--00
-2--4-3331
-4--2----0
13----2-30
02--------
------1-0-
03-----3--
232-2--6-0

Generation = 9, Population = 48.
24201-2-11
434--1-1--
-5--162---
1--0514-42
--1131-02-
-43-02--4-
--2------1
-----0-1-1
----2--4-3
-43--217--

Generation = 10, Population = 47.
-53-21-222
----32---5
16------00
-------3-3
4--2-2013-
1542--2-5-
--312--0-2
--0----2--
-301-1---4
2540-3--20

Generation = 11, Population = 55.
264----3--
4-40--414-
273-16--11
-2-0-1-4-4
5--3-312--
--53--3-6-
0-4233-10-
---200130-
-----204-5
365--4173-

Generation = 12, Population = 44.
-------4--
--51--52--
-8--2--1--
13215-4545
------2--0
-5-4-24-70
----4---12
0---1-2---
0301-3-5--
4-602-284-

Generation = 13, Population = 50.
--40---52-
--62-2634-
-932362--1
24-----6--
5-1-3---3-
1---03---1
02--5--1--
1-0-20--01
1-1----6--
56-1343950

Generation = 14, Population = 46.
-6--21---2
--733-74--
--43-7-1--
--21-1---5
-4--4-----
--541441--
13-2-31---
-11--12312
-32----70-
-762---+-1

Generation = 15, Population = 66.
2----2-52-
---4--8-45
-954382211
----52464-
5-135322-0
156525527-
2--3542112
-2--2-3423
143--3-8-5
5-733-3+5-

Generation = 16, Population = 47.
-6-02-26--
43-5-29-5-
2+-549-3--
24-16----5
64-4---3--
2-7------1
33---5----
13--3---34
-5--2----6
67--444+6-

Generation = 17, Population = 44.
-7--32-7--
-4-------5
3+-65-2--1
35-2----4-
7-15--2-3-
-----5-27-
4-----2-1-
-4124--44-
1-31--0807
7-73----7-

Generation = 18, Population = 59.
284043--22
--75-29456
-+--6--3-2
4-2----65-
842-5--3-0
--752--381
--435----2
1523513-5-
2542-319-8
8---4-4-8-

Generation = 19, Population = 51.
3-51------
44-----567
--5------3
5-32--4765
--35632--1
2-86355--2
4-5-6-2113
-6--62-4-4
365----+--
9-7--45+--

Generation = 20, Population = 54.
48624--722
-575--96--
--6---2-1-
--4------6
-44-743---
3-97-66---
5363---2-4
1723-33-55
-7-22---08
+78345--8-

Generation = 21, Population = 55.
597353---3
-----2--67
-----933--
---262----
-55585-3-1
4-+-3----2
64-46-2-15
--346444-6
3--3-31+1-
+8-4565+9-

Generation = 22, Population = 42.
6-----2--4
4575----7-
---6-+-4-3
-5--73---6
-666-----2
5-+---63--
-5--753226
--4-75---7
4----4----
-9---76+-1

Generation = 23, Population = 45.
7-73-3-7--
----329--7
3--76+--14
56-28-476-
--77-53333
--+-3-----
--64-643--
1----6-4-8
--5----+--
--8-5--+--

Generation = 24, Population = 56.
--84542-24
--75--+--8
4-6---3---
-743---876
8----64444
-5---6--82
65-57---26
-7-4774---
4763241-18
-99--76+9-

Generation = 25, Population = 52.
-9-5----3-
458----6-9
-+-7-+4-1-
5854834-8-
-6778--5-5
56+7-7--93
76---643--
1-45-8-4--
5-743-2+-9
------7---

Generation = 26, Population = 48.
-+8-5-----
5-95-2----
4--86--42-
6-6-94-89-
87---6---6
--+-38-3+-
8-6-77---6
-7--79--58
6--544----
+-94578--1

Generation = 27, Population = 49.
-+-5------
65----+67-
-+6--+4--4
-8-4------
-87-8-4-4-
--+--9-4+3
-67-884327
1---8+446-
7----5--1-
+-+5689+9-

Generation = 28, Population = 45.
-+--5-273-
76-5----8-
-+7-6+----
6----4--96
8--7-6-55-
-6-73+----
-7----5---
2-45--557-
-7754-2+-9
+-+--9---1

Generation = 29, Population = 51.
-+8---3--4
879-32+-99
4-887-4--4
7-64--4--7
9-788--6--
-7-----4+-
-8--8-6-2-
-----+668-
78-655--1+
-9+----+92

*** Life<FredkinCell> 10x10 ***

Generation = 0, Population = 33.
0---00-000
-----0----
--0-0-0--0
-------0-0
--0----0--
---0-0--0-
---0000---
-00---00-0
-00---0---
---000----

Generation = 1, Population = 42.
-0-01--1-1
0-0-01-00-
-0---0--01
----0--1-1
-0---001-0
---101---0
-0---1--00
0---0-11--
0---0-1--0
-0-1-1----

Generation = 2, Population = 40.
--01--020-
---0-----0
----0100--
---0-0-20-
0-000-----
--02-2-0--
--0002--1-
1--010-2--
1---102-0-
----0----0

Generation = 3, Population = 48.
-01-101-1-
---1-1----
---012---1
0--1-10-11
----10--0-
0013-3----
00--1300-0
20---11-0-
20--2130--
0--11-0---

Generation = 4, Population = 55.
0121212--1
-0-2----00
0-01-3---2
-002-21---
-00021-11-
-1-4---000
11--2-111-
310-122---
3-0--2-1--
1-02-11---

Generation = 5, Population = 45.
12-2--32-2
01----0011
---2-4---3
---3032-11
011---0---
--1503-1-1
-2--33-2--
42---3-20-
-0------0-
2--3--2---

Generation = 6, Population = 51.
----21--13
--0----1-2
000315000-
00---4--2-
1--0-11-1-
01--1-02--
-3---4---0
530--4---0
3100-23-10
--0-11-00-

Generation = 7, Population = 44.
--22323-2-
0-1----2-3
-11--6-1--
1-----2--1
-11-2--120
--1----3-1
1----5-211
----1-----
-2-12341--
2-132-21--

Generation = 8, Population = 45.
12----42--
-1--0--31-
02-31-020-
-0--0--2-2
-2---1---1
0-25130---
-30-------
53--242-00
--0---5-1-
-024-1--0-

Generation = 9, Population = 54.
2-2-325---
0-1-1104-3
13-42-1---
--0-1--323
-3-022-122
-----413-1
1-------11
6-003----1
321-236---
2135---110

Generation = 10, Population = 54.
3-3--3---3
-12222-5--
-4-536220-
10------3-
1-113-1233
01-5------
2300351-22
-3----2--2
432---7-1-
-246-1-2-1

Generation = 11, Population = 47.
-24--4522-
--333306-3
--1-47-3-3
-----4-3--
--224-2-44
1---14-3--
---1----3-
6-003--203
5-----81-0
--57--2-1-

Generation = 12, Population = 58.
33----633-
--4-4-1714
-425-82--4
---31524--
133-----55
-125-51-01
---235-24-
7-1144--1-
63--23---1
22682132--

Generation = 13, Population = 61.
44--34-4--
0153-3282-
153---33-5
1-0--635--
24-24-----
--3-1-231-
230346135-
8322-52-2-
7-2134-1--
-3--32-311

Generation = 14, Population = 51.
----4-65--
1-644-3-3-
264--8440-
--1--74-33
-5-3----5-
-14--5-4-1
-4-457-462
94-3-6--33
8--2458211
---------2

*** Life<FredkinCell> 10x10 ***

Generation = 0, Population = 30.
---00-----
0--0--0--0
0---0-----
----0----0
----------
---0-00--0
---0-0000-
-00-----0-
0---000-00
-----00---

Generation = 1, Population = 45.
0-0-100--0
100100-00-
10--100---
0--010--0-
---0000---
--01------
-0-1--1---
-11-0-----
--0011---1
0------000

Generation = 2, Population = 54.
1010-11---
211--1-11-
2--02-1---
1-0--100-0
0--111100-
--12-0----
01-2-0-0--
0---1-0--0
0---2200-2
-0000001--

Generation = 3, Population = 56.
-121--2-0-
32-1-2-220
--013-2000
---01---0-
100---211-
--230---0-
-203011-00
----2-1001
1-0-33---3
-1--111-00

Generation = 4, Population = 44.
----1--01-
4---0-----
2-1--031--
100--1-0--
2--1-13-20
0034------
0314---01-
01------12
-0--4-000-
---0-22-1-

Generation = 5, Population = 62.
1--1212120
52111-0-2-
-021----0-
2---1--1-0
-002--4131
11450000-0
1-2-0-11--
-2-02-1023
-10--3--1-
-10-13-120

Generation = 6, Population = 52.
2---3-3-31
-32--212--
2-3-3-3-1-
-0-0-1-2-1
2-1-1----2
-2-61--101
2-3--122--
-3-1-0-134
12--44-0-3
0---2--231

Generation = 7, Population = 39.
--21-14142
54-113-320
--41--4---
2-----0-02
----2-----
1--7------
---4---31-
041-2-12--
--0-------
1--03-2---

Generation = 8, Population = 41.
2-3-3--25-
65-2----3-
--5---5---
-000111-13
-----14-32
-248---10-
-3-5----20
1--1--2---
--1----0--
-1-14--2--

Generation = 9, Population = 55.
31-1-143-2
-6----1-40
20613-61-0
211--22---
-------14-
1---10-211
-43-0-2--1
---220--34
1--04--11-
1-0253233-

Generation = 10, Population = 49.
4----25453
6---1---51
--7-407211
-2---3-213
-01-2-----
--48-10-2-
-545----2-
14---1----
22-154--2-
2-136--4-1

Generation = 11, Population = 56.
51---3--6-
762223-362
2----1-3-2
231-142-2-
2--2-141-2
-25-121-31
--5-0-2331
-5---22---
3-1-6-0---
3124--2-3-

Generation = 12, Population = 52.
---1-45-7-
87---4--7-
-0-14-74-3
3-202----3
301--2-2-3
-3-8-32--2
-56-1-3-4-
--1-233-34
4-21-4-12-
--35-33--1

Generation = 13, Population = 47.
513---6-83
9-2--51-8-
217--18514
4--1--2-2-
-1-2-34---
----1----3
2--52---51
1--2-4-245
--3-6--2-3
31----4---

Generation = 14, Population = 48.
---1--7--4
---22-23-2
3---4----5
53-224-23-
---324-243
13-82-2--4
356------2
25-3----56
---1---324
42--63---1

Generation = 15, Population = 45.
--32-48-85
9-2----4--
4--1--8--6
-4-------3
--14--4-5-
--5--3----
4-752-3---
--142----7
--32-40435
533-7444-2

Generation = 16, Population = 48.
51-3-59496
+-32-52---
5---41--17
---------4
---52-----
13-8--2-3-
--86-1-3-2
252----2-8
4-4---15-6
6--5855-33

Generation = 17, Population = 47.
-234--+--7
-74-26----
617-5--52-
5--2-4---5
311-344-53
245----2--
-5----3453
--3--4----
-25-6---3-
73-6---44-

Generation = 18, Population = 57.
5-45---49-
-852-7-482
-2-161863-
-42--5-236
42-545526-
---823233-
-68---45-4
-544---2-8
---2----46
8-3---55-3

Generation = 19, Population = 53.
-2--35+---
--632825-3
6-------47
-5322--3-7
5-1-5-6-7-
2---34----
4--62--655
2-5-2--35-
42536-1557
-----56644

*** Life<FredkinCell> 10x10 ***

Generation = 0, Population = 24.
-0--00----
--0---0---
--------0-
0---------
0---0-----
0---------
-00-------
-0----0-0-
--0-0-0-0-
-0--0-00-0

Generation = 1, Population = 44.
0--011----
---00--00-
0-0---00-0
10--0---0-
-0-0-0----
1-0-0-----
--10--0-0-
010-001-10
-0--1--01-
0--01--10-

Generation = 2, Population = 41.
-00-22000-
--------1-
10---01---
------0---
010---0-0-
-01---0-0-
--210-1-1-
12-0---021
01------2-
--01-00--0

Generation = 3, Population = 50.
011-3----0
0-0-0---20
210-01-00-
--0----00-
12-0-0--10
--2-00---0
00-21-20--
--01---1-2
-----00-30
0-12-111--

Generation = 4, Population = 39.
----42---1
----------
--1--2--1-
-01-0-0-1-
23--010---
-0-----0-1
11---03-1-
1-1--01223
0---1---4-
--23--22-0

Generation = 5, Population = 48.
---0530-0-
--0-0---20
--20---020
----1-1-20
34-0----10
1-2-0-0-0-
----1---20
-2-1--2--4
11-----050
0034-1330-

Generation = 6, Population = 48.
---16-1-1-
-01-1-0-3-
-1-10--1-1
1010---031
-50-0--02-
20-01----1
112-20-0--
-3---0--2-
-2---00-6-
-1-5-2-4--

*** Life<FredkinCell> 10x10 ***

Generation = 0, Population = 13.
0----0----
-0-------0
-0-0------
--0-------
----------
----------
--0-------
-----0----
------000-
0---------

Generation = 1, Population = 30.
----0-0--0
-100-0--0-
010-0----0
----------
--0-------
--0-------
-0-0-0----
--0-0--00-
0-----1-10
-0----000-

Generation = 2, Population = 36.
-00--0-0--
--11---0-0
12-0------
00--0----0
-010------
--1--0----
0---0-000-
0--0---1--
--0-002-21
--0--0----

Generation = 3, Population = 59.
01--0--100
01--0001--
--01---0--
-1-0-0--0-
--21-0---0
0-2----00-
100--01110
10--000200
0010113032
-010-1--00

Generation = 4, Population = 38.
--001----1
-------2-0
121----1--
0----10---
0----1000-
10-------0
21-0--2---
210------1
--212-41-3
--2-02----

Generation = 5, Population = 56.
-11-20-102
01-10-03-1
--21-0-200
--0-0--00-
----0-1-1-
2-20-0-0--
320-00-1--
-2-00--202
0-3--152-4
-030-3-0-0

Generation = 6, Population = 45.
--20-10---
1-----14--
1-----031-
-1101---1-
0---11--20
30-1-101--
-3-------0
23-1-0-3--
--41---33-
-141-401-1

Generation = 7, Population = 47.
0131-2----
2111--2---
2-2100-4-0
02----0---
1021-----1
----0--2--
3-0---2-1-
3-02---4-2
00-22--44-
025--5--0-

Generation = 8, Population = 34.
-24-------
32-2-0---1
---2-1----
1-1-1-----
-1-2--102-
-0---1---0
4-1-00----
-3-----5--
1---3-5---
-36---0-11

Generation = 9, Population = 48.
--5--2---2
4-13-12-0-
-2-3020--0
-2----001-
-22---2-3-
-1-1-2-2--
----1-21-0
3----0--0-
-042--6-44
-471051-22

Generation = 10, Population = 46.
026-23----
-2--02---1
-32--31-1-
1--01-1---
133---3-41
322-0--3-0
43----3-1-
--02--0-12
--5--17-5-
0-82------

Generation = 11, Population = 52.
137---0--2
--13-3----
--3-0-----
221121-0-0
24---1405-
4----20--1
--10104120
3--30---23
10-232--6-
---3051-2-

Generation = 12, Population = 59.
2------10-
4-240----1
2---13-4-0
-32-3-111-
3--2-25161
5-21-31302
-321215-31
4--4100-3-
-1-3---4--
048-162-32

Generation = 13, Population = 64.
33712-021-
--3------2
3---241511
24314----0
4-331-----
62-204-4-3
443-3-614-
-3-521-54-
12543-7-64
15932-3143

Generation = 14, Population = 39.
4-8-3-1-2-
--4--3--03
4--------2
3-425-11-1
----2--1--
7----5150-
--4---7---
4----2--5-
--6-428-7-
-6+4----5-

Generation = 15, Population = 55.
--9--3--3-
-254---4--
53-32415--
4-5---2--2
--3-3-5--1
-22--62613
-4-1-18---
-3---30563
1-74539--4
17+5-63163

Generation = 16, Population = 32.
--+-3-1--2
--6----5--
------2-12
546-----13
4----2----
7---------
4-4--291--
-4---4----
2--5--+47-
--+-2-4---

Generation = 17, Population = 45.
-3+-----3-
-2740-2---
53---4-5--
--72-121--
--3-3-5-61
-22---26--
54-13--24-
4--5250-6-
--------84
17-5--5-6-

Generation = 18, Population = 46.
4---3-12-2
-38-13--0-
6-3--5-61-
5--35-3--3
---3-2--72
-----6--13
--4---9--1
5-0-3-15--
-2--53-495
28--26--7-

Generation = 19, Population = 59.
--+143233-
44-----51-
734-2627--
64--6---14
4-3433-1-3
--2207-6-4
54513-+--2
-41-45----
23-56-+-+6
3-+5--5-8-

Generation = 20, Population = 48.
4-+----4-2
--84--26-3
8-5-----12
7-7--1312-
54-5---27-
--3---27--
65-24---43
55--561-6-
-----3+--7
48+--66-9-

Generation = 21, Population = 48.
--+----5-3
-495133-1-
9----6-7--
-48-62-23-
-5--3353-3
-2-2073-14
--53-----4
--1--7--73
--7--4+4+-
5-+52-----

Generation = 22, Population = 42.
--+-43--3-
-5+--44---
-3-32-281-
--9--3334-
5---4-6--4
733-18-725
------+-4-
-5--58----
23--------
----3-619-

Generation = 23, Population = 51.
--+-5--5-3
4---1-----
94-43-39-2
7---64-4--
6--55-7375
--4--9-83-
6-5--2-25-
-61569--7-
3-7--4+4+-
58-5--7-+3

Generation = 24, Population = 49.
43--632---
5-+--44---
+5-5464---
---375----
75-6--8-86
-35--+394-
-5------64
57---+-5-3
4-85--+-+-
-9+-3-81-4

Generation = 25, Population = 47.
-4-174-5--
----1556--
-65-5--9--
--948-3-44
8-37-393-7
-46-1+4-55
------+2--
---56-1--4
5--6--+--7
-+-5---2+-

Generation = 26, Population = 50.
4--28-263-
--+-26-71-
+7-5--4+-2
7-+5-54-5-
-54----4--
-5-22+5-6-
-553--+3--
5-1-7---75
--8--4+--8
---63--3+-

*** Life<FredkinCell> 10x10 ***

Generation = 0, Population = 31.
------0-0-
-0-000-0--
-0-----0--
00--------
0-------0-
--0000--0-
------0000
----0-----
--0-00-0-0
---0-0---0

Generation = 1, Population = 52.
-0-00--0-0
01-1-101--
--0000010-
--0----00-
1-0000-010
001--1----
--00--1-11
--001-0-0-
-0-0-----1
----010001

Generation = 2, Population = 45.
-1--1--1--
1-0---12-0
0--1-11--0
00-0---11-
201-----21
--20-2-0--
0-1---2--2
----2-1-10
0-0100-002
-0--1-----

Generation = 3, Population = 47.
---0-0-200
21--0----1
---2-2-1-1
1-0100-2-0
-1-0-0-0-2
--31--0---
--2-0-3--3
----3020-1
-01--1011-
----2--001

Generation = 4, Population = 47.
010-1--3--
3201-1----
-0-3-3-2--
-01--1----
----0101-3
------1---
-03010--14
-0-0-1--12
01210-1--2
-000----12

Generation = 5, Population = 42.
-2-0--0-0-
--1-021---
---4----0-
1-2------0
-1101212--
-031-22-0-
0--1---0--
-----2-0-3
1-3-11-11-
--1---002-

Generation = 6, Population = 47.
0-0---1--0
----1--2--
0-0--312--
-0310102--
---1-323-3
--420----0
---21--1-4
--00-3--1-
--4-2-12--
00202-11-2

Generation = 7, Population = 42.
---010--0-
---1--1301
-01-0-230-
-142---310
-11---3--4
-05---2-0-
--33--3-15
-0-----0--
1---31---2
1-3-------

Generation = 8, Population = 51.
--0--1--1-
-2-21--4-2
0-------11
12-3--0-2-
222--34-25
0-6--2--10
-0-41041-6
---033----
2-4142121-
2--021---2

Generation = 9, Population = 42.
------1---
--132-1--3
10--0-2---
2-4-0-1--0
33--1---3-
1-7---2--1
--3-2--217
00-1-42-13
3-5-----2-
30--3--1--

Generation = 10, Population = 51.
--001123-0
3-2----40-
-11----3--
------23--
442123-3-5
2082-2--12
--44--4328
-1--35302-
----421-3-
-1-0-11---

Generation = 11, Population = 46.
02------1-
-2--22-51-
-2-4------
2--30-3420
-532--4436
-1-303-0-3
00---0-4--
0----6-13-
------2242
3---3--12-

Generation = 12, Population = 44.
1-0-11--20
--2-33-6-3
-3-5032--1
-2-41--53-
---32---47
--8---2-14
--44-----8
1---3732--
----4-3--3
-1-0-1----

Generation = 13, Population = 52.
--1---2-3-
3-33441-1-
141--433-2
23-52--6-0
-5---34-5-
-19303---5
00-5-0-4-9
-10---433-
31--5-4-4-
3---3----2

Generation = 14, Population = 63.
122-1-3-40
424--5262-
25-50-4-13
-446313731
----2-54-7
-2-4-4-0-6
11-621452+
121-3--4--
---16-525-
4--0411---

Generation = 15, Population = 44.
-3---143-1
5---46--33
-6------2-
---7---842
--333--55-
-3-5-5--1-
-24-32----
-32---4-33
-1--72-363
-13-5---2-

Generation = 16, Population = 47.
--2----442
-2-35-----
--1504---3
-4-8--3--3
--4-4-5-6-
24-6-62-26
13-64----+
14-1-7-4--
3-51-354--
4-4-6---3-

Generation = 17, Population = 50.
----1-45-3
5------63-
-62-15--24
2--93-48-4
45---3--77
--97-7----
24-75245-+
2-2-384533
-1--7-----
5-50--1--2

Generation = 18, Population = 48.
1--0--5-4-
--4--6---3
2735-6-3--
34-+--59--
-6---4--8-
-4+-0--02-
-5--6-5-2+
3--14956--
3-5-8--46-
-161-1-13-

Generation = 19, Population = 51.
-3--1-----
--5357-6--
-84--74424
-54+316---
---3---597
25+-1--13-
-6---26--+
4--2--6-33
416-93-5-3
-2726----2

Generation = 20, Population = 54.
1---2--5--
-2--6-27-3
2-551855-5
3-5+-2-9--
4-4444--+8
36+7-----6
27-7-3--2+
54---97644
-2---45-6-
--8----133

Generation = 21, Population = 51.
---031-643
5----7-8-4
38-62966-6
--6+--6+--
-65---5-+-
47+8----3-
3848-4---+
-5224+8---
-3--9----3
---2-1-244

Generation = 22, Population = 51.
1-21------
6---6-2-3-
-95--+77-7
35----7--4
--64-465+8
----17214-
---965----
-6335+96--
44-1+455-4
-28-6--3--

Generation = 23, Population = 49.
2-32--5-4-
7----738--
3-66-+-828
4-6+-2-+--
4-754--6+-
--+8--32--
-8---66-2-
------+-44
55---566--
--927--444

Generation = 24, Population = 50.
3-433-66-3
-2--6-4-34
------79-9
--7+33--44
5-8-5--7+8
4-------4-
3--967753-
5----+-6-5
66-1-67-6-
5-+-8----5

Generation = 25, Population = 47.
-35----744
----7---45
-966---+--
45--44-+-5
6-956-68--
-7+8-732--
-84+-8-6--
-------7--
776-+-86-4
62-2--1---

Generation = 26, Population = 47.
34633-685-
-----7-8--
---72+7+--
--7+-57---
7--6---9+8
---91-434-
3-5--97-3-
5--35+--45
-871------
--+--12--5

Generation = 27, Population = 49.
4---417964
725-78----
------8-2-
458+4--+45
-6---46-+9
----27-45-
4--+6--6--
6-3----7-6
-98---8-6-
--+-82344-

Generation = 28, Population = 46.
5-63-2---5
--6---48-5
---7---+3-
56--5-7+--
-7-66-7-+-
47----4---
58-+--7--+
764-5--84-
-+91+-9-7-
--+-9-4--5

*** Life<FredkinCell> 10x10 ***

Generation = 0, Population = 11.
----------
-0--0----0
----------
---------0
---00-----
----------
--------0-
-0--------
----------
---0--0--0

Generation = 1, Population = 36.
-0--0----0
0-00-0--0-
-0--0-----
---00---0-
--0110---0
---00---0-
-0-----0-0
0-0-----0-
-0-0--0--0
--0-00-00-

Generation = 2, Population = 28.
----------
--11--00--
---01-----
-0--1--0--
-01--10-0-
-0-------0
---00-0---
------0--0
--------0-
---011011-

Generation = 3, Population = 46.
--00--00--
-02--0110-
-0---00---
01--2-----
0121-210--
01-000----
-0011-10--
---00010--
---000--1-
--01-----0

Generation = 4, Population = 29.
---10-----
0---0--210
--------0-
-2---0-0--
1------10-
-2-11-0---
----2---0-
-0-1-12---
---11-----
-01--1----

Generation = 5, Population = 48.
0-02-0-000
-0--101321
00--10-01-
--0-2--10-
-1-112--10
---2------
---13--0-0
0--2-2300-
----200---
012---0---

Generation = 6, Population = 57.
-013010-1-
01--------
1--02-012-
02-0-00-1-
1-2-231--1
-20-10-00-
0-024--10-
-003--411-
-00-311-1-
1-311-11--

Generation = 7, Population = 42.
------1--0
-----0-3--
-00-30---0
1301--112-
2-31----1-
03122-0---
--13---210
----0--220
--1---2-20
-1---1-2--

Generation = 8, Population = 27.
--------1-
-12--11-2-
---04-----
-4----2---
--42----21
----3----0
0---4---2-
-----2---1
---13-----
1---1-1--0

Generation = 9, Population = 51.
-01--11020
023--22-31
---15---2-
1---20-120
--53--113-
0-1-40--01
-0-35--2-0
0--30-4---
0-12--2---
-1--2--21-

Generation = 10, Population = 51.
---30-2-3-
13-----34-
-0-2-00--0
-401-12--1
-1-4232241
-32--1-0--
0-1-6---21
1--4--5--1
102-313-2-
-----1-320

Generation = 11, Population = 58.
00141--040
2-3-1224--
--03-----1
15-2223---
2-----33--
----42010-
1023--1-3-
--0-0-6222
--3242-030
113--21431

Generation = 12, Population = 35.
--2------1
33--------
----5--12-
-60------1
3--4-34---
-32-5--2-1
2-346-----
1---12-3--
1-4-5--1-1
2------54-

Generation = 13, Population = 49.
0--4----4-
44--1--441
1-03-0023-
-71-2231--
-15-245---
04--6-----
30--7----1
-0--23-422
----6-3-3-
313-2-1-5-

Generation = 14, Population = 44.
1-2-----5-
55-1-----2
2--4--1---
--22------
-2--35----
-5-2--0--1
-134---2-2
-10434653-
1-42-241--
4-4-3-2-61

Generation = 15, Population = 54.
20-----0--
66321-2---
3---50-2-1
1-3--23---
33-446---1
0-23----02
3245-01333
-----57-4-
205-----31
5-51-23572

Generation = 16, Population = 30.
---41---5-
77---2-4-2
----------
-7--234---
44-------2
---4--0--3
--5---2---
---43--5-2
--------4-
61-2-3--8-

Generation = 17, Population = 57.
20252-----
8832----4-
3---5-12-1
-8323-51-1
5-5446--43
05--621204
-2-5703---
---545--4-
20--62--5-
72----3592

Generation = 18, Population = 47.
-13631--5-
994-1-2---
40-46---32
194343--2-
6--5--53-4
---47-2-1-
-3-------3
1-0--6-552
--5-------
--5-3-4-+3

Generation = 19, Population = 53.
--4-42-0-1
-----2-4-2
51--7-12-3
2+--54--31
7---4--4--
052-8-32-4
---5703334
-1154--6--
20-26241--
-26-----+4

Generation = 20, Population = 49.
-1--5--1-2
994-132---
--048-2-3-
3-4365-14-
-455---5--
--34-2-315
3-5---4---
----567--2
31--7----1
--7-334-+5

Generation = 21, Population = 49.
-2-66-----
++-22---42
--159-3243
-+5-765--1
-5-6--5-44
0-4---3--6
--6-705-3-
-115---653
42-2-2----
7-----5-+-

Generation = 22, Population = 46.
-3---2--52
+-43332---
51-6+0--54
3-----6-4-
-6------55
-55-8--317
3--58--344
--2----764
--53---1-1
8--2-----5

Generation = 23, Population = 60.
---6-3-163
+-544-34--
621-+-32-5
4+-37----1
-7--4-5-6-
--64923--8
--66-054-5
11355-7875
42--7-425-
-2-33--5+6

*** Life<FredkinCell> 10x10 ***

Generation = 0, Population = 23.
-00-------
0---------
0---0-000-
----00----
-----00---
0----0----
-----00-0-
00--------
-------0-0
0----0----

Generation = 1, Population = 50.
-110------
1-0-0-000-
10-0101-10
0--0--000-
0----110--
-0--0-0-0-
-0--0-1--0
110--00000
-0---00---
-0--0-00-0

Generation = 2, Population = 49.
-221--000-
2-1-10----
210-2-2-21
--01-011--
1--0-2--0-
-10010-0--
---010--01
2-10------
------100-
0100-0-1--

Generation = 3, Population = 55.
-332--1-10
3--0-100-0
--103-3032
----0-2200
--0-0--0-0
-2--21--00
00012-1-12
--2--000-0
-0----2110
1--1--02--

Generation = 4, Population = 40.
-4--0-202-
--1-12----
2121-04-43
--------11
-------1--
-30-32---1
111---20-3
213--1----
---0--3---
--0-00---0

Generation = 5, Population = 57.
0--2103-30
3020--00-0
3-323-5---
0001-02---
-00-021---
----43--02
--212031-4
-2--0-00-0
000--0-1-0
-1-111--0-

Generation = 6, Population = 47.
1------04-
4-311-1101
--4-40---3
-1----32--
---0---100
-3--540-1-
--3--14-1-
-33-1--1--
1-1-013211
-202--0---

Generation = 7, Population = 54.
24321-----
5----2221-
3-52-15--4
0--10-4---
--0--21-11
0---65-0--
-1412--124
-44-210200
---0--43-2
-313--1-00

Generation = 8, Population = 42.
----2-304-
------3-2-
--6-4-6---
110-1--21-
-0--0--122
------011-
--5-31-23-
2-----1-11
--11--5---
14--11221-

Generation = 9, Population = 44.
---2-----0
--3--2-231
3-7-5-7---
22---0----
-1-012-2-3
-30---1-2-
11--42--4-
-4-02-22-2
--22-----2
25--2-3-20

Generation = 10, Population = 48.
----20-0-1
504---33--
418-----44
---111-2-1
--01--1-2-
-41--5-13-
22---34-5-
-54--13313
103-0--3--
36------3-

Generation = 11, Population = 48.
24323131--
-1-11-4---
-2--51705-
220--24--2
-----2--3-
----66-242
335-44----
26-0--4424
-------412
----2----0

Generation = 12, Population = 49.
35-34-424-
--4-2--33-
-----2--6-
3311-3--1-
110-----43
0410-7-353
-461------
--4---553-
10-20---23
---3-1-2-1

Generation = 13, Population = 54.
4634--53-1
5--13---41
42-2-37--4
-422-442--
2-11----5-
-------46-
----444--4
2650216---
213-1-54--
36142---32

Generation = 14, Population = 52.
-----16442
-1-24---52
--8-5----5
3-33--53-2
-1--121263
0-1067-5--
346--5----
-76--27--4
3-4--1-5-3
-72--13-43

Generation = 15, Population = 51.
-6-4-2--5-
5-43--4--3
4-9-6370--
-4-41---1-
2-11-32---
1---7816-3
-57----2-4
2-70238-35
---21---2-
-8-42-425-

Generation = 16, Population = 43.
--35---4--
61---25---
52+---81-5
3----4---2
312-----63
2---892--4
36----435-
-7-13-95--
31-32-----
3-----5--3

Generation = 17, Population = 51.
4-4642--5-
--4343-3-3
63+2-3-2-6
-4--1--3--
4-311-2274
-4109---65
--71--546-
2---------
-----1-5-3
4--421-25-

Generation = 18, Population = 46.
---75-6---
--5-54-454
74+--4---7
35342-----
---22-338-
-5---9-67-
3----56---
-771-39-35
---3-2-62-
-825----6-

Generation = 19, Population = 53.
---8-2--52
6-63--55--
-5+-6582-8
-645--5312
4----344-4
--10-+---5
-67146---4
-8---4-5-6
--4--3573-
49--21--73

Generation = 20, Population = 49.
4--9----63
-1---4----
--+-7--369
--56-46--3
----2-5-8-
2---9--67-
3-82-7646-
2971--9637
31-3-4-8-3
5+-53----4

Generation = 21, Population = 55.
--4-52-474
---3--55--
--+2-5-4--
-6-7-5--14
4-3-33649-
351-+-2-85
-6--487-7-
3+8234--4-
424-2-593-
----4--275

Generation = 22, Population = 54.
-6-9636--5
--64-466-4
--+3-685-9
---82--3-5
5-42-47-+4
-6-----696
3-8-59----
--9---9--7
-3-3-46+4-
5+2551--86

*** Life<FredkinCell> 10x10 ***

Generation = 0, Population = 1.
----------
----------
----------
----------
----------
----------
0---------
----------
----------
----------

Generation = 1, Population = 3.
----------
----------
----------
----------
----------
0---------
-0--------
0---------
----------
----------

Generation = 2, Population = 4.
----------
----------
----------
----------
0---------
----------
0-0-------
----------
0---------
----------

Generation = 3, Population = 7.
----------
----------
----------
0---------
-0--------
--0-------
---0------
--0-------
-0--------
0---------

Generation = 4, Population = 3.
----------
----------
0---------
----------
----------
----------
--0-0-----
----------
----------
----------

Generation = 5, Population = 9.
----------
0---------
-0--------
0---------
----------
--0-0-----
-0---0----
--0-0-----
----------
----------

Generation = 6, Population = 12.
0---------
----------
0-0-------
----------
0-0-0-----
----------
0-0-0-0---
----------
--0-0-----
----------

Generation = 7, Population = 13.
-0--------
--0-------
---0------
----0-----
-----0----
------0---
-------0--
0-----0---
-0---0----
--0-0-----

Generation = 8, Population = 4.
0---------
----------
----------
----------
----------
----------
0-----0-0-
----------
----------
----------

Generation = 9, Population = 11.
-0--------
0---------
----------
----------
----------
0-----0-0-
-0---0---0
0-----0-0-
----------
----------

Generation = 10, Population = 13.
--0-------
----------
0---------
----------
0-----0-0-
----------
0-0-0-0-0-
----------
0-----0-0-
----------

Generation = 11, Population = 21.
-0-0------
0-0-------
-0--------
------0-0-
-0---0---0
--0-0-----
---------0
--0-0-----
-0---0---0
0-----0-0-

Generation = 12, Population = 6.
--0-0-----
----------
------0-0-
----------
0---------
----------
--------0-
----------
----------
----------

Generation = 13, Population = 17.
-0---0----
--0-0-0-0-
-----0---0
0-----0-0-
-0--------
0-------0-
-------0-0
--------0-
----------
----------

Generation = 14, Population = 12.
0-------0-
----------
0-0---0-0-
----------
0-0---0---
----------
0-----0---
----------
--------0-
----------

Generation = 15, Population = 22.
-0-----0-0
--0---0---
---0-0---0
--------0-
---0-0-0--
--0-------
-0---0-0--
0-----0-0-
-------0-0
--------0-

Generation = 16, Population = 4.
0---------
----------
----------
----------
----------
----------
----0-0---
----------
0---------
----------

Generation = 17, Population = 11.
-0--------
0---------
----------
----------
----------
----0-0---
---0---0--
0---0-0---
-0--------
0---------

Generation = 18, Population = 13.
--0-------
----------
0---------
----------
----0-0---
----------
0-0-0-0-0-
----------
0-0-0-0---
----------

Generation = 19, Population = 20.
-0-0------
0-0-------
-0--------
0---0-0---
---0---0--
0-0-----0-
---------0
--------0-
-------0--
0-0-0-0---

Generation = 20, Population = 11.
--0-0-----
----------
0---0-0---
----------
----------
----------
0-0-----0-
----------
0-0-0-----
----------

Generation = 21, Population = 23.
-0---0----
0-0---0---
-0-0---0--
0---0-0---
----------
0-0-----0-
---0---0-0
----0---0-
-----0----
0-0-0-----

*** Life<FredkinCell> 10x10 ***

Generation = 0, Population = 21.
0--0----0-
0--0------
-0----0---
-0---0000-
--0------0
-------0--
-0--------
------0---
---0-----0
-0------0-

Generation = 1, Population = 49.
10010--0-0
1-010-0-0-
-100--1-0-
01--011-1-
---0-00---
-00---0-00
0-0---00--
-0-0-0-0-0
-00-0-0---
0-00---0--

Generation = 2, Population = 39.
--12-0--0-
2-1---101-
0-1-0----0
1--0122-20
0---0-10-0
-1-----011
--1-------
-1--0--1--
-----0-0-0
-0-1----0-

Generation = 3, Population = 40.
10-3----10
3---0-2---
--201--001
-1-1---031
1---10----
----0-----
-0-00---00
0--0--0200
---0---10-
0---00----

Generation = 4, Population = 44.
-1----0021
4-111-----
0-31-0--1-
--02122-4-
-----11000
01------11
-----00---
--0--013--
--01-0----
-0--11000-

Generation = 5, Population = 53.
---3001--2
50-22-20-0
1-42-1-021
11-3---0--
1000--2---
120-------
001-0---00
-11-01240-
---20-0-0-
0---22--10

Generation = 6, Population = 48.
111-1---23
-113----1-
--531-11--
2---12-1-1
2-1-11----
2-1-0-0-11
--2-1-0--1
---01-3-1-
00-31-11--
-0---3-0-1

Generation = 7, Population = 46.
22-3-0-0-4
----2-2-2-
1--4-12--1
31--2-22--
--2-2--00-
3----01-2-
0030---002
01--2--4--
1----0---0
-101--01--

Generation = 8, Population = 46.
33--1-1-2-
-1-3--30-0
2-5--23---
-2--32---1
----3-2--0
4--0-12---
11-1-0--13
1-----35--
2003----0-
-2-22-1211

Generation = 9, Population = 49.
4-1---20--
521---412-
----------
---3--2-42
20--4-3001
5-110--02-
22-2-10-24
-11---4610
-1-----11-
-30-3-2-22

Generation = 10, Population = 48.
5323-0----
---3-0-230
2154---1-1
320--232--
-1-05--1--
--22--2-31
---312--3-
-22----7--
2-0-1-1-20
0-1----2-3

Generation = 11, Population = 45.
6----12024
--1--1----
-26-1---22
---3-3-342
-2--6-32-1
--330--0-2
-23--3--4-
-3---1--10
31------3-
1-223---24

Generation = 12, Population = 50.
-32-1----5
5-23-2-2--
23-4-2----
------3-53
2--071430-
-2-----133
2----40-54
----224721
---310-1-0
233-43-2-5

Generation = 13, Population = 51.
-4-3---02-
6---23--30
-465-3-122
-2--3343-4
--21--5411
5-330-2---
--------65
1-----5832
31-4-11-3-
3-42---3-6

Generation = 14, Population = 47.
-----121--
-2233-424-
---6--3-33
33034454--
2---7-65--
---41-3---
--331-----
2--0------
4205-2--40
435-43--2-

Generation = 15, Population = 52.
-423-23---
63-44353--
2-6-1----4
---45----4
3-21-17-1-
5---2-4---
224--40---
3-2--2--32
531-1311-1
-4-25-233-

Generation = 16, Population = 40.
----1-----
----546440
34----3135
--0---5--5
4-3--2----
-------13-
3--3---065
---0--5-4-
-4-5-42--2
-553-3-44-

*** Life<FredkinCell> 10x10 ***

Generation = 0, Population = 29.
-------000
-0----0---
----0--00-
--0--0-0--
---0-0----
----0-----
-00--0----
0---0--0-0
--00---0-0
00-0-----0

Generation = 1, Population = 45.
-0-----1-1
0-0-00-0-0
-000----10
-0---1-1--
----0100--
-00--0----
-1100-00-0
------01-1
--1---01--
11010--001

Generation = 2, Population = 53.
----0002-2
--1011-10-
--11---02-
01-0-202-0
--001---0-
0---010--0
0-2-10---1
-0-00012-2
0-2-00-2--
2-1-10---2

Generation = 3, Population = 51.
--0--1--0-
-0-12-02--
0--2---1--
12--03----
--11-1---0
10--1210-1
11-021000-
0--1-----3
103011030-
3-2---000-

Generation = 4, Population = 50.
---------2
--1-311---
101300-22-
-3-01-02-0
-022---001
---0--2-02
2---321111
-0--0---0-
2-41--14--
413-1--1-2

Generation = 5, Population = 47.
--0-010-0-
0-21-22-00
2124----3-
---1-313-1
0--3--0-12
10-1--3-13
------2---
0---1--21-
3--2112--0
---1-0-2--

*** Life<FredkinCell> 10x10 ***

Generation = 0, Population = 33.
00--0-0--0
--0-------
---0---000
00------00
-000----0-
-0-0---0--
---0000--0
----0-0---
-0--------
--000----0

Generation = 1, Population = 44.
11-0---00-
0---0-000-
00--0-011-
1-------1-
-1--0---1-
010--0---0
-00-1---0-
-0--1010-0
0--0--0--0
--1-10--0-

Generation = 2, Population = 48.
-2-------0
-0--1---10
11001--220
20----0--0
02-0---02-
1--00-0-0-
-1--200--0
-1----2101
----001--1
00-021-0--

Generation = 3, Population = 52.
130-0----1
----20---1
-----0-331
31--00-011
1--1--01--
210--0101-
-20---1-01
020--03--2
0----1-0-2
11-13-0-00

Generation = 4, Population = 51.
2-1-1---02
0000--00--
11--1---42
-20-1-012-
-2---0-220
-2--01-1--
0310-0-0--
-3-01-----
-000-2--0-
-2-241-01-

Generation = 5, Population = 62.
3320-00-13
111120111-
-20-20-3-3
-31-201231
1---010331
----12---0
1----1-10-
---120-10-
01-1-31-12
131----1-0

Generation = 6, Population = 48.
-43-1--0-4
---23-22-1
-31031---4
----3-2-42
--011-1442
---0-3--11
-3-02-----
-30--13-1-
--020-2---
-42--1--11

Generation = 7, Population = 53.
354020-1-5
--1-403---
14-1-203--
-3-0-032-3
-212-1---3
-2--------
141-311--1
0--122---2
-11-1-30-2
15-----122

*** Life<FredkinCell> 10x10 ***

Generation = 0, Population = 11.
-0--------
--0----0--
---0--0---
----------
---0------
---------0
--------0-
----------
-----0---0
----0-----

Generation = 1, Population = 18.
0------0--
--------0-
----00----
------0---
--0-0----0
---0------
-------0--
-----0--00
------0-0-
---0-----0

Generation = 2, Population = 32.
-0----0---
0---00---0
---011--0-
--0----0-0
-0-0-00-0-
-------0-0
---0-00--0
----0----1
---0----10
--0-0-0---

Generation = 3, Population = 36.
--0-0--0-0
----------
0--12-0--0
---00-----
0-0--11--0
-0----0-01
--0-011-0-
---0--0---
----0-002-
-0-0---000

Generation = 4, Population = 30.
-0---00---
0-00--00--
-00----00-
----------
-0---2-0-1
--0-00----
---01-2-1-
----0-----
-0-0---1--
0-------11

Generation = 5, Population = 34.
---001----
---10-----
-1------10
--0--0--00
0----3----
---0---001
---121---0
-0-010000-
------0--0
---0----22

Generation = 6, Population = 53.
--0-120---
-00-----00
0--121-0--
0--00100--
-0000410--
0-01--01--
-0023---11
0---211-11
-0--0-1-21
--0-0-003-

Generation = 7, Population = 45.
--1-2-1000
-1----0-11
1---3-01-0
1--1--110-
011-15-10-
--120----1
0113------
-00-3---22
---0-0-13-
----1-----

Generation = 8, Population = 22.
--------1-
-----0---2
2-----1--1
----0-----
-----61---
-023---1--
12--3---1-
---------3
-0-----2--
-------03-

Generation = 9, Population = 34.
-----2-0--
0---0----3
-1--3--112
1--1-----0
-110-72---
---4-0----
2----1----
0---3--0--
0-0---13-1
-0----0-42

Generation = 10, Population = 50.
0-------10
---11----4
2-0-4112-3
-0-2-111-1
-2-1--31-1
00-5------
32-3-220--
-000---123
10-000--32
-----0105-

Generation = 11, Population = 37.
-0-02--02-
---2--00--
-1---22---
-1030--2--
----1----2
-1--00---1
-31--3---1
01-1----3-
2-0----34-
00-0------

Generation = 12, Population = 40.
0---32--30
--03------
22---3-2--
1-------01
--1----103
02-5--0-0-
-42--42--2
----31--4-
---0--14-2
-10-1--05-

Generation = 13, Population = 45.
-01-431041
--14---014
-3-14----3
2-0--1-2--
-------2--
1---0-1111
--3----01-
-10-4-1--3
-0--0-2---
0210-0--6-

Generation = 14, Population = 48.
01-05--15-
-1--10--25
----5----4
-1-----301
--1-17---3
-225--2-22
3-43--2--2
0---5-2---
--0-103442
13-11--0-2

Generation = 15, Population = 50.
1--1--12--
-21-210---
---16--21-
2----114-2
-22128-20-
-3----3-33
44---4-0-3
11--61--4-
---02-45--
2412---163

Generation = 16, Population = 32.
-------35-
-32----02-
23-2-32-2-
--0-0--5--
---------3
---500----
-54--52--4
--0----1--
-----05-42
3--------4

Generation = 17, Population = 42.
-11---1--1
--3--1--35
3---643-34
2--3-----2
--21-8-20-
-3-6------
46----3-1-
--11--2---
2-0-21655-
-4---01--5

Generation = 18, Population = 49.
12-1---3-2
0-44-200-6
430-754--5
31-4--1503
0-32---31-
-4270031--
5----54--4
---2------
-01032--6-
----------

Generation = 19, Population = 52.
-31253-4-3
----2-1---
54--8652--
4--5---61-
1--3-834--
1538-14--3
--4-----1-
11-3--2-43
21-1-365-2
-41210--6-

Generation = 20, Population = 41.
14--641---
0-4---20-6
-50---6---
--06--1723
------4--3
--4-------
-653-5-024
--146-31--
-21-3-76-3
---3------

Generation = 21, Population = 45.
-5-27----3
1-542-31--
-61--6-23-
---7012---
---3-85--4
--5--1413-
57--3-4--5
-125-1-2--
23--4-----
-4----11-5

*** Life<FredkinCell> 10x10 ***

Generation = 0, Population = 17.
0---------
0-0----00-
----------
-0---0----
----0-----
---0----0-
0-----0--0
-0------0-
--------0-
--------0-

Generation = 1, Population = 40.
100----00-
1--0--0110
000--0-00-
0-0---0---
-0------0-
0-0---00--
---0-0-00-
--0---001-
-0-----0-0
-------010

Generation = 2, Population = 26.
--1-------
-00-0-1--1
1---0-----
1-10------
0-0------0
-0----1-0-
0-0----1-0
------1---
0--------1
-0----0---

Generation = 3, Population = 36.
--200-0--0
-1--1--11-
2---100--0
---1-----0
101---0---
0-0--0-0-0
-0-0--0-0-
--0--0----
--------0-
--0--0-0-0

Generation = 4, Population = 23.
--3-------
------1221
------1--1
-0---0--01
----------
1-1-0---0-
----00-1--
----0-----
----------
-0-00---1-

Generation = 5, Population = 41.
-0-0--0000
--0--0----
-0----2-0-
1-1-0--01-
101-00---0
----1----0
0-0011----
---01--0--
-0-0----0-
0--110-0-0

Generation = 6, Population = 44.
1-3-0-1--1
-1--1-12-1
--0-1--011
2-2-1--1--
----1100-1
-0---0--01
--11-201-0
00-1--1---
----00-0--
--0--1--1-

Generation = 7, Population = 51.
-0--1-2-02
--00----2-
2-1--0-1--
--3-------
1010-2--02
1--0--1012
002---1201
1102-020-0
000-1-0---
-0-1-20--0

Generation = 8, Population = 36.
1--------3
1--1-01-3-
----1-----
-------111
--2-------
-0111--1-3
11-1--2-12
2--311--11
----------
-10-13-01-

Generation = 9, Population = 51.
20-0-02---
210-112---
2-----21-1
--3-1-02-2
--3-1---0-
--2220--14
--2-1--2-3
3-0--2-0--
0000---0-1
021-24-120

Generation = 10, Population = 51.
--3-1--0--
3211223--1
3-----3--2
204-2---13
-0-0--0-12
-03--11---
11-1222314
41------1-
11-1--0-02
-3-135----

Generation = 11, Population = 45.
2-402---03
--2-3---32
-0-0--41--
-151-0-2-4
------1---
-142--2---
-222-33-25
520-12---1
-2-2-----3
-4---6--20

Generation = 12, Population = 35.
-----0-0--
3-3-423---
31-1--5---
2------3--
------2--2
1-5-2--114
-3--2---3-
6---2-----
--0-------
05113-013-

Generation = 13, Population = 48.
2-4--12-0-
42-153----
421---6---
3--1--0-14
--3-12-0-3
-1--31-22-
1--2-3--4-
--0332--1-
--1---000-
1-2-4-1-40

Generation = 14, Population = 42.
30----3--3
5--2--3-3-
53211-7112
4-5---132-
1--0--21-4
-----2----
---3--3--5
62-4-----1
12------1-
--3---21-1

Generation = 15, Population = 55.
-140-140--
-2-3-3-242
6-322-82-3
-161202--4
20--1---1-
1---3-22--
13242--346
---53-2--2
---2--0--3
1--1-6324-

Generation = 16, Population = 33.
3--------3
-3--54-3--
--------1-
4-72-----5
----------
-15---3-24
---5333---
62-6--3---
1-1------4
-532-74-5-

Generation = 17, Population = 50.
----21-00-
--3365---2
633220----
--832-----
20-0--2-1-
126-3-4-35
1-----4346
-307--40-2
2-22-0----
-643-85---

*** Life<FredkinCell> 10x10 ***

Generation = 0, Population = 31.
-----0----
0--0--0---
00-----0--
-000---0--
0---0-00--
-----0----
---0-0000-
--0--0-00-
--0----0--
0--0--00--

Generation = 1, Population = 39.
0--00-----
1-0-0-----
-------10-
0--1----0-
--0--01-0-
0--0-10-0-
-----1-1-0
-01-0101-0
001--0----
-0--001-0-

Generation = 2, Population = 51.
10-1-0----
2--010-00-
--000-02-0
-0--000--0
-0-00----0
-0---2-01-
0000---201
----1----1
1--00-0000
-1-0112--0

Generation = 3, Population = 49.
-1-201000-
3--12-0-1-
0-111---01
01-11---0-
0--1-010-1
---------0
11-1-10-1-
-010210-0-
--1-10---1
----2----1

Generation = 4, Population = 53.
----1-1--0
4--23010--
-02-200212
1202--0-10
1-0201-102
-0-----0-1
2-020---2-
--213---1-
--202----2
--003---02

*** Life<FredkinCell> 10x10 ***

Generation = 0, Population = 8.
----------
0-00------
-------0--
----------
0---------
-0--------
----------
-------0--
------0---
----------

Generation = 1, Population = 20.
0-00------
--110--0--
0-00--0-0-
0------0--
----------
--0-------
-0-----0--
--------0-
-----0----
------0---

Generation = 2, Population = 25.
-------0--
-02-10----
1----0---0
1000------
0-0----0--
---0---0--
0-----0---
-0---0---0
----0---0-
-------0--

Generation = 3, Population = 42.
-00-000-0-
-13-2-00-0
20-0-10-0-
2-1100-0-0
1010--010-
----0--10-
---0-----0
--0-------
-0-0------
----0-0---

Generation = 4, Population = 26.
0------0--
-2-13-11--
---1-----0
-------1--
--2-0-1---
0000-0----
-------0--
---0-----0
0-0---0---
-0-----0--

Generation = 5, Population = 43.
---00--10-
----4-2-00
-002--0-0-
--110---00
1-30-0----
1-110--1--
000--00-00
0---0-000-
-0---0---0
--------0-

Generation = 6, Population = 53.
--01-0-2--
-2315-3111
211-011--0
2-2-1-01-1
2-41--1100
-02210---0
1---01---1
1000-----0
--0----00-
-0---0-0--

Generation = 7, Population = 49.
----0-03-0
---2---2--
-2221-20--
-0-1201-0-
305-0--2-1
11332--1--
20-0--0-0-
--11-0-0-1
001--00-1-
0---0--1--

Generation = 8, Population = 23.
------1---
-2-35-3-11
2----1----
----------
-------30-
2-44-0-2-0
----------
-0---1----
------1---
1-00------

Generation = 9, Population = 49.
-0-1002300
---4604-22
---2----00
2----0-10-
3-51-01-1-
--55---30-
2000---0-1
1-1-0-----
0010---0--
--110-0---

Generation = 10, Population = 43.
0---113-1-
-23571-233
2-23--2-1-
302-21121-
4-----2--1
--6620----
------010-
-----1---1
----0---1-
1--21-----

Generation = 11, Population = 48.
--0--2432-
03468--3-4
3-3-113---
4--13-----
5--1-03---
217--10300
--00011-1-
-------00-
0---1--0--
-013-0--0-

Generation = 12, Population = 40.
0-1--3-43-
-----1443-
-24-2-4--0
-0---1----
---20---11
---6-2--11
2----2----
1-11-1---1
--1---111-
-1-41-0--0

Generation = 13, Population = 50.
---1144--0
03----55--
3-5---5---
41-13---1-
-05-10-3--
2-772303--
300-0-1-1-
2--2-2-0--
0-201---20
1-152-1---

Generation = 14, Population = 44.
0012----3-
-4-68-6634
----216-1-
---2--1--1
5---2-34--
3-8--41---
4---1-2--1
--13--0-01
------1-31
2--6---100

Generation = 15, Population = 53.
11----4-4-
-54--1---5
-2-3--7020
4-2-3-----
605--04511
---7252--1
50---2-1-2
2024-2---2
0-2--02142
-11-2--21-

Generation = 16, Population = 26.
2---------
-65-8-6636
-3----8---
5-32------
----2-5---
---8---3--
------2---
3135------
1------25-
-2--------

Generation = 17, Population = 45.
--1-1-4440
--6------7
-453219-20
-143------
6-52------
--8---2-1-
500--2----
---60-000-
2020--2362
--1----21-

Generation = 18, Population = 34.
-12---5---
-----1-63-
3--4--+-3-
---4-11-11
-06-2-5-1-
---------1
6-----21--
--3-12-1--
3-3--0---3
2-2-------

Generation = 19, Population = 64.
2232----4-
06668--7-7
-45521+0--
51-5322-22
6172-06-21
318-2--3--
-00-1-3-12
-14-2-0202
4--0-1236-
3-36-0---0

Generation = 20, Population = 41.
-34-------
-------83-
356--2+---
-2-64-32--
7-8----5--
--983-2-1-
-11---4---
---63213--
5-311-34-3
4-4--1-2--

Generation = 21, Population = 53.
2452---44-
0----1-947
467--3-03-
53-752--2-
-192--66--
3-+-4-33-1
62-0----1-
314-4---02
6--2---5--
5-5---1310

Generation = 22, Population = 43.
---3145---
-6-682-+-8
578-----4-
-4-----232
7-+-2----1
4-+-----1-
7---1-4-22
425--2---3
--3----66-
6----124-1

Generation = 23, Population = 53.
-45-256--0
-76-9-6-4-
6-9-23-050
554-5-334-
81+--0-622
--+8--3321
---0-2----
---6---304
--42----73
-25-22--1-

Generation = 24, Population = 42.
2------4--
--7---7+58
7---34---1
665-6-4-52
-2+----7--
4---45443-
----------
----42141-
-----1--8-
63-633242-

*** Life<FredkinCell> 10x10 ***

Generation = 0, Population = 19.
0-0---0-0-
-00-------
----0----0
--------0-
0--------0
0---------
-0-0-----0
----0-----
0-0-------
---0------

Generation = 1, Population = 32.
-010-0---0
-1-00-0-00
-000-0----
0---0--0-0
10--------
1--0------
--------0-
000--0---0
----0-----
0---0-----

Generation = 2, Population = 42.
0---0----1
0--11---1-
-------00-
100---0---
21000--0-0
2-0-0---0-
-000-0-0--
1-10--0---
-0001----0
-0-010----

Generation = 3, Population = 46.
10--10----
1102-0--2-
-0000--1-0
-1--00-000
32---0--0-
3---1--0--
01--0-0---
--21-----0
--1---0-0-
010-210--0

Generation = 4, Population = 35.
----2-0-0-
--1--10---
-111-002-1
--------1-
--0-01001-
-0-02-----
-2--1----0
1--2------
0---1-1--0
1---3--0--

Generation = 5, Population = 52.
--10-01--1
--2---1-20
0222--130-
-1-00--02-
---0-----0
31013-0000
-30020--0-
2-2-0-0---
-0--2---0-
21-041--00

Generation = 6, Population = 51.
-0-1-1-0-2
1--2---0--
133--0-41-
-20110----
3---0-0-11
421--01-1-
0--1-10-1-
--32-0-0--
01----101-
3--15200-1

Generation = 7, Population = 46.
---2---1--
21-31-1--0
-4-2-1--21
1-1-2--0-0
42--1-1--2
5-2---2---
1-02-2-020
--4--1-10-
-2--20--2-
4-02--1-0-

Generation = 8, Population = 52.
1013----02
3--421---1
1533----32
2--13---2-
53002-2-13
-23-3-3-1-
2-13-30-31
2-5-----1-
--1-3----0
-113----11

Generation = 9, Population = 59.
-----1-11-
-125-21-2-
2--401-4--
-212-000-0
-4113-3-24
5-4-40---0
332424--42
3---010120
0--0-0--21
4224---02-

Generation = 10, Population = 49.
-0132212-2
-2--232-31
-535-2-5-2
--23--1-21
---2--4035
6---5---1-
4-3--5---3
--52-----1
---131-03-
----5211--

Generation = 11, Population = 41.
1---332313
3-25----42
2-4-03----
---43-2--2
5--3-1----
724---3-20
5-4---0--4
30-----1-2
----4-1-4-
-----3----

*** Life<FredkinCell> 10x10 ***

Generation = 0, Population = 32.
--00-0-0-0
0----00-00
--0------0
0-0-0-----
0---------
-------0-0
-00-00--0-
-----00---
0---00--0-
------00-0

Generation = 1, Population = 59.
0011-10-01
-0-00-1011
-010000--1
1-1--0---0
100-0--0-0
000-000-0-
011-1-----
000-0110--
-0-01-0---
0---0-110-

Generation = 2, Population = 51.
11--02-0--
---1--2-22
--2111----
2---01-00-
211-10--01
1-1-1-10--
1-2--0-00-
---01-210-
010120-00-
----1---10

Generation = 3, Population = 55.
221-130--1
00-200-033
00322--0-1
3---12-1--
3---2--0-2
-0--2-2-00
2-3-1--1-0
-00---3-10
1--2-10-1-
000-2----1

Generation = 4, Population = 50.
-321-41--2
11----2--4
11-3310-02
--1-23--0-
4--0---103
1--0----11
--4-200---
01--1-41--
210-22--20
--10--1---

Generation = 5, Population = 43.
---2-5-003
-2--00-0--
--3442----
---------0
51-1-002--
20-1-02---
---0----00
--00---2-0
-2-2-30-31
0--1---111

Generation = 6, Population = 49.
-32-16---4
1--2-1-1-4
--4-5-00-2
301-2-010-
---2--1303
--------11
21--200-1-
--1111----
--0--41--2
--1220-22-

Generation = 7, Population = 54.
-4322-1005
--0--222--
--5462-103
4--03-1--0
51---0-4--
20-120--2-
32---11-2-
0---224-10
-2-2252---
-0----133-

Generation = 8, Population = 53.
254-36-1-6
---20-333-
11-57-----
5------1-1
6-1-211--3
31-2-1--31
4-4022----
11----5--1
-3-3363--2
01122---41

Generation = 9, Population = 49.
3-52-7120-
----12444-
-2---20-03
--10-3---2
-1-2322---
42-3---04-
--51----2-
-----26212
2-0-4--0--
12-3--135-

Generation = 10, Population = 58.
--633-23-6
120-2--55-
1--5-3-1--
-02-3-1--3
-213-33-03
5-1--1-1-1
4-6-2211--
1--1-3-323
33-3--3-32
-31--02461

Generation = 11, Population = 44.
3-----3-0-
----3--66-
225---02-3
------2--4
---43--414
62-----242
--713--2--
---224--3-
--04464-43
--2-213-7-

Generation = 12, Population = 58.
-5--37-316
-202-24---
3-6573--04
50203331--
621543--25
73----235-
4-82--1320
--13----4-
-3-5----54
-333-2--8-

Generation = 13, Population = 55.
36--4-34-7
--1--35---
4-7-840-15
61-----20-
7-265-34-6
8-1-2--462
52--32-4-1
1--42-6--3
34--46-065
1-----349-

Generation = 14, Population = 54.
47-3-7-5--
--223-6-6-
528-95-2-6
7220-33--4
-2----45-7
-323---5-3
63--43152-
-1153--3--
450--7--7-
2---2-45--

Generation = 15, Population = 45.
58644-3---
-2-3------
-39-----17
--313--20-
--2-------
-4-4-12-64
7482----3-
122--4-44-
-6--4--0-5
3-33-256--

Generation = 16, Population = 45.
69-55--5--
---4--6-64
5--59----8
--4-4333--
--365345-7
-5-5-23--5
--9-4-1---
----------
470--7--7-
-34423--91

Generation = 17, Population = 50.
7+--67---7
-22-33-67-
-3-----2-9
725-544-0-
---76----8
8--6--4-66
---2-325-1
12--346-4-
58---8408-
--5---56-2

Generation = 18, Population = 40.
8--5--35--
-33-----84
--9----3--
8361--53-4
-2------29
-52---5577
-4934--6-2
--2-4-7-5-
-------1--
3--4----9-

Generation = 19, Population = 51.
----6746-7
-4----6695
53-----4--
9472546-05
--37---5-+
86--226688
7----327-3
--355-----
5-054---8-
-35-2----2

*** Life<FredkinCell> 10x10 ***

Generation = 0, Population = 26.
0----00--0
--0-----0-
-----0--0-
-----0--00
-----0----
-----0--0-
------00--
-0-0--0---
--0----0--
-0--00-0-0

Generation = 1, Population = 47.
-00-0110--
00-0--001-
--0-0100--
----0-00-1
----0-0--0
----01---0
-0-0---1--
0-0-0010--
-0--00-100
0--011-1--

Generation = 2, Population = 48.
--101-2---
1---001-20
0--0---1-0
--00-01--2
---0-01-0-
-0---2-001
--0-0--200
---0-1-1-0
0---1102-1
--012--2-0

Generation = 3, Population = 54.
002--13000
2000---03-
10-1--0-0-
0011-----3
-0-1-1-010
0--0-30---
---0-00311
0----21-0-
-000-2-3--
001----3-1

Generation = 4, Population = 55.
-1--12-111
3-1-001-4-
21--01-11-
---2001004
010--211--
--0--4-0--
--01-1--22
--0-03--1-
0-11-304-1
11---104--

Generation = 5, Population = 52.
---0--3222
4---1-2---
-2--12--2-
---31-2-15
1----322-0
0---0-01-1
-0120-0--3
00--14--20
10-2141-0-
-2-12-1-01

Generation = 6, Population = 47.
0-2--2---3
----203--0
--0-23013-
0014--30--
21-104--1-
1-0-141---
0---111---
-1-02-11--
-1---5---1
-3---12--2

Generation = 7, Population = 53.
---0-3--24
4--0-----1
2-11-4-24-
-12-10--1-
3---1-2--0
-0-02--10-
1-1-222---
-2-1---220
1-12-61402
141-2-3403

Generation = 8, Population = 48.
0-21--323-
50--2--042
32--25-3--
02-4----2-
-10--4--1-
1-013-121-
------33-3
0--2--1-3-
2---172--3
---1-1-51-

Generation = 9, Population = 52.
1132-343--
6---3--153
431--6-440
-32-----35
3--1-----0
-0--44-3--
--1-224---
120----2-0
31-228--0-
1-1-22362-

Generation = 10, Population = 40.
---314---4
-0---0-26-
-4-1-----1
0----0---6
-1---4-2-1
------1-11
102--353-3
-3------3-
4--33--41-
24-1-3---3

Generation = 11, Population = 62.
-134--43--
611--1-373
-5--2--4-2
-3-411303-
--0-152-1-
1-0--42-22
21322464-4
14-224124-
511-4-25--
-5-22-36--

*** Life<FredkinCell> 10x10 ***

Generation = 0, Population = 33.
0--0-0---0
------0-00
---0--0--0
00------00
-0----00-0
--------0-
-00---0-0-
--0-----00
--0-0-----
00---000--

Generation = 1, Population = 48.
-00------1
0-----1-11
000-00100-
1-00----11
-10--011-1
--0-----1-
01-0-0----
---00-00-1
0-1---0000
11---1-10-

Generation = 2, Population = 50.
-110--0--2
10--0-20--
1--01-2-10
2-11---0--
-21-01-2-2
001---0---
12010--000
-0--10--02
10--0---1-
-2--0-0---

Generation = 3, Population = 47.
---1-01-0-
---01-31--
------3-21
30--00-1--
0-201213--
--2----01-
--1----11-
0---210-1-
2110--002-
-3001--10-

Generation = 4, Population = 55.
--1201-0-2
--0-204211
10-0--4-32
-1-----2-1
12--23-4--
00--00-1-0
122100--20
1---3----2
-22-0--130
--1121---0

Generation = 5, Population = 55.
-1--1-1103
1-1--15322
2-0---5--3
3-1100-312
-320----0-
11--11-211
23----0-31
20-----01-
-3-0--02-1
----3201-1

Generation = 6, Population = 53.
---2-1-21-
2020-2-433
----10603-
4122-1042-
1-3-2--4-2
-2--2203--
342-0---4-
-100--0--2
-4-----332
-3--4-1--2

Generation = 7, Population = 49.
01-3-2----
3---2-55-4
---02-7-4-
--33--1---
2-40331-0-
13203----1
4--11-----
-211-1--13
2--00-04-3
1411-----3

Generation = 8, Population = 47.
-2--1--2-3
4--032-63-
2------0--
41-40--4--
335-4-----
2-3-4-0---
5422----4-
23-2----2-
342110153-
------1104

Generation = 9, Population = 56.
--1-2-131-
5-2143-74-
-----07---
5-35-1152-
44-0-314--
---05--31-
653---0151
34---10--3
-5-2--264-
14114--215

Generation = 10, Population = 54.
02233224-3
----5----4
-----1-0--
614--2-632
-55-4-250-
----6-04--
-64-1--26-
-5-2321024
3-23---7-3
25-252--26

Generation = 11, Population = 48.
1---4--5-4
502-635-45
200--2-1--
72-5-31743
----53----
---0---51-
6-52--03--
-6--4---3-
4-341--8--
-61--31-3-

Generation = 12, Population = 48.
2-235---15
61---46-5-
3------24-
--4-04-8-4
45-06----2
2--1-2--21
-66--01-6-
3-125210-4
--------4-
-7---422-6

Generation = 13, Population = 55.
323-6-25-6
72-1-577--
4-0-2-----
---5-5-945
-65--3-5--
33-263-5--
67-2-1-371
-6---321--
45341--8-3
2-1-55-33-

Generation = 14, Population = 46.
-343-2----
8----68-55
50---27-43
724-06---6
--60-----2
-43--4---1
-8-31-14-2
3------2--
-64--0--4-
3722-6--4-

Generation = 15, Population = 55.
-4-4-3--16
922167----
6----3---4
-3-51-----
4671----0-
3--2---52-
-964212--3
-61253-3-4
4---112-53
4833-72356

Generation = 16, Population = 54.
-545642527
-3-2-88-5-
700-247-4-
744-2---46
-7-2----12
443--4-6--
--7-3234-4
--23-4--3-
56-4-----4
---45-3-6-

Generation = 17, Population = 42.
3--6-53-38
---3-997--
---0-5----
---53-195-
4----3----
55---507--
6--44---7-
3---55---4
674--12-5-
483-6-----

Generation = 18, Population = 47.
-547---549
9-2--++8-5
--0-267-4-
7-4-4-2-66
5--2-42-1-
6632---8--
--75-23---
--2-----3-
78-41-3---
-9----3-6-

Generation = 19, Population = 55.
-65865----
-3----+--6
-0---78254
8-555---77
--7365-52-
--436-0---
6-8--34-7-
3-3355-3-4
8-452-48--
-+34674--6

Generation = 20, Population = 51.
3----6---9
9--36++--7
-1-0-89-65
-4-6-6298-
578--626--
6654--1---
7--54--4--
--446--43-
985-3---5-
-+457---6-

Generation = 21, Population = 45.
46-8-7--4+
+-2----8--
-2--29+2--
--57-7-+--
---36-----
776---28--
8-86-3-5--
---5752--4
+96--1---4
--5--7-376

*** Life<FredkinCell> 10x10 ***

Generation = 0, Population = 8.
----------
----0-----
----------
----------
----------
-0--------
-------0--
--0--0--0-
----------
-0----0---

Generation = 1, Population = 26.
----0-----
---0-0----
----0-----
----------
-0--------
0-0----0--
-00--00---
-0-00-0--0
-00--00-0-
0-0--0-0--

Generation = 2, Population = 22.
----------
--0---0---
----------
-0--0-----
-------0--
--10-0--0-
-----1---0
0--11--0--
-------0--
-010010---

Generation = 3, Population = 48.
--0---0---
-0-0-0-0--
-00-0-0---
0-00-0-0--
-000000---
-021-10---
0-0--200--
-0022-0100
000--0-10-
01----1---

Generation = 4, Population = 18.
----------
01--0---0-
-------0--
--1--1--0-
----------
----021---
---0-----0
0---3---11
----------
--------0-
