21

10 10
19
1 9
8 5
7 4
3 7
5 5
4 1
5 2
3 2
0 0
3 8
2 1
7 7
2 4
3 4
3 0
5 6
1 8
0 1
3 1
29 1

10 10
36
1 5
5 3
0 8
0 5
8 6
5 8
2 2
7 2
9 5
6 5
3 7
6 4
5 5
8 1
0 0
2 4
0 9
2 9
0 4
7 7
4 2
9 3
8 2
4 7
0 0
7 9
3 9
7 1
3 9
1 5
6 6
9 4
6 3
2 6
0 7
7 6
14 1

10 10
31
2 4
8 4
7 2
5 3
5 9
1 9
0 4
1 0
6 6
8 5
6 5
5 6
1 3
2 0
8 4
1 6
7 1
6 8
9 6
8 6
9 5
5 5
8 8
7 8
6 7
6 3
8 9
8 0
0 3
3 9
3 4
19 1

10 10
30
9 7
9 4
7 8
4 4
8 6
7 8
1 6
4 0
0 4
8 4
5 0
2 8
7 1
8 2
5 0
0 5
1 2
3 0
9 9
5 0
4 0
8 8
0 1
6 1
1 6
6 2
9 1
7 6
8 8
9 6
6 1

10 10
13
9 0
2 3
1 1
3 2
6 2
8 7
1 9
8 6
2 1
7 5
8 8
0 0
0 5
26 1

10 10
35
6 8
6 7
1 7
0 8
5 3
6 8
5 8
5 4
2 1
2 7
0 6
3 1
8 4
9 9
6 9
6 9
1 3
8 9
9 5
4 8
1 1
4 0
5 2
5 3
6 6
8 2
5 5
3 0
9 3
1 5
8 5
9 3
7 4
8 7
1 4
28 1

10 10
13
4 4
9 3
1 1
3 9
9 3
9 9
6 8
9 6
4 3
7 1
1 4
1 9
9 3
23 1

10 10
25
6 5
2 6
6 8
9 0
2 4
9 5
5 5
4 5
7 1
6 6
2 8
2 0
4 5
0 1
4 6
5 0
7 0
8 7
3 4
0 2
3 5
2 7
8 9
0 1
1 0
22 1

10 10
1
6 0
21 1

10 10
23
3 5
0 3
9 1
2 1
3 1
2 6
2 6
0 8
1 0
8 3
3 8
9 8
4 9
3 7
7 6
8 9
1 3
6 1
3 6
4 2
9 1
5 7
0 0
16 1

10 10
33
7 7
7 9
7 7
8 3
8 2
7 0
4 5
0 9
9 0
9 1
2 4
6 1
9 0
4 5
4 3
3 2
2 7
2 4
5 4
7 4
6 2
9 9
3 5
8 9
2 8
1 6
3 7
9 3
0 8
6 5
8 7
1 1
0 7
5 1

10 10
36
0 1
1 2
7 4
8 1
2 9
0 4
4 3
0 4
4 2
3 0
5 3
6 6
6 4
9 9
2 7
0 6
6 5
6 9
2 8
9 4
3 8
4 3
7 6
5 1
9 2
0 0
5 7
2 3
3 1
7 6
6 3
0 9
4 8
9 3
3 9
4 1
7 1

10 10
11
5 9
6 8
0 1
9 4
1 2
4 3
2 6
8 5
2 3
8 9
1 7
21 1

10 10
18
6 6
1 8
0 0
1 2
5 8
3 5
6 0
6 9
6 9
8 8
4 4
5 3
7 8
3 1
9 8
1 7
7 1
1 0
17 1

10 10
36
3 3
2 1
7 2
1 6
9 3
9 0
6 6
7 8
6 3
7 8
1 0
1 0
4 7
4 4
8 2
2 0
9 6
8 7
5 5
3 1
7 7
6 8
9 7
0 5
4 0
3 2
2 7
3 7
0 5
8 2
6 5
8 7
7 5
1 3
6 7
4 6
4 1

10 10
10
1 3
2 7
1 0
4 0
1 0
4 0
7 7
1 2
8 6
5 1
24 1

10 10
22
2 9
6 3
2 4
4 0
4 9
8 0
3 8
8 0
7 4
1 2
2 4
6 1
8 2
6 9
0 6
3 8
0 2
9 3
0 8
5 0
0 0
1 1
11 1

10 10
35
9 7
6 5
1 8
6 1
0 7
2 9
8 5
1 9
1 5
3 0
3 2
0 9
8 8
1 5
7 6
5 7
6 8
2 2
0 5
9 9
8 0
3 4
1 0
6 2
8 4
1 6
0 3
9 6
7 5
1 8
0 3
4 0
5 9
6 4
0 2
19 1

10 10
31
1 2
9 7
8 2
9 5
5 8
7 3
9 9
5 5
9 7
9 9
8 7
0 0
0 6
9 1
1 8
4 5
0 9
6 7
7 6
6 6
2 5
0 0
3 8
0 9
9 4
3 5
1 2
3 9
0 5
7 1
2 8
11 1

10 10
39
8 4
6 1
6 2
7 8
3 8
9 6
7 9
5 8
2 6
9 7
3 1
1 6
7 2
0 0
4 7
1 8
3 0
2 3
9 1
8 2
6 8
0 3
9 0
2 9
4 9
2 9
9 5
0 9
2 9
4 6
0 5
6 8
1 9
9 1
3 9
2 3
9 5
6 6
4 1
21 1

10 10
9
9 6
7 8
5 1
1 4
7 2
7 5
6 7
9 1
7 8
4 1
