*** Life<ConwayCell> 10x10 ***

Generation = 0, Population = 13.
.........*
....*.....
*.........
....*...*.
....*...*.
..........
....*.*..*
*.........
*.........
...*......

Generation = 1, Population = 1.
..........
..........
..........
..........
..........
.....*....
..........
..........
..........
..........

Generation = 2, Population = 0.
..........
..........
..........
..........
..........
..........
..........
..........
..........
..........

Generation = 3, Population = 0.
..........
..........
..........
..........
..........
..........
..........
..........
..........
..........

Generation = 4, Population = 0.
..........
..........
..........
..........
..........
..........
..........
..........
..........
..........

Generation = 5, Population = 0.
..........
..........
..........
..........
..........
..........
..........
..........
..........
..........

Generation = 6, Population = 0.
..........
..........
..........
..........
..........
..........
..........
..........
..........
..........

Generation = 7, Population = 0.
..........
..........
..........
..........
..........
..........
..........
..........
..........
..........

Generation = 8, Population = 0.
..........
..........
..........
..........
..........
..........
..........
..........
..........
..........

Generation = 9, Population = 0.
..........
..........
..........
..........
..........
..........
..........
..........
..........
..........

Generation = 10, Population = 0.
..........
..........
..........
..........
..........
..........
..........
..........
..........
..........

*** Life<ConwayCell> 10x10 ***

Generation = 0, Population = 14.
.......*..
.....*.*.*
.*........
..........
.**.......
..........
.**......*
.*........
.........*
......*..*

Generation = 1, Population = 10.
......*.*.
......*.*.
..........
.**.......
..........
..........
.**.......
.**.......
..........
..........

Generation = 2, Population = 4.
..........
..........
..........
..........
..........
..........
.**.......
.**.......
..........
..........

Generation = 3, Population = 4.
..........
..........
..........
..........
..........
..........
.**.......
.**.......
..........
..........

Generation = 4, Population = 4.
..........
..........
..........
..........
..........
..........
.**.......
.**.......
..........
..........

Generation = 5, Population = 4.
..........
..........
..........
..........
..........
..........
.**.......
.**.......
..........
..........

Generation = 6, Population = 4.
..........
..........
..........
..........
..........
..........
.**.......
.**.......
..........
..........

Generation = 7, Population = 4.
..........
..........
..........
..........
..........
..........
.**.......
.**.......
..........
..........

Generation = 8, Population = 4.
..........
..........
..........
..........
..........
..........
.**.......
.**.......
..........
..........

Generation = 9, Population = 4.
..........
..........
..........
..........
..........
..........
.**.......
.**.......
..........
..........

Generation = 10, Population = 4.
..........
..........
..........
..........
..........
..........
.**.......
.**.......
..........
..........

*** Life<ConwayCell> 10x10 ***

Generation = 0, Population = 13.
..........
...*......
..........
..........
...*.*..*.
.*.**....*
*.....*...
......*...
..........
......**..

Generation = 1, Population = 9.
..........
..........
..........
..........
..**......
..****....
.....*....
..........
......**..
..........

Generation = 2, Population = 6.
..........
..........
..........
..........
..*.......
..*..*....
...*.*....
......*...
..........
..........

Generation = 3, Population = 6.
..........
..........
..........
..........
..........
..***.....
....***...
..........
..........
..........

Generation = 4, Population = 6.
..........
..........
..........
..........
...*......
...**.....
....**....
.....*....
..........
..........

Generation = 5, Population = 8.
..........
..........
..........
..........
...**.....
...*.*....
...*.*....
....**....
..........
..........

Generation = 6, Population = 10.
..........
..........
..........
..........
...**.....
..**.*....
...*.**...
....**....
..........
..........

Generation = 7, Population = 12.
..........
..........
..........
..........
..***.....
..*..**...
..**..*...
....***...
..........
..........

Generation = 8, Population = 16.
..........
..........
..........
...*......
..****....
.*...**...
..**...*..
...****...
.....*....
..........

Generation = 9, Population = 18.
..........
..........
..........
..**......
..**.**...
.*...**...
..**...*..
..**.**...
.....**...
..........

Generation = 10, Population = 20.
..........
..........
..........
..***.....
.*.*.**...
.*...*.*..
.*.*...*..
..**.*.*..
....***...
..........

*** Life<ConwayCell> 10x10 ***

Generation = 0, Population = 7.
..........
..........
..**.*....
..........
..........
......*...
..........
......*...
......*...
...*......

Generation = 1, Population = 0.
..........
..........
..........
..........
..........
..........
..........
..........
..........
..........

Generation = 2, Population = 0.
..........
..........
..........
..........
..........
..........
..........
..........
..........
..........

Generation = 3, Population = 0.
..........
..........
..........
..........
..........
..........
..........
..........
..........
..........

Generation = 4, Population = 0.
..........
..........
..........
..........
..........
..........
..........
..........
..........
..........

Generation = 5, Population = 0.
..........
..........
..........
..........
..........
..........
..........
..........
..........
..........

Generation = 6, Population = 0.
..........
..........
..........
..........
..........
..........
..........
..........
..........
..........

Generation = 7, Population = 0.
..........
..........
..........
..........
..........
..........
..........
..........
..........
..........

Generation = 8, Population = 0.
..........
..........
..........
..........
..........
..........
..........
..........
..........
..........

Generation = 9, Population = 0.
..........
..........
..........
..........
..........
..........
..........
..........
..........
..........

Generation = 10, Population = 0.
..........
..........
..........
..........
..........
..........
..........
..........
..........
..........

*** Life<ConwayCell> 10x10 ***

Generation = 0, Population = 13.
...*..*...
.........*
........*.
.......*..
.....*.*..
.........*
.......*..
**........
....*.*...
..........

Generation = 1, Population = 8.
..........
..........
........*.
......***.
......*.*.
......*.*.
..........
..........
..........
..........

Generation = 2, Population = 8.
..........
..........
........*.
......*.**
.....**.**
..........
..........
..........
..........
..........

Generation = 3, Population = 9.
..........
..........
.......***
.....**...
.....**.**
..........
..........
..........
..........
..........

Generation = 4, Population = 8.
..........
........*.
......***.
.....*....
.....***..
..........
..........
..........
..........
..........

Generation = 5, Population = 9.
..........
........*.
......***.
.....*..*.
.....**...
......*...
..........
..........
..........
..........

Generation = 6, Population = 11.
..........
........*.
......*.**
.....*..*.
.....***..
.....**...
..........
..........
..........
..........

Generation = 7, Population = 12.
..........
.......***
........**
.....*..**
....*..*..
.....*.*..
..........
..........
..........
..........

Generation = 8, Population = 9.
........*.
.......*.*
..........
.......*.*
....**.*..
......*...
..........
..........
..........
..........

Generation = 9, Population = 9.
........*.
........*.
..........
......*.*.
.....*.**.
.....**...
..........
..........
..........
..........

Generation = 10, Population = 8.
..........
..........
.......*..
......*.*.
.....*..*.
.....***..
..........
..........
..........
..........

*** Life<ConwayCell> 10x10 ***

Generation = 0, Population = 5.
..........
.......*..
.......*..
..........
*.........
..........
.........*
..*.......
..........
..........

Generation = 1, Population = 0.
..........
..........
..........
..........
..........
..........
..........
..........
..........
..........

Generation = 2, Population = 0.
..........
..........
..........
..........
..........
..........
..........
..........
..........
..........

Generation = 3, Population = 0.
..........
..........
..........
..........
..........
..........
..........
..........
..........
..........

Generation = 4, Population = 0.
..........
..........
..........
..........
..........
..........
..........
..........
..........
..........

Generation = 5, Population = 0.
..........
..........
..........
..........
..........
..........
..........
..........
..........
..........

Generation = 6, Population = 0.
..........
..........
..........
..........
..........
..........
..........
..........
..........
..........

Generation = 7, Population = 0.
..........
..........
..........
..........
..........
..........
..........
..........
..........
..........

Generation = 8, Population = 0.
..........
..........
..........
..........
..........
..........
..........
..........
..........
..........

Generation = 9, Population = 0.
..........
..........
..........
..........
..........
..........
..........
..........
..........
..........

Generation = 10, Population = 0.
..........
..........
..........
..........
..........
..........
..........
..........
..........
..........

*** Life<ConwayCell> 10x10 ***

Generation = 0, Population = 13.
*........*
.....*....
.....*...*
..........
..*...*...
........*.
*........*
.......*..
........*.
...*......

Generation = 1, Population = 2.
..........
..........
..........
..........
..........
..........
........*.
........*.
..........
..........

Generation = 2, Population = 0.
..........
..........
..........
..........
..........
..........
..........
..........
..........
..........

Generation = 3, Population = 0.
..........
..........
..........
..........
..........
..........
..........
..........
..........
..........

Generation = 4, Population = 0.
..........
..........
..........
..........
..........
..........
..........
..........
..........
..........

Generation = 5, Population = 0.
..........
..........
..........
..........
..........
..........
..........
..........
..........
..........

Generation = 6, Population = 0.
..........
..........
..........
..........
..........
..........
..........
..........
..........
..........

Generation = 7, Population = 0.
..........
..........
..........
..........
..........
..........
..........
..........
..........
..........

Generation = 8, Population = 0.
..........
..........
..........
..........
..........
..........
..........
..........
..........
..........

Generation = 9, Population = 0.
..........
..........
..........
..........
..........
..........
..........
..........
..........
..........

Generation = 10, Population = 0.
..........
..........
..........
..........
..........
..........
..........
..........
..........
..........

*** Life<ConwayCell> 10x10 ***

Generation = 0, Population = 11.
..*.....*.
.........*
..........
......***.
....*.....
..........
..........
..........
....*...*.
..*...*...

Generation = 1, Population = 4.
..........
..........
.......**.
.......*..
.......*..
..........
..........
..........
..........
..........

Generation = 2, Population = 4.
..........
..........
.......**.
......**..
..........
..........
..........
..........
..........
..........

Generation = 3, Population = 6.
..........
..........
......***.
......***.
..........
..........
..........
..........
..........
..........

Generation = 4, Population = 6.
..........
.......*..
......*.*.
......*.*.
.......*..
..........
..........
..........
..........
..........

Generation = 5, Population = 6.
..........
.......*..
......*.*.
......*.*.
.......*..
..........
..........
..........
..........
..........

Generation = 6, Population = 6.
..........
.......*..
......*.*.
......*.*.
.......*..
..........
..........
..........
..........
..........

Generation = 7, Population = 6.
..........
.......*..
......*.*.
......*.*.
.......*..
..........
..........
..........
..........
..........

Generation = 8, Population = 6.
..........
.......*..
......*.*.
......*.*.
.......*..
..........
..........
..........
..........
..........

Generation = 9, Population = 6.
..........
.......*..
......*.*.
......*.*.
.......*..
..........
..........
..........
..........
..........

Generation = 10, Population = 6.
..........
.......*..
......*.*.
......*.*.
.......*..
..........
..........
..........
..........
..........

*** Life<ConwayCell> 10x10 ***

Generation = 0, Population = 11.
..*.......
....****..
..........
........*.
..*.......
..........
.*....*...
*.........
........*.
..........

Generation = 1, Population = 7.
.....**...
.....**...
.....***..
..........
..........
..........
..........
..........
..........
..........

Generation = 2, Population = 6.
.....**...
....*.....
.....*.*..
......*...
..........
..........
..........
..........
..........
..........

Generation = 3, Population = 5.
.....*....
....*.....
.....**...
......*...
..........
..........
..........
..........
..........
..........

Generation = 4, Population = 6.
..........
....*.*...
.....**...
.....**...
..........
..........
..........
..........
..........
..........

Generation = 5, Population = 5.
..........
......*...
....*..*..
.....**...
..........
..........
..........
..........
..........
..........

Generation = 6, Population = 3.
..........
..........
.......*..
.....**...
..........
..........
..........
..........
..........
..........

Generation = 7, Population = 2.
..........
..........
......*...
......*...
..........
..........
..........
..........
..........
..........

Generation = 8, Population = 0.
..........
..........
..........
..........
..........
..........
..........
..........
..........
..........

Generation = 9, Population = 0.
..........
..........
..........
..........
..........
..........
..........
..........
..........
..........

Generation = 10, Population = 0.
..........
..........
..........
..........
..........
..........
..........
..........
..........
..........

*** Life<ConwayCell> 10x10 ***

Generation = 0, Population = 12.
....*...*.
*.....*...
.....*.*..
.*......*.
........*.
...*......
..........
..........
..........
..*..*....

Generation = 1, Population = 7.
..........
.....***..
......**..
.......**.
..........
..........
..........
..........
..........
..........

Generation = 2, Population = 7.
......*...
.....*.*..
.....*....
......***.
..........
..........
..........
..........
..........
..........

Generation = 3, Population = 7.
......*...
.....*....
.....*..*.
......**..
.......*..
..........
..........
..........
..........
..........

Generation = 4, Population = 9.
..........
.....**...
.....*.*..
......***.
......**..
..........
..........
..........
..........
..........

Generation = 5, Population = 8.
..........
.....**...
.....*..*.
.....*..*.
......*.*.
..........
..........
..........
..........
..........

Generation = 6, Population = 10.
..........
.....**...
....**.*..
.....**.**
.......*..
..........
..........
..........
..........
..........

Generation = 7, Population = 12.
..........
....***...
....*..**.
....**..*.
......***.
..........
..........
..........
..........
..........

Generation = 8, Population = 16.
.....*....
....****..
...*...**.
....**...*
.....****.
.......*..
..........
..........
..........
..........

Generation = 9, Population = 18.
....**....
....**.**.
...*...**.
....**...*
....**.**.
.......**.
..........
..........
..........
..........

Generation = 10, Population = 20.
....***...
...*.*.**.
...*...*.*
...*.*...*
....**.*.*
......***.
..........
..........
..........
..........

*** Life<ConwayCell> 10x10 ***

Generation = 0, Population = 7.
...*......
..........
....*.....
..........
..........
*........*
........*.
..*.......
..........
*.........

Generation = 1, Population = 0.
..........
..........
..........
..........
..........
..........
..........
..........
..........
..........

Generation = 2, Population = 0.
..........
..........
..........
..........
..........
..........
..........
..........
..........
..........

Generation = 3, Population = 0.
..........
..........
..........
..........
..........
..........
..........
..........
..........
..........

Generation = 4, Population = 0.
..........
..........
..........
..........
..........
..........
..........
..........
..........
..........

Generation = 5, Population = 0.
..........
..........
..........
..........
..........
..........
..........
..........
..........
..........

Generation = 6, Population = 0.
..........
..........
..........
..........
..........
..........
..........
..........
..........
..........

Generation = 7, Population = 0.
..........
..........
..........
..........
..........
..........
..........
..........
..........
..........

Generation = 8, Population = 0.
..........
..........
..........
..........
..........
..........
..........
..........
..........
..........

Generation = 9, Population = 0.
..........
..........
..........
..........
..........
..........
..........
..........
..........
..........

Generation = 10, Population = 0.
..........
..........
..........
..........
..........
..........
..........
..........
..........
..........

*** Life<ConwayCell> 10x10 ***

Generation = 0, Population = 13.
.*...*.*..
..........
..........
....*.....
....**....
.....*....
..*......*
.........*
....*..*..
........*.

Generation = 1, Population = 8.
..........
..........
..........
....**....
....**....
....**....
..........
........*.
........*.
..........

Generation = 2, Population = 6.
..........
..........
..........
....**....
...*..*...
....**....
..........
..........
..........
..........

Generation = 3, Population = 6.
..........
..........
..........
....**....
...*..*...
....**....
..........
..........
..........
..........

Generation = 4, Population = 6.
..........
..........
..........
....**....
...*..*...
....**....
..........
..........
..........
..........

Generation = 5, Population = 6.
..........
..........
..........
....**....
...*..*...
....**....
..........
..........
..........
..........

Generation = 6, Population = 6.
..........
..........
..........
....**....
...*..*...
....**....
..........
..........
..........
..........

Generation = 7, Population = 6.
..........
..........
..........
....**....
...*..*...
....**....
..........
..........
..........
..........

Generation = 8, Population = 6.
..........
..........
..........
....**....
...*..*...
....**....
..........
..........
..........
..........

Generation = 9, Population = 6.
..........
..........
..........
....**....
...*..*...
....**....
..........
..........
..........
..........

Generation = 10, Population = 6.
..........
..........
..........
....**....
...*..*...
....**....
..........
..........
..........
..........

*** Life<ConwayCell> 10x10 ***

Generation = 0, Population = 8.
....*.....
..........
.......*..
.*........
..........
..........
*.......*.
*.......*.
..*.......
..........

Generation = 1, Population = 1.
..........
..........
..........
..........
..........
..........
..........
.*........
..........
..........

Generation = 2, Population = 0.
..........
..........
..........
..........
..........
..........
..........
..........
..........
..........

Generation = 3, Population = 0.
..........
..........
..........
..........
..........
..........
..........
..........
..........
..........

Generation = 4, Population = 0.
..........
..........
..........
..........
..........
..........
..........
..........
..........
..........

Generation = 5, Population = 0.
..........
..........
..........
..........
..........
..........
..........
..........
..........
..........

Generation = 6, Population = 0.
..........
..........
..........
..........
..........
..........
..........
..........
..........
..........

Generation = 7, Population = 0.
..........
..........
..........
..........
..........
..........
..........
..........
..........
..........

Generation = 8, Population = 0.
..........
..........
..........
..........
..........
..........
..........
..........
..........
..........

Generation = 9, Population = 0.
..........
..........
..........
..........
..........
..........
..........
..........
..........
..........

Generation = 10, Population = 0.
..........
..........
..........
..........
..........
..........
..........
..........
..........
..........

*** Life<ConwayCell> 10x10 ***

Generation = 0, Population = 11.
...*...*..
..........
*..*......
...*......
..*..*....
..........
.......*..
.......*..
..........
.....*...*

Generation = 1, Population = 3.
..........
..........
..........
..***.....
..........
..........
..........
..........
..........
..........

Generation = 2, Population = 3.
..........
..........
...*......
...*......
...*......
..........
..........
..........
..........
..........

Generation = 3, Population = 3.
..........
..........
..........
..***.....
..........
..........
..........
..........
..........
..........

Generation = 4, Population = 3.
..........
..........
...*......
...*......
...*......
..........
..........
..........
..........
..........

Generation = 5, Population = 3.
..........
..........
..........
..***.....
..........
..........
..........
..........
..........
..........

Generation = 6, Population = 3.
..........
..........
...*......
...*......
...*......
..........
..........
..........
..........
..........

Generation = 7, Population = 3.
..........
..........
..........
..***.....
..........
..........
..........
..........
..........
..........

Generation = 8, Population = 3.
..........
..........
...*......
...*......
...*......
..........
..........
..........
..........
..........

Generation = 9, Population = 3.
..........
..........
..........
..***.....
..........
..........
..........
..........
..........
..........

Generation = 10, Population = 3.
..........
..........
...*......
...*......
...*......
..........
..........
..........
..........
..........

*** Life<ConwayCell> 10x10 ***

Generation = 0, Population = 9.
.....*....
.......*.*
..........
.....*.*..
......*...
..........
..*...*...
..........
..........
.*........

Generation = 1, Population = 4.
..........
..........
......*.*.
......*...
......*...
..........
..........
..........
..........
..........

Generation = 2, Population = 3.
..........
..........
.......*..
.....**...
..........
..........
..........
..........
..........
..........

Generation = 3, Population = 2.
..........
..........
......*...
......*...
..........
..........
..........
..........
..........
..........

Generation = 4, Population = 0.
..........
..........
..........
..........
..........
..........
..........
..........
..........
..........

Generation = 5, Population = 0.
..........
..........
..........
..........
..........
..........
..........
..........
..........
..........

Generation = 6, Population = 0.
..........
..........
..........
..........
..........
..........
..........
..........
..........
..........

Generation = 7, Population = 0.
..........
..........
..........
..........
..........
..........
..........
..........
..........
..........

Generation = 8, Population = 0.
..........
..........
..........
..........
..........
..........
..........
..........
..........
..........

Generation = 9, Population = 0.
..........
..........
..........
..........
..........
..........
..........
..........
..........
..........

Generation = 10, Population = 0.
..........
..........
..........
..........
..........
..........
..........
..........
..........
..........

*** Life<ConwayCell> 10x10 ***

Generation = 0, Population = 6.
..........
..........
..........
**...*....
..........
..........
..........
...*......
.....*...*
..........

Generation = 1, Population = 0.
..........
..........
..........
..........
..........
..........
..........
..........
..........
..........

Generation = 2, Population = 0.
..........
..........
..........
..........
..........
..........
..........
..........
..........
..........

Generation = 3, Population = 0.
..........
..........
..........
..........
..........
..........
..........
..........
..........
..........

Generation = 4, Population = 0.
..........
..........
..........
..........
..........
..........
..........
..........
..........
..........

Generation = 5, Population = 0.
..........
..........
..........
..........
..........
..........
..........
..........
..........
..........

Generation = 6, Population = 0.
..........
..........
..........
..........
..........
..........
..........
..........
..........
..........

Generation = 7, Population = 0.
..........
..........
..........
..........
..........
..........
..........
..........
..........
..........

Generation = 8, Population = 0.
..........
..........
..........
..........
..........
..........
..........
..........
..........
..........

Generation = 9, Population = 0.
..........
..........
..........
..........
..........
..........
..........
..........
..........
..........

Generation = 10, Population = 0.
..........
..........
..........
..........
..........
..........
..........
..........
..........
..........

*** Life<ConwayCell> 10x10 ***

Generation = 0, Population = 12.
..........
....*..*..
*.........
.*........
.........*
........*.
*..*..*...
*.........
..*......*
..........

Generation = 1, Population = 1.
..........
..........
..........
..........
..........
..........
..........
.*........
..........
..........

Generation = 2, Population = 0.
..........
..........
..........
..........
..........
..........
..........
..........
..........
..........

Generation = 3, Population = 0.
..........
..........
..........
..........
..........
..........
..........
..........
..........
..........

Generation = 4, Population = 0.
..........
..........
..........
..........
..........
..........
..........
..........
..........
..........

Generation = 5, Population = 0.
..........
..........
..........
..........
..........
..........
..........
..........
..........
..........

Generation = 6, Population = 0.
..........
..........
..........
..........
..........
..........
..........
..........
..........
..........

Generation = 7, Population = 0.
..........
..........
..........
..........
..........
..........
..........
..........
..........
..........

Generation = 8, Population = 0.
..........
..........
..........
..........
..........
..........
..........
..........
..........
..........

Generation = 9, Population = 0.
..........
..........
..........
..........
..........
..........
..........
..........
..........
..........

Generation = 10, Population = 0.
..........
..........
..........
..........
..........
..........
..........
..........
..........
..........

*** Life<ConwayCell> 10x10 ***

Generation = 0, Population = 13.
...*....*.
.....*..*.
*...*.....
..........
.....*..*.
.....*....
.*........
......*..*
..........
....*.....

Generation = 1, Population = 1.
..........
....*.....
..........
..........
..........
..........
..........
..........
..........
..........

Generation = 2, Population = 0.
..........
..........
..........
..........
..........
..........
..........
..........
..........
..........

Generation = 3, Population = 0.
..........
..........
..........
..........
..........
..........
..........
..........
..........
..........

Generation = 4, Population = 0.
..........
..........
..........
..........
..........
..........
..........
..........
..........
..........

Generation = 5, Population = 0.
..........
..........
..........
..........
..........
..........
..........
..........
..........
..........

Generation = 6, Population = 0.
..........
..........
..........
..........
..........
..........
..........
..........
..........
..........

Generation = 7, Population = 0.
..........
..........
..........
..........
..........
..........
..........
..........
..........
..........

Generation = 8, Population = 0.
..........
..........
..........
..........
..........
..........
..........
..........
..........
..........

Generation = 9, Population = 0.
..........
..........
..........
..........
..........
..........
..........
..........
..........
..........

Generation = 10, Population = 0.
..........
..........
..........
..........
..........
..........
..........
..........
..........
..........

*** Life<ConwayCell> 10x10 ***

Generation = 0, Population = 11.
..........
..*.......
..*.......
.*........
....*.*...
..*......*
..........
..*....*..
.....*....
.*........

Generation = 1, Population = 2.
..........
..........
.**.......
..........
..........
..........
..........
..........
..........
..........

Generation = 2, Population = 0.
..........
..........
..........
..........
..........
..........
..........
..........
..........
..........

Generation = 3, Population = 0.
..........
..........
..........
..........
..........
..........
..........
..........
..........
..........

Generation = 4, Population = 0.
..........
..........
..........
..........
..........
..........
..........
..........
..........
..........

Generation = 5, Population = 0.
..........
..........
..........
..........
..........
..........
..........
..........
..........
..........

Generation = 6, Population = 0.
..........
..........
..........
..........
..........
..........
..........
..........
..........
..........

Generation = 7, Population = 0.
..........
..........
..........
..........
..........
..........
..........
..........
..........
..........

Generation = 8, Population = 0.
..........
..........
..........
..........
..........
..........
..........
..........
..........
..........

Generation = 9, Population = 0.
..........
..........
..........
..........
..........
..........
..........
..........
..........
..........

Generation = 10, Population = 0.
..........
..........
..........
..........
..........
..........
..........
..........
..........
..........

*** Life<ConwayCell> 10x10 ***

Generation = 0, Population = 14.
..**......
....*.....
...*.....*
...*......
....*..**.
.......*..
*..*......
..........
....*..*..
..........

Generation = 1, Population = 12.
...*......
..*.*.....
...**.....
...**...*.
.......**.
.......**.
..........
..........
..........
..........

Generation = 2, Population = 12.
...*......
..*.*.....
..*..*....
...**..**.
.........*
.......**.
..........
..........
..........
..........

Generation = 3, Population = 10.
...*......
..*.*.....
..*..*....
...**...*.
.........*
........*.
..........
..........
..........
..........

Generation = 4, Population = 9.
...*......
..*.*.....
..*..*....
...**.....
........**
..........
..........
..........
..........
..........

Generation = 5, Population = 7.
...*......
..*.*.....
..*..*....
...**.....
..........
..........
..........
..........
..........
..........

Generation = 6, Population = 7.
...*......
..*.*.....
..*..*....
...**.....
..........
..........
..........
..........
..........
..........

Generation = 7, Population = 7.
...*......
..*.*.....
..*..*....
...**.....
..........
..........
..........
..........
..........
..........

Generation = 8, Population = 7.
...*......
..*.*.....
..*..*....
...**.....
..........
..........
..........
..........
..........
..........

Generation = 9, Population = 7.
...*......
..*.*.....
..*..*....
...**.....
..........
..........
..........
..........
..........
..........

Generation = 10, Population = 7.
...*......
..*.*.....
..*..*....
...**.....
..........
..........
..........
..........
..........
..........

*** Life<ConwayCell> 10x10 ***

Generation = 0, Population = 13.
........*.
..........
*.*.......
..*..*....
..........
....*.....
.....*...*
....*..*..
.*........
......**..

Generation = 1, Population = 6.
..........
..........
.*........
.*........
..........
..........
....**....
..........
......**..
..........

Generation = 2, Population = 2.
..........
..........
..........
..........
..........
..........
..........
.....**...
..........
..........

Generation = 3, Population = 0.
..........
..........
..........
..........
..........
..........
..........
..........
..........
..........

Generation = 4, Population = 0.
..........
..........
..........
..........
..........
..........
..........
..........
..........
..........

Generation = 5, Population = 0.
..........
..........
..........
..........
..........
..........
..........
..........
..........
..........

Generation = 6, Population = 0.
..........
..........
..........
..........
..........
..........
..........
..........
..........
..........

Generation = 7, Population = 0.
..........
..........
..........
..........
..........
..........
..........
..........
..........
..........

Generation = 8, Population = 0.
..........
..........
..........
..........
..........
..........
..........
..........
..........
..........

Generation = 9, Population = 0.
..........
..........
..........
..........
..........
..........
..........
..........
..........
..........

Generation = 10, Population = 0.
..........
..........
..........
..........
..........
..........
..........
..........
..........
..........

*** Life<ConwayCell> 10x10 ***

Generation = 0, Population = 10.
..........
..........
...*......
..*..*....
..*....*.*
....*..*..
..*.......
......*...
..........
..........

Generation = 1, Population = 7.
..........
..........
..........
..**......
...*..*.*.
...*....*.
..........
..........
..........
..........

Generation = 2, Population = 6.
..........
..........
..........
..**......
...**..*..
.......*..
..........
..........
..........
..........

Generation = 3, Population = 6.
..........
..........
..........
..***.....
..***.....
..........
..........
..........
..........
..........

Generation = 4, Population = 6.
..........
..........
...*......
..*.*.....
..*.*.....
...*......
..........
..........
..........
..........

Generation = 5, Population = 6.
..........
..........
...*......
..*.*.....
..*.*.....
...*......
..........
..........
..........
..........

Generation = 6, Population = 6.
..........
..........
...*......
..*.*.....
..*.*.....
...*......
..........
..........
..........
..........

Generation = 7, Population = 6.
..........
..........
...*......
..*.*.....
..*.*.....
...*......
..........
..........
..........
..........

Generation = 8, Population = 6.
..........
..........
...*......
..*.*.....
..*.*.....
...*......
..........
..........
..........
..........

Generation = 9, Population = 6.
..........
..........
...*......
..*.*.....
..*.*.....
...*......
..........
..........
..........
..........

Generation = 10, Population = 6.
..........
..........
...*......
..*.*.....
..*.*.....
...*......
..........
..........
..........
..........

*** Life<ConwayCell> 10x10 ***

Generation = 0, Population = 5.
...**.....
......*...
..........
..........
.........*
..........
..........
..........
..........
.......*..

Generation = 1, Population = 0.
..........
..........
..........
..........
..........
..........
..........
..........
..........
..........

Generation = 2, Population = 0.
..........
..........
..........
..........
..........
..........
..........
..........
..........
..........

Generation = 3, Population = 0.
..........
..........
..........
..........
..........
..........
..........
..........
..........
..........

Generation = 4, Population = 0.
..........
..........
..........
..........
..........
..........
..........
..........
..........
..........

Generation = 5, Population = 0.
..........
..........
..........
..........
..........
..........
..........
..........
..........
..........

Generation = 6, Population = 0.
..........
..........
..........
..........
..........
..........
..........
..........
..........
..........

Generation = 7, Population = 0.
..........
..........
..........
..........
..........
..........
..........
..........
..........
..........

Generation = 8, Population = 0.
..........
..........
..........
..........
..........
..........
..........
..........
..........
..........

Generation = 9, Population = 0.
..........
..........
..........
..........
..........
..........
..........
..........
..........
..........

Generation = 10, Population = 0.
..........
..........
..........
..........
..........
..........
..........
..........
..........
..........

*** Life<ConwayCell> 10x10 ***

Generation = 0, Population = 13.
.....*.*..
..*......*
..........
....**....
..*......*
....*.....
..*.......
..........
.....**...
......*...

Generation = 1, Population = 8.
..........
..........
..........
..........
...***....
...*......
..........
..........
.....**...
.....**...

Generation = 2, Population = 8.
..........
..........
..........
....*.....
...**.....
...*......
..........
..........
.....**...
.....**...

Generation = 3, Population = 10.
..........
..........
..........
...**.....
...**.....
...**.....
..........
..........
.....**...
.....**...

Generation = 4, Population = 10.
..........
..........
..........
...**.....
..*..*....
...**.....
..........
..........
.....**...
.....**...

Generation = 5, Population = 10.
..........
..........
..........
...**.....
..*..*....
...**.....
..........
..........
.....**...
.....**...

Generation = 6, Population = 10.
..........
..........
..........
...**.....
..*..*....
...**.....
..........
..........
.....**...
.....**...

Generation = 7, Population = 10.
..........
..........
..........
...**.....
..*..*....
...**.....
..........
..........
.....**...
.....**...

Generation = 8, Population = 10.
..........
..........
..........
...**.....
..*..*....
...**.....
..........
..........
.....**...
.....**...

Generation = 9, Population = 10.
..........
..........
..........
...**.....
..*..*....
...**.....
..........
..........
.....**...
.....**...

Generation = 10, Population = 10.
..........
..........
..........
...**.....
..*..*....
...**.....
..........
..........
.....**...
.....**...

*** Life<ConwayCell> 10x10 ***

Generation = 0, Population = 5.
......*...
..........
..........
..........
..........
.*........
*.........
....*.....
..........
...*......

Generation = 1, Population = 0.
..........
..........
..........
..........
..........
..........
..........
..........
..........
..........

Generation = 2, Population = 0.
..........
..........
..........
..........
..........
..........
..........
..........
..........
..........

Generation = 3, Population = 0.
..........
..........
..........
..........
..........
..........
..........
..........
..........
..........

Generation = 4, Population = 0.
..........
..........
..........
..........
..........
..........
..........
..........
..........
..........

Generation = 5, Population = 0.
..........
..........
..........
..........
..........
..........
..........
..........
..........
..........

Generation = 6, Population = 0.
..........
..........
..........
..........
..........
..........
..........
..........
..........
..........

Generation = 7, Population = 0.
..........
..........
..........
..........
..........
..........
..........
..........
..........
..........

Generation = 8, Population = 0.
..........
..........
..........
..........
..........
..........
..........
..........
..........
..........

Generation = 9, Population = 0.
..........
..........
..........
..........
..........
..........
..........
..........
..........
..........

Generation = 10, Population = 0.
..........
..........
..........
..........
..........
..........
..........
..........
..........
..........

*** Life<ConwayCell> 10x10 ***

Generation = 0, Population = 6.
.......**.
..........
..........
....*...*.
..........
..........
..*.......
..........
..........
.*........

Generation = 1, Population = 0.
..........
..........
..........
..........
..........
..........
..........
..........
..........
..........

Generation = 2, Population = 0.
..........
..........
..........
..........
..........
..........
..........
..........
..........
..........

Generation = 3, Population = 0.
..........
..........
..........
..........
..........
..........
..........
..........
..........
..........

Generation = 4, Population = 0.
..........
..........
..........
..........
..........
..........
..........
..........
..........
..........

Generation = 5, Population = 0.
..........
..........
..........
..........
..........
..........
..........
..........
..........
..........

Generation = 6, Population = 0.
..........
..........
..........
..........
..........
..........
..........
..........
..........
..........

Generation = 7, Population = 0.
..........
..........
..........
..........
..........
..........
..........
..........
..........
..........

Generation = 8, Population = 0.
..........
..........
..........
..........
..........
..........
..........
..........
..........
..........

Generation = 9, Population = 0.
..........
..........
..........
..........
..........
..........
..........
..........
..........
..........

Generation = 10, Population = 0.
..........
..........
..........
..........
..........
..........
..........
..........
..........
..........

*** Life<ConwayCell> 10x10 ***

Generation = 0, Population = 12.
.*........
..........
...**.....
.*........
..*.*.....
.....*....
....*.....
...**..*..
..........
.......*..

Generation = 1, Population = 10.
..........
..........
..........
..*.*.....
..........
...***....
...***....
...**.....
..........
..........

Generation = 2, Population = 6.
..........
..........
..........
..........
.....*....
...*.*....
..*.......
...*.*....
..........
..........

Generation = 3, Population = 4.
..........
..........
..........
..........
....*.....
....*.....
..**......
..........
..........
..........

Generation = 4, Population = 2.
..........
..........
..........
..........
..........
....*.....
...*......
..........
..........
..........

Generation = 5, Population = 0.
..........
..........
..........
..........
..........
..........
..........
..........
..........
..........

Generation = 6, Population = 0.
..........
..........
..........
..........
..........
..........
..........
..........
..........
..........

Generation = 7, Population = 0.
..........
..........
..........
..........
..........
..........
..........
..........
..........
..........

Generation = 8, Population = 0.
..........
..........
..........
..........
..........
..........
..........
..........
..........
..........

Generation = 9, Population = 0.
..........
..........
..........
..........
..........
..........
..........
..........
..........
..........

Generation = 10, Population = 0.
..........
..........
..........
..........
..........
..........
..........
..........
..........
..........

*** Life<ConwayCell> 10x10 ***

Generation = 0, Population = 10.
*........*
*.........
..........
...*......
..........
..*.*.....
.....*....
*.........
...*......
*.........

Generation = 1, Population = 1.
..........
..........
..........
..........
...*......
..........
..........
..........
..........
..........

Generation = 2, Population = 0.
..........
..........
..........
..........
..........
..........
..........
..........
..........
..........

Generation = 3, Population = 0.
..........
..........
..........
..........
..........
..........
..........
..........
..........
..........

Generation = 4, Population = 0.
..........
..........
..........
..........
..........
..........
..........
..........
..........
..........

Generation = 5, Population = 0.
..........
..........
..........
..........
..........
..........
..........
..........
..........
..........

Generation = 6, Population = 0.
..........
..........
..........
..........
..........
..........
..........
..........
..........
..........

Generation = 7, Population = 0.
..........
..........
..........
..........
..........
..........
..........
..........
..........
..........

Generation = 8, Population = 0.
..........
..........
..........
..........
..........
..........
..........
..........
..........
..........

Generation = 9, Population = 0.
..........
..........
..........
..........
..........
..........
..........
..........
..........
..........

Generation = 10, Population = 0.
..........
..........
..........
..........
..........
..........
..........
..........
..........
..........

*** Life<ConwayCell> 10x10 ***

Generation = 0, Population = 12.
.........*
..*..*....
....*.....
...*......
.........*
.*........
......*...
......*...
.*........
..**......

Generation = 1, Population = 4.
..........
..........
...**.....
..........
..........
..........
..........
..........
..*.......
..*.......

Generation = 2, Population = 0.
..........
..........
..........
..........
..........
..........
..........
..........
..........
..........

Generation = 3, Population = 0.
..........
..........
..........
..........
..........
..........
..........
..........
..........
..........

Generation = 4, Population = 0.
..........
..........
..........
..........
..........
..........
..........
..........
..........
..........

Generation = 5, Population = 0.
..........
..........
..........
..........
..........
..........
..........
..........
..........
..........

Generation = 6, Population = 0.
..........
..........
..........
..........
..........
..........
..........
..........
..........
..........

Generation = 7, Population = 0.
..........
..........
..........
..........
..........
..........
..........
..........
..........
..........

Generation = 8, Population = 0.
..........
..........
..........
..........
..........
..........
..........
..........
..........
..........

Generation = 9, Population = 0.
..........
..........
..........
..........
..........
..........
..........
..........
..........
..........

Generation = 10, Population = 0.
..........
..........
..........
..........
..........
..........
..........
..........
..........
..........

*** Life<ConwayCell> 10x10 ***

Generation = 0, Population = 9.
**........
*.........
.........*
..........
...*......
........*.
..........
..*...*...
..........
..*.......

Generation = 1, Population = 4.
**........
**........
..........
..........
..........
..........
..........
..........
..........
..........

Generation = 2, Population = 4.
**........
**........
..........
..........
..........
..........
..........
..........
..........
..........

Generation = 3, Population = 4.
**........
**........
..........
..........
..........
..........
..........
..........
..........
..........

Generation = 4, Population = 4.
**........
**........
..........
..........
..........
..........
..........
..........
..........
..........

Generation = 5, Population = 4.
**........
**........
..........
..........
..........
..........
..........
..........
..........
..........

Generation = 6, Population = 4.
**........
**........
..........
..........
..........
..........
..........
..........
..........
..........

Generation = 7, Population = 4.
**........
**........
..........
..........
..........
..........
..........
..........
..........
..........

Generation = 8, Population = 4.
**........
**........
..........
..........
..........
..........
..........
..........
..........
..........

Generation = 9, Population = 4.
**........
**........
..........
..........
..........
..........
..........
..........
..........
..........

Generation = 10, Population = 4.
**........
**........
..........
..........
..........
..........
..........
..........
..........
..........
