25

14 28
10
9 13
6 1
10 11
7 25
7 18
0 10
6 20
4 13
8 23
0 13
19 7

15 8
10
13 0
11 6
6 1
9 3
8 5
0 1
2 7
7 7
0 5
14 7
23 5

27 5
26
9 2
9 3
22 1
4 4
6 3
7 0
6 4
26 2
14 4
6 4
16 3
0 2
5 2
5 1
24 2
6 4
16 4
23 3
14 2
23 4
26 0
3 2
23 0
0 0
2 3
14 1
11 15

12 28
22
10 5
7 20
9 0
5 13
8 19
10 16
3 13
9 23
3 20
6 6
1 10
7 9
2 12
0 16
8 14
1 21
6 5
1 8
9 2
1 22
11 9
9 15
19 15

15 26
13
5 7
10 19
8 15
8 2
4 12
1 7
8 15
7 11
14 22
14 11
11 22
10 20
3 1
18 29

16 5
23
6 2
0 4
5 2
3 3
5 1
7 2
1 3
12 1
5 4
4 1
3 3
1 0
4 4
0 4
3 2
10 3
15 2
2 3
3 0
4 0
13 4
3 3
8 3
29 19

6 10
15
0 1
1 9
3 7
1 3
5 3
1 1
1 5
5 1
5 3
2 7
5 7
5 9
3 3
4 2
5 2
17 24

14 30
18
9 3
9 5
13 11
6 3
1 14
2 22
7 25
5 8
9 9
13 7
1 15
0 13
2 11
10 28
7 2
13 11
7 14
10 28
10 7

12 26
26
2 24
2 0
10 11
2 25
10 5
8 3
3 13
6 19
9 14
7 0
11 0
4 4
8 3
9 7
1 25
9 0
9 20
4 19
3 15
3 7
3 2
1 1
3 16
4 23
3 18
2 20
28 9

30 29
15
2 15
8 5
10 3
18 0
16 7
19 19
22 4
25 10
0 11
5 17
21 22
8 0
22 0
4 2
19 12
17 25

15 14
11
6 11
7 5
8 6
3 5
4 0
10 0
12 12
0 3
14 13
7 0
6 8
24 12

22 14
9
14 12
14 7
2 8
11 11
19 4
14 11
3 6
8 10
2 0
18 24

5 13
25
2 11
0 4
1 0
1 1
0 12
1 7
3 3
4 9
0 6
0 6
4 1
1 2
3 8
4 3
4 3
1 11
2 12
3 3
4 1
0 3
3 9
3 10
4 4
4 2
1 0
14 30

18 21
25
9 9
10 18
17 13
8 9
14 8
15 2
3 2
12 2
0 0
16 13
9 14
14 6
12 17
5 11
16 16
7 14
9 10
0 12
12 3
16 11
16 3
12 16
12 14
13 9
7 16
19 30

5 7
21
2 3
0 3
1 5
3 5
4 5
1 2
1 3
3 5
2 1
3 1
0 1
0 4
4 1
3 1
4 5
3 4
4 6
3 2
3 1
2 5
3 6
12 16

11 26
15
10 10
7 12
4 2
2 14
2 15
9 11
8 9
8 22
5 13
9 3
0 24
0 10
4 17
7 3
9 13
27 26

10 24
9
6 4
0 0
4 4
9 21
0 5
0 18
2 3
2 0
9 1
24 13

6 25
6
0 17
1 2
4 19
2 14
3 24
3 5
30 25

27 25
8
1 18
10 9
2 8
26 11
25 2
6 8
1 10
5 11
24 19

10 8
8
9 0
5 0
6 4
9 3
7 6
1 0
4 3
3 0
16 17

9 17
10
8 12
4 0
4 9
7 11
8 5
5 4
7 2
0 13
7 0
5 14
6 13

5 11
29
0 9
1 6
0 10
1 10
3 6
4 1
4 5
4 2
4 10
4 3
3 10
3 3
3 8
1 3
3 7
4 2
0 5
1 2
0 6
0 0
2 1
2 2
3 0
4 1
0 4
0 4
0 5
0 2
3 6
29 8

27 29
29
1 14
26 14
2 23
21 19
26 11
23 18
8 3
16 24
6 1
10 11
12 6
3 21
9 8
6 17
23 1
14 5
4 6
14 23
2 14
3 5
24 20
24 26
12 24
0 10
15 28
17 14
5 5
6 10
3 11
20 11

17 14
12
7 2
4 13
15 0
15 4
16 6
12 0
14 5
8 5
3 13
2 6
12 13
11 6
18 14

22 12
19
15 1
10 1
4 2
11 4
16 1
20 4
8 0
9 10
5 6
16 8
14 1
15 6
21 8
0 10
12 1
2 2
13 9
20 1
2 4
27 11
