*** Life<Cell> 17x6 ***

Generation = 0, Population = 1.
------
------
------
------
------
------
-0----
------
------
------
------
------
------
------
------
------
------

*** Life<Cell> 19x4 ***

Generation = 0, Population = 6.
00--
----
----
----
-0--
---0
----
----
----
----
---0
----
----
----
----
----
--0-
----
----

*** Life<Cell> 4x15 ***

Generation = 0, Population = 15.
0---00--00---00
-------00-0--0-
------------0--
--------0----00

*** Life<Cell> 11x5 ***

Generation = 0, Population = 15.
0-0-0
-----
-----
-----
--0--
---0-
0--0-
00--0
---0-
---00
---00

*** Life<Cell> 19x1 ***

Generation = 0, Population = 13.
0
-
0
0
0
0
0
0
0
0
0
-
0
0
-
-
-
0
-

Generation = 4, Population = 8.
-
0
-
0
-
0
-
0
-
-
*
1
.
-
1
-
0
-
-

*** Life<Cell> 11x2 ***

Generation = 0, Population = 10.
00
--
00
--
-0
--
--
00
0-
-0
-0

*** Life<Cell> 4x2 ***

Generation = 0, Population = 6.
00
00
-0
0-

*** Life<Cell> 9x7 ***

Generation = 0, Population = 17.
0------
0-0----
----0-0
-------
-0-0-0-
-----00
0-0--00
-0-----
0-----0

*** Life<Cell> 10x17 ***

Generation = 0, Population = 8.
-----------------
--0--------------
-----------------
---------0---0---
-----------------
-----------------
-----------------
-0------------0--
--------0--------
-----0---------0-

*** Life<Cell> 19x11 ***

Generation = 0, Population = 12.
---------0-
--------0--
------0----
-----------
-----------
--00--0----
-----------
-----------
-----0-----
-----------
--0--------
-----------
0----------
-----------
--------0--
--0--------
-----------
--------0--
-----------

*** Life<Cell> 1x6 ***

Generation = 0, Population = 3.
00-0--

*** Life<Cell> 18x19 ***

Generation = 0, Population = 11.
----------0--------
-------------------
-------------------
-------------------
-------------------
-------------------
-------------------
-------------------
-0-0----0-0--------
-------------------
-------------------
-------------------
---------------0---
-------------------
-------------------
----0---0----------
-------0-----------
------0------0-----

*** Life<Cell> 17x13 ***

Generation = 0, Population = 20.
-------------
--0----------
0----0------0
---------0---
-------------
--0----------
------0--0---
0-0---0------
---------0---
-------------
-------0----0
-00----------
-------------
-------------
-----00------
-------------
---0---0-----

*** Life<Cell> 3x4 ***

Generation = 0, Population = 6.
-0-0
0-0-
-00-

*** Life<Cell> 20x19 ***

Generation = 0, Population = 15.
-0-----------------
---0---0-----------
-------------------
-------------0-----
-------------------
---------0---------
-------------------
------0--0-----0---
-------------------
----------0----0---
-------------------
-------------------
-------------------
-------------------
-------------------
-------------------
-----------0-------
-------------0-0---
------0-----0------
-------------------

*** Life<Cell> 3x3 ***

Generation = 0, Population = 2.
---
--0
--0

*** Life<Cell> 3x5 ***

Generation = 0, Population = 12.
--000
000-0
00000

*** Life<Cell> 3x1 ***

Generation = 0, Population = 3.
0
0
0

*** Life<Cell> 6x7 ***

Generation = 0, Population = 16.
000----
-00---0
-------
0--0---
0-0-00-
00--0-0

*** Life<Cell> 14x20 ***

Generation = 0, Population = 10.
--------------0--0--
--------------------
--0-----------------
--------------------
-------------------0
--------------------
-----0-------------0
--------------------
----------0---------
--------------------
-------0------------
--------------------
---------------0----
------------------0-

*** Life<Cell> 14x13 ***

Generation = 0, Population = 11.
-----0-------
-------------
-------------
0------------
-------0-----
-------------
-----0-------
---------0---
----0--------
-------------
0-------0----
------0------
--------0----
----0--------

*** Life<Cell> 19x8 ***

Generation = 0, Population = 8.
--------
--------
--------
--0---0-
--0-----
--------
--0-----
--------
--------
--------
--0-----
--------
----0---
--------
--------
0-------
-0------
--------
--------

*** Life<Cell> 8x18 ***

Generation = 0, Population = 11.
------------------
---------------0--
-------------0----
-----------0------
--0-------0-------
-0------------0-00
-0-----0----------
------------------

*** Life<Cell> 20x10 ***

Generation = 0, Population = 11.
----------
0--------0
----0-----
----------
----------
0-0-------
----------
-----0----
----------
----------
----------
----------
----------
---0------
----------
----------
-----0----
----------
---0------
-0-----0--

Generation = 2, Population = 32.
----0-----
0-0----0-0
--0---0---
--0------0
----0-----
--0-00----
----------
0-00---0--
----------
-----0----
----------
---0------
----------
-0---0----
-----0----
---0------
-------0--
-0-----0--
-1--------
-0-1-0-0-0

*** Life<Cell> 1x7 ***

Generation = 0, Population = 5.
0-0-000

*** Life<Cell> 4x18 ***

Generation = 0, Population = 5.
--------0---------
-0------------0---
-------0----------
-------------0----

*** Life<Cell> 2x20 ***

Generation = 0, Population = 12.
0--00-----------0--0
-0-0---000------0-0-

*** Life<Cell> 16x13 ***

Generation = 0, Population = 7.
-------0-----
-------------
-------------
-------------
------------0
----------0--
-------------
---0---------
-------------
-------------
---0---------
-------------
--------0----
-------0-----
-------------
-------------

*** Life<Cell> 17x15 ***

Generation = 0, Population = 11.
---------0-----
-0-------------
---------------
---------------
-----------0---
---------------
---------------
--------0------
---------------
---------------
---------------
---------000---
0--------------
---------------
-----------0---
0--------------
--------0------

Generation = 16, Population = 112.
.--*.*-1..--0--
0111-1*111*0-11
11.11*--1*-.-*1
1*--*..*..-..-*
-..**.*-0.-*1.-
01-...1-1*-..**
*1-**.0*-.***0-
----.*1......*.
.***0*.*.--.*.*
.11*.*..*...-..
10*.-.1..*.--.-
..*0..1.**.....
*00.1.1.*.....1
...**.**.***1..
*....-.**1.-***
.*1..0.*-**..-1
..0....*1--....
