23

23 31
20
14 0
16 25
4 3
18 23
6 25
8 7
1 14
8 17
12 3
22 28
14 12
12 2
14 28
11 11
18 23
17 16
10 12
2 9
12 2
6 11
204 123

35 50
16
27 8
1 3
4 45
21 5
26 43
26 49
30 9
6 37
27 10
23 25
20 26
27 23
10 42
19 15
18 46
8 48
228 137

41 31
14
25 10
19 28
8 23
10 24
12 20
29 12
10 17
14 24
12 21
7 6
23 13
20 14
2 3
32 3
347 120

36 49
20
30 41
22 21
20 45
8 48
16 18
30 17
16 29
22 17
10 13
27 6
3 46
2 32
24 26
24 35
8 18
3 48
12 48
27 40
1 28
23 16
351 111

14 27
18
7 11
9 25
1 25
9 7
13 1
5 19
13 11
12 23
10 9
3 19
0 10
4 0
11 0
4 24
8 24
8 21
0 9
7 14
33 82

17 25
13
11 11
9 22
12 3
10 5
13 8
15 13
14 14
3 14
0 19
5 5
13 9
3 20
14 15
361 113

17 33
12
12 7
15 26
14 24
16 24
9 24
0 12
10 1
9 19
2 19
13 30
0 5
13 22
196 191

23 33
16
17 29
20 30
16 10
19 5
13 17
1 28
13 16
4 31
20 24
7 6
21 7
7 30
21 30
4 19
21 30
9 0
283 20

10 17
10
0 5
3 9
9 1
4 9
3 3
3 1
4 8
4 7
7 3
9 1
203 27

26 27
11
1 13
7 23
13 14
14 4
4 26
17 4
19 2
5 9
21 26
2 21
25 3
245 49

44 36
18
30 17
24 15
28 6
17 32
6 30
28 12
1 14
0 31
16 26
25 11
4 27
4 5
11 26
28 11
15 16
8 20
6 7
22 5
41 46

33 14
13
26 12
16 5
22 11
3 11
28 1
4 2
19 10
9 2
19 4
31 6
8 13
2 10
26 13
2 3

32 26
16
29 21
25 0
27 14
31 12
2 19
1 4
13 5
9 8
18 0
5 5
17 17
3 9
7 2
30 23
13 25
0 7
256 16

38 15
20
23 4
12 13
19 8
7 7
19 14
15 9
16 1
2 7
21 11
8 2
33 4
32 6
32 10
34 10
24 7
35 6
1 10
13 4
36 9
36 14
88 36

19 40
11
18 36
5 36
5 3
15 25
2 12
14 8
18 15
13 15
0 3
5 21
9 35
89 174

26 46
12
6 2
20 42
3 10
21 31
18 24
14 7
10 13
2 1
3 21
15 9
1 33
5 0
69 117

49 48
19
6 15
7 36
38 22
26 45
35 36
27 46
30 29
9 44
19 18
25 32
14 7
30 43
12 34
9 30
40 2
1 19
26 33
12 30
1 35
171 113

14 30
12
9 1
8 25
11 4
13 14
11 9
7 16
10 21
13 17
10 15
10 5
8 12
4 7
348 47

40 38
10
5 33
31 15
37 0
28 27
37 11
39 1
12 17
39 28
31 5
9 12
370 38

38 20
19
7 4
28 14
3 0
24 3
9 18
0 10
31 2
22 7
6 4
12 14
4 16
36 2
35 7
3 4
37 2
2 9
18 9
25 2
23 6
333 168

15 38
13
1 15
14 26
2 18
13 8
8 21
8 15
14 11
5 1
5 28
0 24
12 9
8 6
12 19
238 5

38 16
10
20 9
36 14
6 2
31 1
31 12
6 12
7 10
13 3
11 10
35 3
266 163

16 15
13
9 0
9 10
9 4
6 8
3 7
7 2
0 13
6 1
10 12
5 6
0 8
4 6
6 13
154 12
